{
  "description": "IPAddressSpec describe the attributes in an IP Address.",
  "properties": {
    "parentRef": {
      "$ref": "https://gitlab.cern.ch/jeedy-public/kubernetes-json-schemas/master/v1.27.9/_definitions.json#/definitions/io.k8s.api.networking.v1alpha1.ParentReference",
      "description": "ParentRef references the resource that an IPAddress is attached to. An IPAddress must reference a parent object."
    }
  },
  "type": "object",
  "$schema": "http://json-schema.org/schema#"
}