{
  "description": "PriorityLevelConfigurationStatus represents the current state of a \"request-priority\".",
  "properties": {
    "conditions": {
      "description": "`conditions` is the current state of \"request-priority\".",
      "items": {
        "$ref": "https://gitlab.cern.ch/jeedy-public/kubernetes-json-schemas/master/v1.27.9/_definitions.json#/definitions/io.k8s.api.flowcontrol.v1beta3.PriorityLevelConfigurationCondition"
      },
      "type": [
        "array",
        "null"
      ],
      "x-kubernetes-list-map-keys": [
        "type"
      ],
      "x-kubernetes-list-type": "map",
      "x-kubernetes-patch-merge-key": "type",
      "x-kubernetes-patch-strategy": "merge"
    }
  },
  "type": "object",
  "$schema": "http://json-schema.org/schema#"
}