{
  "description": "APIGroup contains the name, the supported versions, and the preferred version of a group.",
  "properties": {
    "apiVersion": {
      "description": "APIVersion defines the versioned schema of this representation of an object. Servers should convert recognized schemas to the latest internal value, and may reject unrecognized values. More info: https://git.k8s.io/community/contributors/devel/sig-architecture/api-conventions.md#resources",
      "type": [
        "string",
        "null"
      ],
      "enum": [
        "v1"
      ]
    },
    "kind": {
      "description": "Kind is a string value representing the REST resource this object represents. Servers may infer this from the endpoint the client submits requests to. Cannot be updated. In CamelCase. More info: https://git.k8s.io/community/contributors/devel/sig-architecture/api-conventions.md#types-kinds",
      "type": [
        "string",
        "null"
      ],
      "enum": [
        "APIGroup"
      ]
    },
    "name": {
      "description": "name is the name of the group.",
      "type": [
        "string",
        "null"
      ]
    },
    "preferredVersion": {
      "$ref": "https://gitlab.cern.ch/jeedy-public/kubernetes-json-schemas/-/raw/master/v1.21.6/_definitions.json#/definitions/io.k8s.apimachinery.pkg.apis.meta.v1.GroupVersionForDiscovery",
      "description": "preferredVersion is the version preferred by the API server, which probably is the storage version."
    },
    "serverAddressByClientCIDRs": {
      "description": "a map of client CIDR to server address that is serving this group. This is to help clients reach servers in the most network-efficient way possible. Clients can use the appropriate server address as per the CIDR that they match. In case of multiple matches, clients should use the longest matching CIDR. The server returns only those CIDRs that it thinks that the client can match. For example: the master will return an internal IP CIDR only, if the client reaches the server using an internal IP. Server looks at X-Forwarded-For header or X-Real-Ip header or request.RemoteAddr (in that order) to get the client IP.",
      "items": {
        "$ref": "https://gitlab.cern.ch/jeedy-public/kubernetes-json-schemas/-/raw/master/v1.21.6/_definitions.json#/definitions/io.k8s.apimachinery.pkg.apis.meta.v1.ServerAddressByClientCIDR"
      },
      "type": [
        "array",
        "null"
      ]
    },
    "versions": {
      "description": "versions are the versions supported in this group.",
      "items": {
        "$ref": "https://gitlab.cern.ch/jeedy-public/kubernetes-json-schemas/-/raw/master/v1.21.6/_definitions.json#/definitions/io.k8s.apimachinery.pkg.apis.meta.v1.GroupVersionForDiscovery"
      },
      "type": [
        "array",
        "null"
      ]
    }
  },
  "required": [
    "name",
    "versions"
  ],
  "type": "object",
  "x-kubernetes-group-version-kind": [
    {
      "group": "",
      "kind": "APIGroup",
      "version": "v1"
    }
  ],
  "$schema": "http://json-schema.org/schema#"
}