{
  "description": "PersistentVolumeClaimSpec describes the common attributes of storage devices and allows a Source for provider-specific attributes",
  "properties": {
    "accessModes": {
      "description": "AccessModes contains the desired access modes the volume should have. More info: https://kubernetes.io/docs/concepts/storage/persistent-volumes#access-modes-1",
      "items": {
        "type": [
          "string",
          "null"
        ]
      },
      "type": [
        "array",
        "null"
      ]
    },
    "dataSource": {
      "$ref": "https://gitlab.cern.ch/jeedy-public/kubernetes-json-schemas/-/raw/master/v1.21.6/_definitions.json#/definitions/io.k8s.api.core.v1.TypedLocalObjectReference",
      "description": "This field can be used to specify either: * An existing VolumeSnapshot object (snapshot.storage.k8s.io/VolumeSnapshot) * An existing PVC (PersistentVolumeClaim) * An existing custom resource that implements data population (Alpha) In order to use custom resource types that implement data population, the AnyVolumeDataSource feature gate must be enabled. If the provisioner or an external controller can support the specified data source, it will create a new volume based on the contents of the specified data source."
    },
    "resources": {
      "$ref": "https://gitlab.cern.ch/jeedy-public/kubernetes-json-schemas/-/raw/master/v1.21.6/_definitions.json#/definitions/io.k8s.api.core.v1.ResourceRequirements",
      "description": "Resources represents the minimum resources the volume should have. More info: https://kubernetes.io/docs/concepts/storage/persistent-volumes#resources"
    },
    "selector": {
      "$ref": "https://gitlab.cern.ch/jeedy-public/kubernetes-json-schemas/-/raw/master/v1.21.6/_definitions.json#/definitions/io.k8s.apimachinery.pkg.apis.meta.v1.LabelSelector",
      "description": "A label query over volumes to consider for binding."
    },
    "storageClassName": {
      "description": "Name of the StorageClass required by the claim. More info: https://kubernetes.io/docs/concepts/storage/persistent-volumes#class-1",
      "type": [
        "string",
        "null"
      ]
    },
    "volumeMode": {
      "description": "volumeMode defines what type of volume is required by the claim. Value of Filesystem is implied when not included in claim spec.",
      "type": [
        "string",
        "null"
      ]
    },
    "volumeName": {
      "description": "VolumeName is the binding reference to the PersistentVolume backing this claim.",
      "type": [
        "string",
        "null"
      ]
    }
  },
  "type": "object",
  "$schema": "http://json-schema.org/schema#"
}