{
  "description": "A list of ephemeral containers used with the Pod ephemeralcontainers subresource.",
  "properties": {
    "apiVersion": {
      "description": "APIVersion defines the versioned schema of this representation of an object. Servers should convert recognized schemas to the latest internal value, and may reject unrecognized values. More info: https://git.k8s.io/community/contributors/devel/sig-architecture/api-conventions.md#resources",
      "type": [
        "string",
        "null"
      ],
      "enum": [
        "v1"
      ]
    },
    "ephemeralContainers": {
      "description": "A list of ephemeral containers associated with this pod. New ephemeral containers may be appended to this list, but existing ephemeral containers may not be removed or modified.",
      "items": {
        "$ref": "https://gitlab.cern.ch/jeedy-public/kubernetes-json-schemas/-/raw/master/v1.21.4/_definitions.json#/definitions/io.k8s.api.core.v1.EphemeralContainer"
      },
      "type": [
        "array",
        "null"
      ],
      "x-kubernetes-patch-merge-key": "name",
      "x-kubernetes-patch-strategy": "merge"
    },
    "kind": {
      "description": "Kind is a string value representing the REST resource this object represents. Servers may infer this from the endpoint the client submits requests to. Cannot be updated. In CamelCase. More info: https://git.k8s.io/community/contributors/devel/sig-architecture/api-conventions.md#types-kinds",
      "type": [
        "string",
        "null"
      ],
      "enum": [
        "EphemeralContainers"
      ]
    },
    "metadata": {
      "$ref": "https://gitlab.cern.ch/jeedy-public/kubernetes-json-schemas/-/raw/master/v1.21.4/_definitions.json#/definitions/io.k8s.apimachinery.pkg.apis.meta.v1.ObjectMeta"
    }
  },
  "required": [
    "ephemeralContainers"
  ],
  "type": "object",
  "x-kubernetes-group-version-kind": [
    {
      "group": "",
      "kind": "EphemeralContainers",
      "version": "v1"
    }
  ],
  "$schema": "http://json-schema.org/schema#"
}