{
  "description": "AggregationRule describes how to locate ClusterRoles to aggregate into the ClusterRole",
  "properties": {
    "clusterRoleSelectors": {
      "description": "ClusterRoleSelectors holds a list of selectors which will be used to find ClusterRoles and create the rules. If any of the selectors match, then the ClusterRole's permissions will be added",
      "items": {
        "$ref": "https://gitlab.cern.ch/jeedy-public/kubernetes-json-schemas/-/raw/master/v1.21.8/_definitions.json#/definitions/io.k8s.apimachinery.pkg.apis.meta.v1.LabelSelector"
      },
      "type": [
        "array",
        "null"
      ]
    }
  },
  "type": "object",
  "$schema": "http://json-schema.org/schema#"
}