{
  "description": "IngressSpec describes the Ingress the user wishes to exist.",
  "properties": {
    "defaultBackend": {
      "$ref": "https://gitlab.cern.ch/jeedy-public/kubernetes-json-schemas/-/raw/master/v1.25.6/_definitions.json#/definitions/io.k8s.api.networking.v1.IngressBackend",
      "description": "DefaultBackend is the backend that should handle requests that don't match any rule. If Rules are not specified, DefaultBackend must be specified. If DefaultBackend is not set, the handling of requests that do not match any of the rules will be up to the Ingress controller."
    },
    "ingressClassName": {
      "description": "IngressClassName is the name of an IngressClass cluster resource. Ingress controller implementations use this field to know whether they should be serving this Ingress resource, by a transitive connection (controller -> IngressClass -> Ingress resource). Although the `kubernetes.io/ingress.class` annotation (simple constant name) was never formally defined, it was widely supported by Ingress controllers to create a direct binding between Ingress controller and Ingress resources. Newly created Ingress resources should prefer using the field. However, even though the annotation is officially deprecated, for backwards compatibility reasons, ingress controllers should still honor that annotation if present.",
      "type": [
        "string",
        "null"
      ]
    },
    "rules": {
      "description": "A list of host rules used to configure the Ingress. If unspecified, or no rule matches, all traffic is sent to the default backend.",
      "items": {
        "$ref": "https://gitlab.cern.ch/jeedy-public/kubernetes-json-schemas/-/raw/master/v1.25.6/_definitions.json#/definitions/io.k8s.api.networking.v1.IngressRule"
      },
      "type": [
        "array",
        "null"
      ],
      "x-kubernetes-list-type": "atomic"
    },
    "tls": {
      "description": "TLS configuration. Currently the Ingress only supports a single TLS port, 443. If multiple members of this list specify different hosts, they will be multiplexed on the same port according to the hostname specified through the SNI TLS extension, if the ingress controller fulfilling the ingress supports SNI.",
      "items": {
        "$ref": "https://gitlab.cern.ch/jeedy-public/kubernetes-json-schemas/-/raw/master/v1.25.6/_definitions.json#/definitions/io.k8s.api.networking.v1.IngressTLS"
      },
      "type": [
        "array",
        "null"
      ],
      "x-kubernetes-list-type": "atomic"
    }
  },
  "type": "object",
  "$schema": "http://json-schema.org/schema#"
}