{
  "description": "PersistentVolume (PV) is a storage resource provisioned by an administrator. It is analogous to a node. More info: https://kubernetes.io/docs/concepts/storage/persistent-volumes",
  "properties": {
    "apiVersion": {
      "description": "APIVersion defines the versioned schema of this representation of an object. Servers should convert recognized schemas to the latest internal value, and may reject unrecognized values. More info: https://git.k8s.io/community/contributors/devel/sig-architecture/api-conventions.md#resources",
      "type": [
        "string",
        "null"
      ],
      "enum": [
        "v1"
      ]
    },
    "kind": {
      "description": "Kind is a string value representing the REST resource this object represents. Servers may infer this from the endpoint the client submits requests to. Cannot be updated. In CamelCase. More info: https://git.k8s.io/community/contributors/devel/sig-architecture/api-conventions.md#types-kinds",
      "type": [
        "string",
        "null"
      ],
      "enum": [
        "PersistentVolume"
      ]
    },
    "metadata": {
      "$ref": "https://gitlab.cern.ch/jeedy-public/kubernetes-json-schemas/-/raw/master/v1.25.6/_definitions.json#/definitions/io.k8s.apimachinery.pkg.apis.meta.v1.ObjectMeta",
      "description": "Standard object's metadata. More info: https://git.k8s.io/community/contributors/devel/sig-architecture/api-conventions.md#metadata"
    },
    "spec": {
      "$ref": "https://gitlab.cern.ch/jeedy-public/kubernetes-json-schemas/-/raw/master/v1.25.6/_definitions.json#/definitions/io.k8s.api.core.v1.PersistentVolumeSpec",
      "description": "spec defines a specification of a persistent volume owned by the cluster. Provisioned by an administrator. More info: https://kubernetes.io/docs/concepts/storage/persistent-volumes#persistent-volumes"
    },
    "status": {
      "$ref": "https://gitlab.cern.ch/jeedy-public/kubernetes-json-schemas/-/raw/master/v1.25.6/_definitions.json#/definitions/io.k8s.api.core.v1.PersistentVolumeStatus",
      "description": "status represents the current information/status for the persistent volume. Populated by the system. Read-only. More info: https://kubernetes.io/docs/concepts/storage/persistent-volumes#persistent-volumes"
    }
  },
  "type": "object",
  "x-kubernetes-group-version-kind": [
    {
      "group": "",
      "kind": "PersistentVolume",
      "version": "v1"
    }
  ],
  "$schema": "http://json-schema.org/schema#"
}