{
  "description": "StatefulSet represents a set of pods with consistent identities. Identities are defined as:\n  - Network: A single stable DNS and hostname.\n  - Storage: As many VolumeClaims as requested.\n\nThe StatefulSet guarantees that a given network identity will always map to the same storage identity.",
  "properties": {
    "apiVersion": {
      "description": "APIVersion defines the versioned schema of this representation of an object. Servers should convert recognized schemas to the latest internal value, and may reject unrecognized values. More info: https://git.k8s.io/community/contributors/devel/sig-architecture/api-conventions.md#resources",
      "type": [
        "string",
        "null"
      ]
    },
    "kind": {
      "description": "Kind is a string value representing the REST resource this object represents. Servers may infer this from the endpoint the client submits requests to. Cannot be updated. In CamelCase. More info: https://git.k8s.io/community/contributors/devel/sig-architecture/api-conventions.md#types-kinds",
      "type": [
        "string",
        "null"
      ],
      "enum": [
        "StatefulSet"
      ]
    },
    "metadata": {
      "$ref": "https://gitlab.cern.ch/jeedy-public/kubernetes-json-schemas/master/v1.25.14/_definitions.json#/definitions/io.k8s.apimachinery.pkg.apis.meta.v1.ObjectMeta",
      "description": "Standard object's metadata. More info: https://git.k8s.io/community/contributors/devel/sig-architecture/api-conventions.md#metadata"
    },
    "spec": {
      "$ref": "https://gitlab.cern.ch/jeedy-public/kubernetes-json-schemas/master/v1.25.14/_definitions.json#/definitions/io.k8s.api.apps.v1.StatefulSetSpec",
      "description": "Spec defines the desired identities of pods in this set."
    },
    "status": {
      "$ref": "https://gitlab.cern.ch/jeedy-public/kubernetes-json-schemas/master/v1.25.14/_definitions.json#/definitions/io.k8s.api.apps.v1.StatefulSetStatus",
      "description": "Status is the current status of Pods in this StatefulSet. This data may be out of date by some window of time."
    }
  },
  "type": "object",
  "x-kubernetes-group-version-kind": [
    {
      "group": "apps",
      "kind": "StatefulSet",
      "version": "v1"
    }
  ],
  "$schema": "http://json-schema.org/schema#"
}