{
  "description": "HTTPIngressPath associates a path regex with a backend. Incoming urls matching the path are forwarded to the backend.",
  "properties": {
    "backend": {
      "$ref": "https://gitlab.cern.ch/jeedy-public/kubernetes-json-schemas/-/raw/master/v1.16.6/_definitions.json#/definitions/io.k8s.api.networking.v1beta1.IngressBackend",
      "description": "Backend defines the referenced service endpoint to which the traffic will be forwarded to."
    },
    "path": {
      "description": "Path is an extended POSIX regex as defined by IEEE Std 1003.1, (i.e this follows the egrep/unix syntax, not the perl syntax) matched against the path of an incoming request. Currently it can contain characters disallowed from the conventional \"path\" part of a URL as defined by RFC 3986. Paths must begin with a '/'. If unspecified, the path defaults to a catch all sending traffic to the backend.",
      "type": [
        "string",
        "null"
      ]
    }
  },
  "required": [
    "backend"
  ],
  "type": "object",
  "$schema": "http://json-schema.org/schema#"
}