{
  "description": "PolicyRulesWithSubjects prescribes a test that applies to a request to an apiserver. The test considers the subject making the request, the verb being requested, and the resource to be acted upon. This PolicyRulesWithSubjects matches a request if and only if both (a) at least one member of subjects matches the request and (b) at least one member of resourceRules or nonResourceRules matches the request.",
  "properties": {
    "nonResourceRules": {
      "description": "`nonResourceRules` is a list of NonResourcePolicyRules that identify matching requests according to their verb and the target non-resource URL.",
      "items": {
        "$ref": "https://gitlab.cern.ch/jeedy-public/kubernetes-json-schemas/-/raw/master/v1.26.2/_definitions.json#/definitions/io.k8s.api.flowcontrol.v1beta2.NonResourcePolicyRule"
      },
      "type": [
        "array",
        "null"
      ],
      "x-kubernetes-list-type": "atomic"
    },
    "resourceRules": {
      "description": "`resourceRules` is a slice of ResourcePolicyRules that identify matching requests according to their verb and the target resource. At least one of `resourceRules` and `nonResourceRules` has to be non-empty.",
      "items": {
        "$ref": "https://gitlab.cern.ch/jeedy-public/kubernetes-json-schemas/-/raw/master/v1.26.2/_definitions.json#/definitions/io.k8s.api.flowcontrol.v1beta2.ResourcePolicyRule"
      },
      "type": [
        "array",
        "null"
      ],
      "x-kubernetes-list-type": "atomic"
    },
    "subjects": {
      "description": "subjects is the list of normal user, serviceaccount, or group that this rule cares about. There must be at least one member in this slice. A slice that includes both the system:authenticated and system:unauthenticated user groups matches every request. Required.",
      "items": {
        "$ref": "https://gitlab.cern.ch/jeedy-public/kubernetes-json-schemas/-/raw/master/v1.26.2/_definitions.json#/definitions/io.k8s.api.flowcontrol.v1beta2.Subject"
      },
      "type": [
        "array",
        "null"
      ],
      "x-kubernetes-list-type": "atomic"
    }
  },
  "required": [
    "subjects"
  ],
  "type": "object",
  "$schema": "http://json-schema.org/schema#"
}