{
  "description": "VolumeAttachmentSource represents a volume that should be attached. Right now only PersistenVolumes can be attached via external attacher, in future we may allow also inline volumes in pods. Exactly one member can be set.",
  "properties": {
    "inlineVolumeSpec": {
      "$ref": "https://gitlab.cern.ch/jeedy-public/kubernetes-json-schemas/-/raw/master/v1.18.18/_definitions.json#/definitions/io.k8s.api.core.v1.PersistentVolumeSpec",
      "description": "inlineVolumeSpec contains all the information necessary to attach a persistent volume defined by a pod's inline VolumeSource. This field is populated only for the CSIMigration feature. It contains translated fields from a pod's inline VolumeSource to a PersistentVolumeSpec. This field is alpha-level and is only honored by servers that enabled the CSIMigration feature."
    },
    "persistentVolumeName": {
      "description": "Name of the persistent volume to attach.",
      "type": [
        "string",
        "null"
      ]
    }
  },
  "type": "object",
  "$schema": "http://json-schema.org/schema#"
}