{
  "description": "EndpointAddress is a tuple that describes single IP address.",
  "properties": {
    "hostname": {
      "description": "The Hostname of this endpoint",
      "type": [
        "string",
        "null"
      ]
    },
    "ip": {
      "description": "The IP of this endpoint. May not be loopback (127.0.0.0/8), link-local (169.254.0.0/16), or link-local multicast ((224.0.0.0/24). IPv6 is also accepted but not fully supported on all platforms. Also, certain kubernetes components, like kube-proxy, are not IPv6 ready.",
      "type": [
        "string",
        "null"
      ]
    },
    "nodeName": {
      "description": "Optional: Node hosting this endpoint. This can be used to determine endpoints local to a node.",
      "type": [
        "string",
        "null"
      ]
    },
    "targetRef": {
      "$ref": "https://gitlab.cern.ch/jeedy-public/kubernetes-json-schemas/-/raw/master/v1.17.3/_definitions.json#/definitions/io.k8s.api.core.v1.ObjectReference",
      "description": "Reference to object providing the endpoint."
    }
  },
  "required": [
    "ip"
  ],
  "type": "object",
  "$schema": "http://json-schema.org/schema#"
}