{
  "description": "FlexPersistentVolumeSource represents a generic persistent volume resource that is provisioned/attached using an exec based plugin.",
  "properties": {
    "driver": {
      "description": "Driver is the name of the driver to use for this volume.",
      "type": [
        "string",
        "null"
      ]
    },
    "fsType": {
      "description": "Filesystem type to mount. Must be a filesystem type supported by the host operating system. Ex. \"ext4\", \"xfs\", \"ntfs\". The default filesystem depends on FlexVolume script.",
      "type": [
        "string",
        "null"
      ]
    },
    "options": {
      "additionalProperties": {
        "type": [
          "string",
          "null"
        ]
      },
      "description": "Optional: Extra command options if any.",
      "type": [
        "object",
        "null"
      ]
    },
    "readOnly": {
      "description": "Optional: Defaults to false (read/write). ReadOnly here will force the ReadOnly setting in VolumeMounts.",
      "type": [
        "boolean",
        "null"
      ]
    },
    "secretRef": {
      "$ref": "https://gitlab.cern.ch/jeedy-public/kubernetes-json-schemas/-/raw/master/v1.17.10/_definitions.json#/definitions/io.k8s.api.core.v1.SecretReference",
      "description": "Optional: SecretRef is reference to the secret object containing sensitive information to pass to the plugin scripts. This may be empty if no secret object is specified. If the secret object contains more than one secret, all secrets are passed to the plugin scripts."
    }
  },
  "required": [
    "driver"
  ],
  "type": "object",
  "$schema": "http://json-schema.org/schema#"
}