{
  "description": "Status is a return value for calls that don't return other objects.",
  "properties": {
    "apiVersion": {
      "description": "APIVersion defines the versioned schema of this representation of an object. Servers should convert recognized schemas to the latest internal value, and may reject unrecognized values. More info: https://git.k8s.io/community/contributors/devel/sig-architecture/api-conventions.md#resources",
      "type": [
        "string",
        "null"
      ]
    },
    "code": {
      "description": "Suggested HTTP return code for this status, 0 if not set.",
      "format": "int32",
      "type": [
        "integer",
        "null"
      ]
    },
    "details": {
      "$ref": "https://gitlab.cern.ch/jeedy-public/kubernetes-json-schemas/-/raw/master/v1.17.10/_definitions.json#/definitions/io.k8s.apimachinery.pkg.apis.meta.v1.StatusDetails",
      "description": "Extended data associated with the reason.  Each reason may define its own extended details. This field is optional and the data returned is not guaranteed to conform to any schema except that defined by the reason type."
    },
    "kind": {
      "description": "Kind is a string value representing the REST resource this object represents. Servers may infer this from the endpoint the client submits requests to. Cannot be updated. In CamelCase. More info: https://git.k8s.io/community/contributors/devel/sig-architecture/api-conventions.md#types-kinds",
      "type": [
        "string",
        "null"
      ],
      "enum": [
        "Status"
      ]
    },
    "message": {
      "description": "A human-readable description of the status of this operation.",
      "type": [
        "string",
        "null"
      ]
    },
    "metadata": {
      "$ref": "https://gitlab.cern.ch/jeedy-public/kubernetes-json-schemas/-/raw/master/v1.17.10/_definitions.json#/definitions/io.k8s.apimachinery.pkg.apis.meta.v1.ListMeta",
      "description": "Standard list metadata. More info: https://git.k8s.io/community/contributors/devel/sig-architecture/api-conventions.md#types-kinds"
    },
    "reason": {
      "description": "A machine-readable description of why this operation is in the \"Failure\" status. If this value is empty there is no information available. A Reason clarifies an HTTP status code but does not override it.",
      "type": [
        "string",
        "null"
      ]
    },
    "status": {
      "description": "Status of the operation. One of: \"Success\" or \"Failure\". More info: https://git.k8s.io/community/contributors/devel/sig-architecture/api-conventions.md#spec-and-status",
      "type": [
        "string",
        "null"
      ]
    }
  },
  "type": "object",
  "x-kubernetes-group-version-kind": [
    {
      "group": "",
      "kind": "Status",
      "version": "v1"
    }
  ],
  "$schema": "http://json-schema.org/schema#"
}