{
  "description": "IngressClassSpec provides information about the class of an Ingress.",
  "properties": {
    "controller": {
      "description": "Controller refers to the name of the controller that should handle this class. This allows for different \"flavors\" that are controlled by the same controller. For example, you may have different Parameters for the same implementing controller. This should be specified as a domain-prefixed path no more than 250 characters in length, e.g. \"acme.io/ingress-controller\". This field is immutable.",
      "type": [
        "string",
        "null"
      ]
    },
    "parameters": {
      "$ref": "https://gitlab.cern.ch/jeedy-public/kubernetes-json-schemas/master/v1.25.12/_definitions.json#/definitions/io.k8s.api.networking.v1.IngressClassParametersReference",
      "description": "Parameters is a link to a custom resource containing additional configuration for the controller. This is optional if the controller does not require extra parameters."
    }
  },
  "type": "object",
  "$schema": "http://json-schema.org/schema#"
}