{
  "description": "EndpointHints provides hints describing how an endpoint should be consumed.",
  "properties": {
    "forZones": {
      "description": "forZones indicates the zone(s) this endpoint should be consumed by to enable topology aware routing. May contain a maximum of 8 entries.",
      "items": {
        "$ref": "https://gitlab.cern.ch/jeedy-public/kubernetes-json-schemas/-/raw/master/v1.21.12/_definitions.json#/definitions/io.k8s.api.discovery.v1beta1.ForZone"
      },
      "type": [
        "array",
        "null"
      ],
      "x-kubernetes-list-type": "atomic"
    }
  },
  "type": "object",
  "$schema": "http://json-schema.org/schema#"
}