{
  "description": "PodsMetricStatus indicates the current value of a metric describing each pod in the current scale target (for example, transactions-processed-per-second).",
  "properties": {
    "current": {
      "$ref": "https://gitlab.cern.ch/jeedy-public/kubernetes-json-schemas/-/raw/master/v1.21.12/_definitions.json#/definitions/io.k8s.api.autoscaling.v2beta2.MetricValueStatus",
      "description": "current contains the current value for the given metric"
    },
    "metric": {
      "$ref": "https://gitlab.cern.ch/jeedy-public/kubernetes-json-schemas/-/raw/master/v1.21.12/_definitions.json#/definitions/io.k8s.api.autoscaling.v2beta2.MetricIdentifier",
      "description": "metric identifies the target metric by name and selector"
    }
  },
  "required": [
    "metric",
    "current"
  ],
  "type": "object",
  "$schema": "http://json-schema.org/schema#"
}