{
  "description": "VolumeAttachment captures the intent to attach or detach the specified volume to/from the specified node.\n\nVolumeAttachment objects are non-namespaced.",
  "properties": {
    "apiVersion": {
      "description": "APIVersion defines the versioned schema of this representation of an object. Servers should convert recognized schemas to the latest internal value, and may reject unrecognized values. More info: https://git.k8s.io/community/contributors/devel/sig-architecture/api-conventions.md#resources",
      "type": [
        "string",
        "null"
      ],
      "enum": [
        "storage.k8s.io/v1"
      ]
    },
    "kind": {
      "description": "Kind is a string value representing the REST resource this object represents. Servers may infer this from the endpoint the client submits requests to. Cannot be updated. In CamelCase. More info: https://git.k8s.io/community/contributors/devel/sig-architecture/api-conventions.md#types-kinds",
      "type": [
        "string",
        "null"
      ],
      "enum": [
        "VolumeAttachment"
      ]
    },
    "metadata": {
      "$ref": "https://gitlab.cern.ch/jeedy-public/kubernetes-json-schemas/-/raw/master/v1.21.5/_definitions.json#/definitions/io.k8s.apimachinery.pkg.apis.meta.v1.ObjectMeta",
      "description": "Standard object metadata. More info: https://git.k8s.io/community/contributors/devel/sig-architecture/api-conventions.md#metadata"
    },
    "spec": {
      "$ref": "https://gitlab.cern.ch/jeedy-public/kubernetes-json-schemas/-/raw/master/v1.21.5/_definitions.json#/definitions/io.k8s.api.storage.v1.VolumeAttachmentSpec",
      "description": "Specification of the desired attach/detach volume behavior. Populated by the Kubernetes system."
    },
    "status": {
      "$ref": "https://gitlab.cern.ch/jeedy-public/kubernetes-json-schemas/-/raw/master/v1.21.5/_definitions.json#/definitions/io.k8s.api.storage.v1.VolumeAttachmentStatus",
      "description": "Status of the VolumeAttachment request. Populated by the entity completing the attach or detach operation, i.e. the external-attacher."
    }
  },
  "required": [
    "spec"
  ],
  "type": "object",
  "x-kubernetes-group-version-kind": [
    {
      "group": "storage.k8s.io",
      "kind": "VolumeAttachment",
      "version": "v1"
    }
  ],
  "$schema": "http://json-schema.org/schema#"
}