{
  "description": "SessionAffinityConfig represents the configurations of session affinity.",
  "properties": {
    "clientIP": {
      "$ref": "https://gitlab.cern.ch/jeedy-public/kubernetes-json-schemas/-/raw/master/v1.16.4/_definitions.json#/definitions/io.k8s.api.core.v1.ClientIPConfig",
      "description": "clientIP contains the configurations of Client IP based session affinity."
    }
  },
  "type": "object",
  "$schema": "http://json-schema.org/schema#"
}