{
  "description": "CustomResourceConversion describes how to convert different versions of a CR.",
  "properties": {
    "conversionReviewVersions": {
      "description": "ConversionReviewVersions is an ordered list of preferred `ConversionReview` versions the Webhook expects. API server will try to use first version in the list which it supports. If none of the versions specified in this list supported by API server, conversion will fail for this object. If a persisted Webhook configuration specifies allowed versions and does not include any versions known to the API Server, calls to the webhook will fail. Default to `['v1beta1']`.",
      "items": {
        "type": [
          "string",
          "null"
        ]
      },
      "type": [
        "array",
        "null"
      ]
    },
    "strategy": {
      "description": "`strategy` specifies the conversion strategy. Allowed values are: - `None`: The converter only change the apiVersion and would not touch any other field in the CR. - `Webhook`: API Server will call to an external webhook to do the conversion. Additional information\n  is needed for this option. This requires spec.preserveUnknownFields to be false.",
      "type": [
        "string",
        "null"
      ]
    },
    "webhookClientConfig": {
      "$ref": "https://gitlab.cern.ch/jeedy-public/kubernetes-json-schemas/-/raw/master/v1.15.11/_definitions.json#/definitions/io.k8s.apiextensions-apiserver.pkg.apis.apiextensions.v1beta1.WebhookClientConfig",
      "description": "`webhookClientConfig` is the instructions for how to call the webhook if strategy is `Webhook`. This field is alpha-level and is only honored by servers that enable the CustomResourceWebhookConversion feature."
    }
  },
  "required": [
    "strategy"
  ],
  "type": "object",
  "$schema": "http://json-schema.org/schema#"
}