{
  "description": "RuntimeClass defines a class of container runtime supported in the cluster. The RuntimeClass is used to determine which container runtime is used to run all containers in a pod. RuntimeClasses are (currently) manually defined by a user or cluster provisioner, and referenced in the PodSpec. The Kubelet is responsible for resolving the RuntimeClassName reference before running the pod.  For more details, see https://git.k8s.io/enhancements/keps/sig-node/runtime-class.md",
  "properties": {
    "apiVersion": {
      "description": "APIVersion defines the versioned schema of this representation of an object. Servers should convert recognized schemas to the latest internal value, and may reject unrecognized values. More info: https://git.k8s.io/community/contributors/devel/api-conventions.md#resources",
      "type": [
        "string",
        "null"
      ],
      "enum": [
        "node.k8s.io/v1beta1"
      ]
    },
    "handler": {
      "description": "Handler specifies the underlying runtime and configuration that the CRI implementation will use to handle pods of this class. The possible values are specific to the node & CRI configuration.  It is assumed that all handlers are available on every node, and handlers of the same name are equivalent on every node. For example, a handler called \"runc\" might specify that the runc OCI runtime (using native Linux containers) will be used to run the containers in a pod. The Handler must conform to the DNS Label (RFC 1123) requirements, and is immutable.",
      "type": [
        "string",
        "null"
      ]
    },
    "kind": {
      "description": "Kind is a string value representing the REST resource this object represents. Servers may infer this from the endpoint the client submits requests to. Cannot be updated. In CamelCase. More info: https://git.k8s.io/community/contributors/devel/api-conventions.md#types-kinds",
      "type": [
        "string",
        "null"
      ],
      "enum": [
        "RuntimeClass"
      ]
    },
    "metadata": {
      "$ref": "https://gitlab.cern.ch/jeedy-public/kubernetes-json-schemas/-/raw/master/v1.15.11/_definitions.json#/definitions/io.k8s.apimachinery.pkg.apis.meta.v1.ObjectMeta",
      "description": "More info: https://git.k8s.io/community/contributors/devel/api-conventions.md#metadata"
    }
  },
  "required": [
    "handler"
  ],
  "type": "object",
  "x-kubernetes-group-version-kind": [
    {
      "group": "node.k8s.io",
      "kind": "RuntimeClass",
      "version": "v1beta1"
    }
  ],
  "$schema": "http://json-schema.org/schema#"
}