{
  "description": "A scope selector represents the AND of the selectors represented by the scoped-resource selector requirements.",
  "properties": {
    "matchExpressions": {
      "description": "A list of scope selector requirements by scope of the resources.",
      "items": {
        "$ref": "https://gitlab.cern.ch/jeedy-public/kubernetes-json-schemas/master/v1.27.6/_definitions.json#/definitions/io.k8s.api.core.v1.ScopedResourceSelectorRequirement"
      },
      "type": [
        "array",
        "null"
      ]
    }
  },
  "type": "object",
  "x-kubernetes-map-type": "atomic",
  "$schema": "http://json-schema.org/schema#"
}