{
  "description": "NodeCondition contains condition information for a node.",
  "properties": {
    "lastHeartbeatTime": {
      "$ref": "https://gitlab.cern.ch/jeedy-public/kubernetes-json-schemas/-/raw/master/v1.23.0/_definitions.json#/definitions/io.k8s.apimachinery.pkg.apis.meta.v1.Time",
      "description": "Last time we got an update on a given condition."
    },
    "lastTransitionTime": {
      "$ref": "https://gitlab.cern.ch/jeedy-public/kubernetes-json-schemas/-/raw/master/v1.23.0/_definitions.json#/definitions/io.k8s.apimachinery.pkg.apis.meta.v1.Time",
      "description": "Last time the condition transit from one status to another."
    },
    "message": {
      "description": "Human readable message indicating details about last transition.",
      "type": [
        "string",
        "null"
      ]
    },
    "reason": {
      "description": "(brief) reason for the condition's last transition.",
      "type": [
        "string",
        "null"
      ]
    },
    "status": {
      "description": "Status of the condition, one of True, False, Unknown.",
      "type": [
        "string",
        "null"
      ]
    },
    "type": {
      "description": "Type of node condition.\n\nPossible enum values:\n - `\"DiskPressure\"` means the kubelet is under pressure due to insufficient available disk.\n - `\"MemoryPressure\"` means the kubelet is under pressure due to insufficient available memory.\n - `\"NetworkUnavailable\"` means that network for the node is not correctly configured.\n - `\"PIDPressure\"` means the kubelet is under pressure due to insufficient available PID.\n - `\"Ready\"` means kubelet is healthy and ready to accept pods.",
      "enum": [
        "DiskPressure",
        "MemoryPressure",
        "NetworkUnavailable",
        "PIDPressure",
        "Ready"
      ],
      "type": [
        "string",
        "null"
      ]
    }
  },
  "required": [
    "type",
    "status"
  ],
  "type": "object",
  "$schema": "http://json-schema.org/schema#"
}