{
  "description": "PodsMetricSource indicates how to scale on a metric describing each pod in the current scale target (for example, transactions-processed-per-second). The values will be averaged together before being compared to the target value.",
  "properties": {
    "metric": {
      "$ref": "https://gitlab.cern.ch/jeedy-public/kubernetes-json-schemas/-/raw/master/v1.24.0/_definitions.json#/definitions/io.k8s.api.autoscaling.v2.MetricIdentifier",
      "description": "metric identifies the target metric by name and selector"
    },
    "target": {
      "$ref": "https://gitlab.cern.ch/jeedy-public/kubernetes-json-schemas/-/raw/master/v1.24.0/_definitions.json#/definitions/io.k8s.api.autoscaling.v2.MetricTarget",
      "description": "target specifies the target value for the given metric"
    }
  },
  "required": [
    "metric",
    "target"
  ],
  "type": "object",
  "$schema": "http://json-schema.org/schema#"
}