{
  "description": "specification of a horizontal pod autoscaler.",
  "properties": {
    "maxReplicas": {
      "description": "upper limit for the number of pods that can be set by the autoscaler; cannot be smaller than MinReplicas.",
      "format": "int32",
      "type": [
        "integer",
        "null"
      ]
    },
    "minReplicas": {
      "description": "lower limit for the number of pods that can be set by the autoscaler, default 1.",
      "format": "int32",
      "type": [
        "integer",
        "null"
      ]
    },
    "scaleTargetRef": {
      "$ref": "https://gitlab.cern.ch/jeedy-public/kubernetes-json-schemas/-/raw/master/v1.15.9/_definitions.json#/definitions/io.k8s.api.autoscaling.v1.CrossVersionObjectReference",
      "description": "reference to scaled resource; horizontal pod autoscaler will learn the current resource consumption and will set the desired number of pods by using its Scale subresource."
    },
    "targetCPUUtilizationPercentage": {
      "description": "target average CPU utilization (represented as a percentage of requested CPU) over all the pods; if not specified the default autoscaling policy will be used.",
      "format": "int32",
      "type": [
        "integer",
        "null"
      ]
    }
  },
  "required": [
    "scaleTargetRef",
    "maxReplicas"
  ],
  "type": "object",
  "$schema": "http://json-schema.org/schema#"
}