{
  "description": "Adapts a secret into a projected volume.\n\nThe contents of the target Secret's Data field will be presented in a projected volume as files using the keys in the Data field as the file names. Note that this is identical to a secret volume source without the default mode.",
  "properties": {
    "items": {
      "description": "items if unspecified, each key-value pair in the Data field of the referenced Secret will be projected into the volume as a file whose name is the key and content is the value. If specified, the listed keys will be projected into the specified paths, and unlisted keys will not be present. If a key is specified which is not present in the Secret, the volume setup will error unless it is marked optional. Paths must be relative and may not contain the '..' path or start with '..'.",
      "items": {
        "$ref": "https://gitlab.cern.ch/jeedy-public/kubernetes-json-schemas/master/v1.28.6/_definitions.json#/definitions/io.k8s.api.core.v1.KeyToPath"
      },
      "type": [
        "array",
        "null"
      ]
    },
    "name": {
      "description": "Name of the referent. More info: https://kubernetes.io/docs/concepts/overview/working-with-objects/names/#names",
      "type": [
        "string",
        "null"
      ]
    },
    "optional": {
      "description": "optional field specify whether the Secret or its key must be defined",
      "type": [
        "boolean",
        "null"
      ]
    }
  },
  "type": "object",
  "$schema": "http://json-schema.org/schema#"
}