{
  "description": "Represents downward API info for projecting into a projected volume. Note that this is identical to a downwardAPI volume source without the default mode.",
  "properties": {
    "items": {
      "description": "Items is a list of DownwardAPIVolume file",
      "items": {
        "$ref": "https://gitlab.cern.ch/jeedy-public/kubernetes-json-schemas/-/raw/master/v1.18.4/_definitions.json#/definitions/io.k8s.api.core.v1.DownwardAPIVolumeFile"
      },
      "type": [
        "array",
        "null"
      ]
    }
  },
  "type": "object",
  "$schema": "http://json-schema.org/schema#"
}