{
  "description": "ManagedFieldsEntry is a workflow-id, a FieldSet and the group version of the resource that the fieldset applies to.",
  "properties": {
    "apiVersion": {
      "description": "APIVersion defines the version of this resource that this field set applies to. The format is \"group/version\" just like the top-level APIVersion field. It is necessary to track the version of a field set because it cannot be automatically converted.",
      "type": [
        "string",
        "null"
      ]
    },
    "fieldsType": {
      "description": "FieldsType is the discriminator for the different fields format and version. There is currently only one possible value: \"FieldsV1\"",
      "type": [
        "string",
        "null"
      ]
    },
    "fieldsV1": {
      "$ref": "https://gitlab.cern.ch/jeedy-public/kubernetes-json-schemas/-/raw/master/v1.27.1/_definitions.json#/definitions/io.k8s.apimachinery.pkg.apis.meta.v1.FieldsV1",
      "description": "FieldsV1 holds the first JSON version format as described in the \"FieldsV1\" type."
    },
    "manager": {
      "description": "Manager is an identifier of the workflow managing these fields.",
      "type": [
        "string",
        "null"
      ]
    },
    "operation": {
      "description": "Operation is the type of operation which lead to this ManagedFieldsEntry being created. The only valid values for this field are 'Apply' and 'Update'.",
      "type": [
        "string",
        "null"
      ]
    },
    "subresource": {
      "description": "Subresource is the name of the subresource used to update that object, or empty string if the object was updated through the main resource. The value of this field is used to distinguish between managers, even if they share the same name. For example, a status update will be distinct from a regular update using the same manager name. Note that the APIVersion field is not related to the Subresource field and it always corresponds to the version of the main resource.",
      "type": [
        "string",
        "null"
      ]
    },
    "time": {
      "$ref": "https://gitlab.cern.ch/jeedy-public/kubernetes-json-schemas/-/raw/master/v1.27.1/_definitions.json#/definitions/io.k8s.apimachinery.pkg.apis.meta.v1.Time",
      "description": "Time is the timestamp of when the ManagedFields entry was added. The timestamp will also be updated if a field is added, the manager changes any of the owned fields value or removes a field. The timestamp does not update when a field is removed from the entry because another manager took it over."
    }
  },
  "type": "object",
  "$schema": "http://json-schema.org/schema#"
}