{
  "description": "PersistentVolumeClaimCondition contains details about state of pvc",
  "properties": {
    "lastProbeTime": {
      "$ref": "https://gitlab.cern.ch/jeedy-public/kubernetes-json-schemas/-/raw/master/v1.27.1/_definitions.json#/definitions/io.k8s.apimachinery.pkg.apis.meta.v1.Time",
      "description": "lastProbeTime is the time we probed the condition."
    },
    "lastTransitionTime": {
      "$ref": "https://gitlab.cern.ch/jeedy-public/kubernetes-json-schemas/-/raw/master/v1.27.1/_definitions.json#/definitions/io.k8s.apimachinery.pkg.apis.meta.v1.Time",
      "description": "lastTransitionTime is the time the condition transitioned from one status to another."
    },
    "message": {
      "description": "message is the human-readable message indicating details about last transition.",
      "type": [
        "string",
        "null"
      ]
    },
    "reason": {
      "description": "reason is a unique, this should be a short, machine understandable string that gives the reason for condition's last transition. If it reports \"ResizeStarted\" that means the underlying persistent volume is being resized.",
      "type": [
        "string",
        "null"
      ]
    },
    "status": {
      "type": [
        "string",
        "null"
      ]
    },
    "type": {
      "type": [
        "string",
        "null"
      ]
    }
  },
  "required": [
    "type",
    "status"
  ],
  "type": "object",
  "$schema": "http://json-schema.org/schema#"
}