{
  "description": "PodSchedulingContext objects hold information that is needed to schedule a Pod with ResourceClaims that use \"WaitForFirstConsumer\" allocation mode.\n\nThis is an alpha type and requires enabling the DynamicResourceAllocation feature gate.",
  "properties": {
    "apiVersion": {
      "description": "APIVersion defines the versioned schema of this representation of an object. Servers should convert recognized schemas to the latest internal value, and may reject unrecognized values. More info: https://git.k8s.io/community/contributors/devel/sig-architecture/api-conventions.md#resources",
      "type": [
        "string",
        "null"
      ]
    },
    "kind": {
      "description": "Kind is a string value representing the REST resource this object represents. Servers may infer this from the endpoint the client submits requests to. Cannot be updated. In CamelCase. More info: https://git.k8s.io/community/contributors/devel/sig-architecture/api-conventions.md#types-kinds",
      "type": [
        "string",
        "null"
      ],
      "enum": [
        "PodSchedulingContext"
      ]
    },
    "metadata": {
      "$ref": "https://gitlab.cern.ch/jeedy-public/kubernetes-json-schemas/-/raw/master/v1.27.1/_definitions.json#/definitions/io.k8s.apimachinery.pkg.apis.meta.v1.ObjectMeta",
      "description": "Standard object metadata"
    },
    "spec": {
      "$ref": "https://gitlab.cern.ch/jeedy-public/kubernetes-json-schemas/-/raw/master/v1.27.1/_definitions.json#/definitions/io.k8s.api.resource.v1alpha2.PodSchedulingContextSpec",
      "description": "Spec describes where resources for the Pod are needed."
    },
    "status": {
      "$ref": "https://gitlab.cern.ch/jeedy-public/kubernetes-json-schemas/-/raw/master/v1.27.1/_definitions.json#/definitions/io.k8s.api.resource.v1alpha2.PodSchedulingContextStatus",
      "description": "Status describes where resources for the Pod can be allocated."
    }
  },
  "required": [
    "spec"
  ],
  "type": "object",
  "x-kubernetes-group-version-kind": [
    {
      "group": "resource.k8s.io",
      "kind": "PodSchedulingContext",
      "version": "v1alpha2"
    }
  ],
  "$schema": "http://json-schema.org/schema#"
}