{
  "description": "Represents a Ceph Filesystem mount that lasts the lifetime of a pod Cephfs volumes do not support ownership management or SELinux relabeling.",
  "properties": {
    "monitors": {
      "description": "monitors is Required: Monitors is a collection of Ceph monitors More info: https://examples.k8s.io/volumes/cephfs/README.md#how-to-use-it",
      "items": {
        "type": [
          "string",
          "null"
        ]
      },
      "type": [
        "array",
        "null"
      ]
    },
    "path": {
      "description": "path is Optional: Used as the mounted root, rather than the full Ceph tree, default is /",
      "type": [
        "string",
        "null"
      ]
    },
    "readOnly": {
      "description": "readOnly is Optional: Defaults to false (read/write). ReadOnly here will force the ReadOnly setting in VolumeMounts. More info: https://examples.k8s.io/volumes/cephfs/README.md#how-to-use-it",
      "type": [
        "boolean",
        "null"
      ]
    },
    "secretFile": {
      "description": "secretFile is Optional: SecretFile is the path to key ring for User, default is /etc/ceph/user.secret More info: https://examples.k8s.io/volumes/cephfs/README.md#how-to-use-it",
      "type": [
        "string",
        "null"
      ]
    },
    "secretRef": {
      "$ref": "https://gitlab.cern.ch/jeedy-public/kubernetes-json-schemas/master/v1.27.3/_definitions.json#/definitions/io.k8s.api.core.v1.LocalObjectReference",
      "description": "secretRef is Optional: SecretRef is reference to the authentication secret for User, default is empty. More info: https://examples.k8s.io/volumes/cephfs/README.md#how-to-use-it"
    },
    "user": {
      "description": "user is optional: User is the rados user name, default is admin More info: https://examples.k8s.io/volumes/cephfs/README.md#how-to-use-it",
      "type": [
        "string",
        "null"
      ]
    }
  },
  "required": [
    "monitors"
  ],
  "type": "object",
  "$schema": "http://json-schema.org/schema#"
}