{
  "description": "VolumeNodeAffinity defines constraints that limit what nodes this volume can be accessed from.",
  "properties": {
    "required": {
      "$ref": "https://gitlab.cern.ch/jeedy-public/kubernetes-json-schemas/master/v1.24.16/_definitions.json#/definitions/io.k8s.api.core.v1.NodeSelector",
      "description": "required specifies hard node constraints that must be met."
    }
  },
  "type": "object",
  "$schema": "http://json-schema.org/schema#"
}