{
  "description": "EventSeries contain information on series of events, i.e. thing that was/is happening continuously for some time.",
  "properties": {
    "count": {
      "description": "count is the number of occurrences in this series up to the last heartbeat time.",
      "format": "int32",
      "type": [
        "integer",
        "null"
      ]
    },
    "lastObservedTime": {
      "$ref": "https://gitlab.cern.ch/jeedy-public/kubernetes-json-schemas/-/raw/master/v1.19.5/_definitions.json#/definitions/io.k8s.apimachinery.pkg.apis.meta.v1.MicroTime",
      "description": "lastObservedTime is the time when last Event from the series was seen before last heartbeat."
    }
  },
  "required": [
    "count",
    "lastObservedTime"
  ],
  "type": "object",
  "$schema": "http://json-schema.org/schema#"
}