{
  "description": "A topology selector term represents the result of label queries. A null or empty topology selector term matches no objects. The requirements of them are ANDed. It provides a subset of functionality as NodeSelectorTerm. This is an alpha feature and may change in the future.",
  "properties": {
    "matchLabelExpressions": {
      "description": "A list of topology selector requirements by labels.",
      "items": {
        "$ref": "https://gitlab.cern.ch/jeedy-public/kubernetes-json-schemas/-/raw/master/v1.18.13/_definitions.json#/definitions/io.k8s.api.core.v1.TopologySelectorLabelRequirement"
      },
      "type": [
        "array",
        "null"
      ]
    }
  },
  "type": "object",
  "$schema": "http://json-schema.org/schema#"
}