{
  "description": "IngressServiceBackend references a Kubernetes Service as a Backend.",
  "properties": {
    "name": {
      "description": "Name is the referenced service. The service must exist in the same namespace as the Ingress object.",
      "type": [
        "string",
        "null"
      ]
    },
    "port": {
      "$ref": "https://gitlab.cern.ch/jeedy-public/kubernetes-json-schemas/-/raw/master/v1.19.2/_definitions.json#/definitions/io.k8s.api.networking.v1.ServiceBackendPort",
      "description": "Port of the referenced service. A port name or port number is required for a IngressServiceBackend."
    }
  },
  "required": [
    "name"
  ],
  "type": "object",
  "$schema": "http://json-schema.org/schema#"
}