{
  "description": "DEPRECATED - This group version of PriorityClass is deprecated by scheduling.k8s.io/v1/PriorityClass. PriorityClass defines mapping from a priority class name to the priority integer value. The value can be any valid integer.",
  "properties": {
    "apiVersion": {
      "description": "APIVersion defines the versioned schema of this representation of an object. Servers should convert recognized schemas to the latest internal value, and may reject unrecognized values. More info: https://git.k8s.io/community/contributors/devel/sig-architecture/api-conventions.md#resources",
      "type": [
        "string",
        "null"
      ],
      "enum": [
        "scheduling.k8s.io/v1beta1"
      ]
    },
    "description": {
      "description": "description is an arbitrary string that usually provides guidelines on when this priority class should be used.",
      "type": [
        "string",
        "null"
      ]
    },
    "globalDefault": {
      "description": "globalDefault specifies whether this PriorityClass should be considered as the default priority for pods that do not have any priority class. Only one PriorityClass can be marked as `globalDefault`. However, if more than one PriorityClasses exists with their `globalDefault` field set to true, the smallest value of such global default PriorityClasses will be used as the default priority.",
      "type": [
        "boolean",
        "null"
      ]
    },
    "kind": {
      "description": "Kind is a string value representing the REST resource this object represents. Servers may infer this from the endpoint the client submits requests to. Cannot be updated. In CamelCase. More info: https://git.k8s.io/community/contributors/devel/sig-architecture/api-conventions.md#types-kinds",
      "type": [
        "string",
        "null"
      ],
      "enum": [
        "PriorityClass"
      ]
    },
    "metadata": {
      "$ref": "https://gitlab.cern.ch/jeedy-public/kubernetes-json-schemas/-/raw/master/v1.19.2/_definitions.json#/definitions/io.k8s.apimachinery.pkg.apis.meta.v1.ObjectMeta",
      "description": "Standard object's metadata. More info: https://git.k8s.io/community/contributors/devel/sig-architecture/api-conventions.md#metadata"
    },
    "preemptionPolicy": {
      "description": "PreemptionPolicy is the Policy for preempting pods with lower priority. One of Never, PreemptLowerPriority. Defaults to PreemptLowerPriority if unset. This field is beta-level, gated by the NonPreemptingPriority feature-gate.",
      "type": [
        "string",
        "null"
      ]
    },
    "value": {
      "description": "The value of this priority class. This is the actual priority that pods receive when they have the name of this class in their pod spec.",
      "format": "int32",
      "type": [
        "integer",
        "null"
      ]
    }
  },
  "required": [
    "value"
  ],
  "type": "object",
  "x-kubernetes-group-version-kind": [
    {
      "group": "scheduling.k8s.io",
      "kind": "PriorityClass",
      "version": "v1beta1"
    }
  ],
  "$schema": "http://json-schema.org/schema#"
}