{
  "description": "ResourceClaim describes which resources are needed by a resource consumer. Its status tracks whether the resource has been allocated and what the resulting attributes are.\n\nThis is an alpha type and requires enabling the DynamicResourceAllocation feature gate.",
  "properties": {
    "apiVersion": {
      "description": "APIVersion defines the versioned schema of this representation of an object. Servers should convert recognized schemas to the latest internal value, and may reject unrecognized values. More info: https://git.k8s.io/community/contributors/devel/sig-architecture/api-conventions.md#resources",
      "type": [
        "string",
        "null"
      ]
    },
    "kind": {
      "description": "Kind is a string value representing the REST resource this object represents. Servers may infer this from the endpoint the client submits requests to. Cannot be updated. In CamelCase. More info: https://git.k8s.io/community/contributors/devel/sig-architecture/api-conventions.md#types-kinds",
      "type": [
        "string",
        "null"
      ],
      "enum": [
        "ResourceClaim"
      ]
    },
    "metadata": {
      "$ref": "https://gitlab.cern.ch/jeedy-public/kubernetes-json-schemas/master/v1.27.8/_definitions.json#/definitions/io.k8s.apimachinery.pkg.apis.meta.v1.ObjectMeta",
      "description": "Standard object metadata"
    },
    "spec": {
      "$ref": "https://gitlab.cern.ch/jeedy-public/kubernetes-json-schemas/master/v1.27.8/_definitions.json#/definitions/io.k8s.api.resource.v1alpha2.ResourceClaimSpec",
      "description": "Spec describes the desired attributes of a resource that then needs to be allocated. It can only be set once when creating the ResourceClaim."
    },
    "status": {
      "$ref": "https://gitlab.cern.ch/jeedy-public/kubernetes-json-schemas/master/v1.27.8/_definitions.json#/definitions/io.k8s.api.resource.v1alpha2.ResourceClaimStatus",
      "description": "Status describes whether the resource is available and with which attributes."
    }
  },
  "required": [
    "spec"
  ],
  "type": "object",
  "x-kubernetes-group-version-kind": [
    {
      "group": "resource.k8s.io",
      "kind": "ResourceClaim",
      "version": "v1alpha2"
    }
  ],
  "$schema": "http://json-schema.org/schema#"
}