{
  "description": "LimitResponse defines how to handle requests that can not be executed right now.",
  "properties": {
    "queuing": {
      "$ref": "https://gitlab.cern.ch/jeedy-public/kubernetes-json-schemas/-/raw/master/v1.23.12/_definitions.json#/definitions/io.k8s.api.flowcontrol.v1beta2.QueuingConfiguration",
      "description": "`queuing` holds the configuration parameters for queuing. This field may be non-empty only if `type` is `\"Queue\"`."
    },
    "type": {
      "description": "`type` is \"Queue\" or \"Reject\". \"Queue\" means that requests that can not be executed upon arrival are held in a queue until they can be executed or a queuing limit is reached. \"Reject\" means that requests that can not be executed upon arrival are rejected. Required.",
      "type": [
        "string",
        "null"
      ]
    }
  },
  "required": [
    "type"
  ],
  "type": "object",
  "x-kubernetes-unions": [
    {
      "discriminator": "type",
      "fields-to-discriminateBy": {
        "queuing": "Queuing"
      }
    }
  ],
  "$schema": "http://json-schema.org/schema#"
}