{
  "description": "ReplicationController represents the configuration of a replication controller.",
  "properties": {
    "apiVersion": {
      "description": "APIVersion defines the versioned schema of this representation of an object. Servers should convert recognized schemas to the latest internal value, and may reject unrecognized values. More info: https://git.k8s.io/community/contributors/devel/sig-architecture/api-conventions.md#resources",
      "type": [
        "string",
        "null"
      ]
    },
    "kind": {
      "description": "Kind is a string value representing the REST resource this object represents. Servers may infer this from the endpoint the client submits requests to. Cannot be updated. In CamelCase. More info: https://git.k8s.io/community/contributors/devel/sig-architecture/api-conventions.md#types-kinds",
      "type": [
        "string",
        "null"
      ],
      "enum": [
        "ReplicationController"
      ]
    },
    "metadata": {
      "$ref": "https://gitlab.cern.ch/jeedy-public/kubernetes-json-schemas/-/raw/master/v1.23.12/_definitions.json#/definitions/io.k8s.apimachinery.pkg.apis.meta.v1.ObjectMeta",
      "description": "If the Labels of a ReplicationController are empty, they are defaulted to be the same as the Pod(s) that the replication controller manages. Standard object's metadata. More info: https://git.k8s.io/community/contributors/devel/sig-architecture/api-conventions.md#metadata"
    },
    "spec": {
      "$ref": "https://gitlab.cern.ch/jeedy-public/kubernetes-json-schemas/-/raw/master/v1.23.12/_definitions.json#/definitions/io.k8s.api.core.v1.ReplicationControllerSpec",
      "description": "Spec defines the specification of the desired behavior of the replication controller. More info: https://git.k8s.io/community/contributors/devel/sig-architecture/api-conventions.md#spec-and-status"
    },
    "status": {
      "$ref": "https://gitlab.cern.ch/jeedy-public/kubernetes-json-schemas/-/raw/master/v1.23.12/_definitions.json#/definitions/io.k8s.api.core.v1.ReplicationControllerStatus",
      "description": "Status is the most recently observed status of the replication controller. This data may be out of date by some window of time. Populated by the system. Read-only. More info: https://git.k8s.io/community/contributors/devel/sig-architecture/api-conventions.md#spec-and-status"
    }
  },
  "type": "object",
  "x-kubernetes-group-version-kind": [
    {
      "group": "",
      "kind": "ReplicationController",
      "version": "v1"
    }
  ],
  "$schema": "http://json-schema.org/schema#"
}