{
  "description": "ContainerResourceMetricStatus indicates the current value of a resource metric known to Kubernetes, as specified in requests and limits, describing a single container in each pod in the current scale target (e.g. CPU or memory).  Such metrics are built in to Kubernetes, and have special scaling options on top of those available to normal per-pod metrics using the \"pods\" source.",
  "properties": {
    "container": {
      "description": "Container is the name of the container in the pods of the scaling target",
      "type": [
        "string",
        "null"
      ]
    },
    "current": {
      "$ref": "https://gitlab.cern.ch/jeedy-public/kubernetes-json-schemas/master/v1.26.6/_definitions.json#/definitions/io.k8s.api.autoscaling.v2.MetricValueStatus",
      "description": "current contains the current value for the given metric"
    },
    "name": {
      "description": "Name is the name of the resource in question.",
      "type": [
        "string",
        "null"
      ]
    }
  },
  "required": [
    "name",
    "current",
    "container"
  ],
  "type": "object",
  "$schema": "http://json-schema.org/schema#"
}