{
  "description": "NodeCondition contains condition information for a node.",
  "properties": {
    "lastHeartbeatTime": {
      "$ref": "https://gitlab.cern.ch/jeedy-public/kubernetes-json-schemas/master/v1.26.6/_definitions.json#/definitions/io.k8s.apimachinery.pkg.apis.meta.v1.Time",
      "description": "Last time we got an update on a given condition."
    },
    "lastTransitionTime": {
      "$ref": "https://gitlab.cern.ch/jeedy-public/kubernetes-json-schemas/master/v1.26.6/_definitions.json#/definitions/io.k8s.apimachinery.pkg.apis.meta.v1.Time",
      "description": "Last time the condition transit from one status to another."
    },
    "message": {
      "description": "Human readable message indicating details about last transition.",
      "type": [
        "string",
        "null"
      ]
    },
    "reason": {
      "description": "(brief) reason for the condition's last transition.",
      "type": [
        "string",
        "null"
      ]
    },
    "status": {
      "description": "Status of the condition, one of True, False, Unknown.",
      "type": [
        "string",
        "null"
      ]
    },
    "type": {
      "description": "Type of node condition.",
      "type": [
        "string",
        "null"
      ]
    }
  },
  "required": [
    "type",
    "status"
  ],
  "type": "object",
  "$schema": "http://json-schema.org/schema#"
}