{
  "description": "PersistentVolumeClaimStatus is the current status of a persistent volume claim.",
  "properties": {
    "accessModes": {
      "description": "accessModes contains the actual access modes the volume backing the PVC has. More info: https://kubernetes.io/docs/concepts/storage/persistent-volumes#access-modes-1",
      "items": {
        "type": [
          "string",
          "null"
        ]
      },
      "type": [
        "array",
        "null"
      ]
    },
    "allocatedResourceStatuses": {
      "additionalProperties": {
        "type": [
          "string",
          "null"
        ]
      },
      "description": "allocatedResourceStatuses stores status of resource being resized for the given PVC. Key names follow standard Kubernetes label syntax. Valid values are either:\n\t* Un-prefixed keys:\n\t\t- storage - the capacity of the volume.\n\t* Custom resources must use implementation-defined prefixed names such as \"example.com/my-custom-resource\"\nApart from above values - keys that are unprefixed or have kubernetes.io prefix are considered reserved and hence may not be used.\n\nClaimResourceStatus can be in any of following states:\n\t- ControllerResizeInProgress:\n\t\tState set when resize controller starts resizing the volume in control-plane.\n\t- ControllerResizeFailed:\n\t\tState set when resize has failed in resize controller with a terminal error.\n\t- NodeResizePending:\n\t\tState set when resize controller has finished resizing the volume but further resizing of\n\t\tvolume is needed on the node.\n\t- NodeResizeInProgress:\n\t\tState set when kubelet starts resizing the volume.\n\t- NodeResizeFailed:\n\t\tState set when resizing has failed in kubelet with a terminal error. Transient errors don't set\n\t\tNodeResizeFailed.\nFor example: if expanding a PVC for more capacity - this field can be one of the following states:\n\t- pvc.status.allocatedResourceStatus['storage'] = \"ControllerResizeInProgress\"\n     - pvc.status.allocatedResourceStatus['storage'] = \"ControllerResizeFailed\"\n     - pvc.status.allocatedResourceStatus['storage'] = \"NodeResizePending\"\n     - pvc.status.allocatedResourceStatus['storage'] = \"NodeResizeInProgress\"\n     - pvc.status.allocatedResourceStatus['storage'] = \"NodeResizeFailed\"\nWhen this field is not set, it means that no resize operation is in progress for the given PVC.\n\nA controller that receives PVC update with previously unknown resourceName or ClaimResourceStatus should ignore the update for the purpose it was designed. For example - a controller that only is responsible for resizing capacity of the volume, should ignore PVC updates that change other valid resources associated with PVC.\n\nThis is an alpha field and requires enabling RecoverVolumeExpansionFailure feature.",
      "type": [
        "object",
        "null"
      ],
      "x-kubernetes-map-type": "granular"
    },
    "allocatedResources": {
      "additionalProperties": {
        "$ref": "https://gitlab.cern.ch/jeedy-public/kubernetes-json-schemas/master/v1.29.0/_definitions.json#/definitions/io.k8s.apimachinery.pkg.api.resource.Quantity"
      },
      "description": "allocatedResources tracks the resources allocated to a PVC including its capacity. Key names follow standard Kubernetes label syntax. Valid values are either:\n\t* Un-prefixed keys:\n\t\t- storage - the capacity of the volume.\n\t* Custom resources must use implementation-defined prefixed names such as \"example.com/my-custom-resource\"\nApart from above values - keys that are unprefixed or have kubernetes.io prefix are considered reserved and hence may not be used.\n\nCapacity reported here may be larger than the actual capacity when a volume expansion operation is requested. For storage quota, the larger value from allocatedResources and PVC.spec.resources is used. If allocatedResources is not set, PVC.spec.resources alone is used for quota calculation. If a volume expansion capacity request is lowered, allocatedResources is only lowered if there are no expansion operations in progress and if the actual volume capacity is equal or lower than the requested capacity.\n\nA controller that receives PVC update with previously unknown resourceName should ignore the update for the purpose it was designed. For example - a controller that only is responsible for resizing capacity of the volume, should ignore PVC updates that change other valid resources associated with PVC.\n\nThis is an alpha field and requires enabling RecoverVolumeExpansionFailure feature.",
      "type": [
        "object",
        "null"
      ]
    },
    "capacity": {
      "additionalProperties": {
        "$ref": "https://gitlab.cern.ch/jeedy-public/kubernetes-json-schemas/master/v1.29.0/_definitions.json#/definitions/io.k8s.apimachinery.pkg.api.resource.Quantity"
      },
      "description": "capacity represents the actual resources of the underlying volume.",
      "type": [
        "object",
        "null"
      ]
    },
    "conditions": {
      "description": "conditions is the current Condition of persistent volume claim. If underlying persistent volume is being resized then the Condition will be set to 'ResizeStarted'.",
      "items": {
        "$ref": "https://gitlab.cern.ch/jeedy-public/kubernetes-json-schemas/master/v1.29.0/_definitions.json#/definitions/io.k8s.api.core.v1.PersistentVolumeClaimCondition"
      },
      "type": [
        "array",
        "null"
      ],
      "x-kubernetes-patch-merge-key": "type",
      "x-kubernetes-patch-strategy": "merge"
    },
    "currentVolumeAttributesClassName": {
      "description": "currentVolumeAttributesClassName is the current name of the VolumeAttributesClass the PVC is using. When unset, there is no VolumeAttributeClass applied to this PersistentVolumeClaim This is an alpha field and requires enabling VolumeAttributesClass feature.",
      "type": [
        "string",
        "null"
      ]
    },
    "modifyVolumeStatus": {
      "$ref": "https://gitlab.cern.ch/jeedy-public/kubernetes-json-schemas/master/v1.29.0/_definitions.json#/definitions/io.k8s.api.core.v1.ModifyVolumeStatus",
      "description": "ModifyVolumeStatus represents the status object of ControllerModifyVolume operation. When this is unset, there is no ModifyVolume operation being attempted. This is an alpha field and requires enabling VolumeAttributesClass feature."
    },
    "phase": {
      "description": "phase represents the current phase of PersistentVolumeClaim.",
      "type": [
        "string",
        "null"
      ]
    }
  },
  "type": "object",
  "$schema": "http://json-schema.org/schema#"
}