{
  "description": "ValidatingAdmissionPolicySpec is the specification of the desired behavior of the AdmissionPolicy.",
  "properties": {
    "auditAnnotations": {
      "description": "auditAnnotations contains CEL expressions which are used to produce audit annotations for the audit event of the API request. validations and auditAnnotations may not both be empty; a least one of validations or auditAnnotations is required.",
      "items": {
        "$ref": "https://gitlab.cern.ch/jeedy-public/kubernetes-json-schemas/master/v1.29.0/_definitions.json#/definitions/io.k8s.api.admissionregistration.v1beta1.AuditAnnotation"
      },
      "type": [
        "array",
        "null"
      ],
      "x-kubernetes-list-type": "atomic"
    },
    "failurePolicy": {
      "description": "failurePolicy defines how to handle failures for the admission policy. Failures can occur from CEL expression parse errors, type check errors, runtime errors and invalid or mis-configured policy definitions or bindings.\n\nA policy is invalid if spec.paramKind refers to a non-existent Kind. A binding is invalid if spec.paramRef.name refers to a non-existent resource.\n\nfailurePolicy does not define how validations that evaluate to false are handled.\n\nWhen failurePolicy is set to Fail, ValidatingAdmissionPolicyBinding validationActions define how failures are enforced.\n\nAllowed values are Ignore or Fail. Defaults to Fail.",
      "type": [
        "string",
        "null"
      ]
    },
    "matchConditions": {
      "description": "MatchConditions is a list of conditions that must be met for a request to be validated. Match conditions filter requests that have already been matched by the rules, namespaceSelector, and objectSelector. An empty list of matchConditions matches all requests. There are a maximum of 64 match conditions allowed.\n\nIf a parameter object is provided, it can be accessed via the `params` handle in the same manner as validation expressions.\n\nThe exact matching logic is (in order):\n  1. If ANY matchCondition evaluates to FALSE, the policy is skipped.\n  2. If ALL matchConditions evaluate to TRUE, the policy is evaluated.\n  3. If any matchCondition evaluates to an error (but none are FALSE):\n     - If failurePolicy=Fail, reject the request\n     - If failurePolicy=Ignore, the policy is skipped",
      "items": {
        "$ref": "https://gitlab.cern.ch/jeedy-public/kubernetes-json-schemas/master/v1.29.0/_definitions.json#/definitions/io.k8s.api.admissionregistration.v1beta1.MatchCondition"
      },
      "type": [
        "array",
        "null"
      ],
      "x-kubernetes-list-map-keys": [
        "name"
      ],
      "x-kubernetes-list-type": "map",
      "x-kubernetes-patch-merge-key": "name",
      "x-kubernetes-patch-strategy": "merge"
    },
    "matchConstraints": {
      "$ref": "https://gitlab.cern.ch/jeedy-public/kubernetes-json-schemas/master/v1.29.0/_definitions.json#/definitions/io.k8s.api.admissionregistration.v1beta1.MatchResources",
      "description": "MatchConstraints specifies what resources this policy is designed to validate. The AdmissionPolicy cares about a request if it matches _all_ Constraints. However, in order to prevent clusters from being put into an unstable state that cannot be recovered from via the API ValidatingAdmissionPolicy cannot match ValidatingAdmissionPolicy and ValidatingAdmissionPolicyBinding. Required."
    },
    "paramKind": {
      "$ref": "https://gitlab.cern.ch/jeedy-public/kubernetes-json-schemas/master/v1.29.0/_definitions.json#/definitions/io.k8s.api.admissionregistration.v1beta1.ParamKind",
      "description": "ParamKind specifies the kind of resources used to parameterize this policy. If absent, there are no parameters for this policy and the param CEL variable will not be provided to validation expressions. If ParamKind refers to a non-existent kind, this policy definition is mis-configured and the FailurePolicy is applied. If paramKind is specified but paramRef is unset in ValidatingAdmissionPolicyBinding, the params variable will be null."
    },
    "validations": {
      "description": "Validations contain CEL expressions which is used to apply the validation. Validations and AuditAnnotations may not both be empty; a minimum of one Validations or AuditAnnotations is required.",
      "items": {
        "$ref": "https://gitlab.cern.ch/jeedy-public/kubernetes-json-schemas/master/v1.29.0/_definitions.json#/definitions/io.k8s.api.admissionregistration.v1beta1.Validation"
      },
      "type": [
        "array",
        "null"
      ],
      "x-kubernetes-list-type": "atomic"
    },
    "variables": {
      "description": "Variables contain definitions of variables that can be used in composition of other expressions. Each variable is defined as a named CEL expression. The variables defined here will be available under `variables` in other expressions of the policy except MatchConditions because MatchConditions are evaluated before the rest of the policy.\n\nThe expression of a variable can refer to other variables defined earlier in the list but not those after. Thus, Variables must be sorted by the order of first appearance and acyclic.",
      "items": {
        "$ref": "https://gitlab.cern.ch/jeedy-public/kubernetes-json-schemas/master/v1.29.0/_definitions.json#/definitions/io.k8s.api.admissionregistration.v1beta1.Variable"
      },
      "type": [
        "array",
        "null"
      ],
      "x-kubernetes-list-map-keys": [
        "name"
      ],
      "x-kubernetes-list-type": "map",
      "x-kubernetes-patch-merge-key": "name",
      "x-kubernetes-patch-strategy": "merge"
    }
  },
  "type": "object",
  "$schema": "http://json-schema.org/schema#"
}