{
  "description": "VolumeAttachmentStatus is the status of a VolumeAttachment request.",
  "properties": {
    "attachError": {
      "$ref": "https://gitlab.cern.ch/jeedy-public/kubernetes-json-schemas/master/v1.29.0/_definitions.json#/definitions/io.k8s.api.storage.v1.VolumeError",
      "description": "attachError represents the last error encountered during attach operation, if any. This field must only be set by the entity completing the attach operation, i.e. the external-attacher."
    },
    "attached": {
      "description": "attached indicates the volume is successfully attached. This field must only be set by the entity completing the attach operation, i.e. the external-attacher.",
      "type": [
        "boolean",
        "null"
      ]
    },
    "attachmentMetadata": {
      "additionalProperties": {
        "type": [
          "string",
          "null"
        ]
      },
      "description": "attachmentMetadata is populated with any information returned by the attach operation, upon successful attach, that must be passed into subsequent WaitForAttach or Mount calls. This field must only be set by the entity completing the attach operation, i.e. the external-attacher.",
      "type": [
        "object",
        "null"
      ]
    },
    "detachError": {
      "$ref": "https://gitlab.cern.ch/jeedy-public/kubernetes-json-schemas/master/v1.29.0/_definitions.json#/definitions/io.k8s.api.storage.v1.VolumeError",
      "description": "detachError represents the last error encountered during detach operation, if any. This field must only be set by the entity completing the detach operation, i.e. the external-attacher."
    }
  },
  "required": [
    "attached"
  ],
  "type": "object",
  "$schema": "http://json-schema.org/schema#"
}