{
  "description": "VolumeAttributesClass represents a specification of mutable volume attributes defined by the CSI driver. The class can be specified during dynamic provisioning of PersistentVolumeClaims, and changed in the PersistentVolumeClaim spec after provisioning.",
  "properties": {
    "apiVersion": {
      "description": "APIVersion defines the versioned schema of this representation of an object. Servers should convert recognized schemas to the latest internal value, and may reject unrecognized values. More info: https://git.k8s.io/community/contributors/devel/sig-architecture/api-conventions.md#resources",
      "type": [
        "string",
        "null"
      ],
      "enum": [
        "storage.k8s.io/v1alpha1"
      ]
    },
    "driverName": {
      "description": "Name of the CSI driver This field is immutable.",
      "type": [
        "string",
        "null"
      ]
    },
    "kind": {
      "description": "Kind is a string value representing the REST resource this object represents. Servers may infer this from the endpoint the client submits requests to. Cannot be updated. In CamelCase. More info: https://git.k8s.io/community/contributors/devel/sig-architecture/api-conventions.md#types-kinds",
      "type": [
        "string",
        "null"
      ],
      "enum": [
        "VolumeAttributesClass"
      ]
    },
    "metadata": {
      "$ref": "https://gitlab.cern.ch/jeedy-public/kubernetes-json-schemas/master/v1.29.0/_definitions.json#/definitions/io.k8s.apimachinery.pkg.apis.meta.v1.ObjectMeta",
      "description": "Standard object's metadata. More info: https://git.k8s.io/community/contributors/devel/sig-architecture/api-conventions.md#metadata"
    },
    "parameters": {
      "additionalProperties": {
        "type": [
          "string",
          "null"
        ]
      },
      "description": "parameters hold volume attributes defined by the CSI driver. These values are opaque to the Kubernetes and are passed directly to the CSI driver. The underlying storage provider supports changing these attributes on an existing volume, however the parameters field itself is immutable. To invoke a volume update, a new VolumeAttributesClass should be created with new parameters, and the PersistentVolumeClaim should be updated to reference the new VolumeAttributesClass.\n\nThis field is required and must contain at least one key/value pair. The keys cannot be empty, and the maximum number of parameters is 512, with a cumulative max size of 256K. If the CSI driver rejects invalid parameters, the target PersistentVolumeClaim will be set to an \"Infeasible\" state in the modifyVolumeStatus field.",
      "type": [
        "object",
        "null"
      ]
    }
  },
  "required": [
    "driverName"
  ],
  "type": "object",
  "x-kubernetes-group-version-kind": [
    {
      "group": "storage.k8s.io",
      "kind": "VolumeAttributesClass",
      "version": "v1alpha1"
    }
  ],
  "$schema": "http://json-schema.org/schema#"
}