{
  "description": "PodSchedulingContextStatus describes where resources for the Pod can be allocated.",
  "properties": {
    "resourceClaims": {
      "description": "ResourceClaims describes resource availability for each pod.spec.resourceClaim entry where the corresponding ResourceClaim uses \"WaitForFirstConsumer\" allocation mode.",
      "items": {
        "$ref": "https://gitlab.cern.ch/jeedy-public/kubernetes-json-schemas/master/v1.27.4/_definitions.json#/definitions/io.k8s.api.resource.v1alpha2.ResourceClaimSchedulingStatus"
      },
      "type": [
        "array",
        "null"
      ],
      "x-kubernetes-list-map-keys": [
        "name"
      ],
      "x-kubernetes-list-type": "map"
    }
  },
  "type": "object",
  "$schema": "http://json-schema.org/schema#"
}