{
  "description": "ResourceClaimStatus tracks whether the resource has been allocated and what the resulting attributes are.",
  "properties": {
    "allocation": {
      "$ref": "https://gitlab.cern.ch/jeedy-public/kubernetes-json-schemas/master/v1.27.10/_definitions.json#/definitions/io.k8s.api.resource.v1alpha2.AllocationResult",
      "description": "Allocation is set by the resource driver once a resource or set of resources has been allocated successfully. If this is not specified, the resources have not been allocated yet."
    },
    "deallocationRequested": {
      "description": "DeallocationRequested indicates that a ResourceClaim is to be deallocated.\n\nThe driver then must deallocate this claim and reset the field together with clearing the Allocation field.\n\nWhile DeallocationRequested is set, no new consumers may be added to ReservedFor.",
      "type": [
        "boolean",
        "null"
      ]
    },
    "driverName": {
      "description": "DriverName is a copy of the driver name from the ResourceClass at the time when allocation started.",
      "type": [
        "string",
        "null"
      ]
    },
    "reservedFor": {
      "description": "ReservedFor indicates which entities are currently allowed to use the claim. A Pod which references a ResourceClaim which is not reserved for that Pod will not be started.\n\nThere can be at most 32 such reservations. This may get increased in the future, but not reduced.",
      "items": {
        "$ref": "https://gitlab.cern.ch/jeedy-public/kubernetes-json-schemas/master/v1.27.10/_definitions.json#/definitions/io.k8s.api.resource.v1alpha2.ResourceClaimConsumerReference"
      },
      "type": [
        "array",
        "null"
      ],
      "x-kubernetes-list-map-keys": [
        "uid"
      ],
      "x-kubernetes-list-type": "map"
    }
  },
  "type": "object",
  "$schema": "http://json-schema.org/schema#"
}