{
  "description": "SelfSubjectReview contains the user information that the kube-apiserver has about the user making this request. When using impersonation, users will receive the user info of the user being impersonated.  If impersonation or request header authentication is used, any extra keys will have their case ignored and returned as lowercase.",
  "properties": {
    "apiVersion": {
      "description": "APIVersion defines the versioned schema of this representation of an object. Servers should convert recognized schemas to the latest internal value, and may reject unrecognized values. More info: https://git.k8s.io/community/contributors/devel/sig-architecture/api-conventions.md#resources",
      "type": [
        "string",
        "null"
      ],
      "enum": [
        "authentication.k8s.io/v1beta1"
      ]
    },
    "kind": {
      "description": "Kind is a string value representing the REST resource this object represents. Servers may infer this from the endpoint the client submits requests to. Cannot be updated. In CamelCase. More info: https://git.k8s.io/community/contributors/devel/sig-architecture/api-conventions.md#types-kinds",
      "type": [
        "string",
        "null"
      ],
      "enum": [
        "SelfSubjectReview"
      ]
    },
    "metadata": {
      "$ref": "https://gitlab.cern.ch/jeedy-public/kubernetes-json-schemas/master/v1.27.10/_definitions.json#/definitions/io.k8s.apimachinery.pkg.apis.meta.v1.ObjectMeta",
      "description": "Standard object's metadata. More info: https://git.k8s.io/community/contributors/devel/sig-architecture/api-conventions.md#metadata"
    },
    "status": {
      "$ref": "https://gitlab.cern.ch/jeedy-public/kubernetes-json-schemas/master/v1.27.10/_definitions.json#/definitions/io.k8s.api.authentication.v1beta1.SelfSubjectReviewStatus",
      "description": "Status is filled in by the server with the user attributes."
    }
  },
  "type": "object",
  "x-kubernetes-group-version-kind": [
    {
      "group": "authentication.k8s.io",
      "kind": "SelfSubjectReview",
      "version": "v1beta1"
    }
  ],
  "$schema": "http://json-schema.org/schema#"
}