{
  "description": "StatusDetails is a set of additional properties that MAY be set by the server to provide additional information about a response. The Reason field of a Status object defines what attributes will be set. Clients must ignore fields that do not match the defined type of each attribute, and should assume that any attribute may be empty, invalid, or under defined.",
  "properties": {
    "causes": {
      "description": "The Causes array includes more details associated with the StatusReason failure. Not all StatusReasons may provide detailed causes.",
      "items": {
        "$ref": "https://gitlab.cern.ch/jeedy-public/kubernetes-json-schemas/master/v1.27.10/_definitions.json#/definitions/io.k8s.apimachinery.pkg.apis.meta.v1.StatusCause"
      },
      "type": [
        "array",
        "null"
      ]
    },
    "group": {
      "description": "The group attribute of the resource associated with the status StatusReason.",
      "type": [
        "string",
        "null"
      ]
    },
    "kind": {
      "description": "The kind attribute of the resource associated with the status StatusReason. On some operations may differ from the requested resource Kind. More info: https://git.k8s.io/community/contributors/devel/sig-architecture/api-conventions.md#types-kinds",
      "type": [
        "string",
        "null"
      ]
    },
    "name": {
      "description": "The name attribute of the resource associated with the status StatusReason (when there is a single name which can be described).",
      "type": [
        "string",
        "null"
      ]
    },
    "retryAfterSeconds": {
      "description": "If specified, the time in seconds before the operation should be retried. Some errors may indicate the client must take an alternate action - for those errors this field may indicate how long to wait before taking the alternate action.",
      "format": "int32",
      "type": [
        "integer",
        "null"
      ]
    },
    "uid": {
      "description": "UID of the resource. (when there is a single resource which can be described). More info: https://kubernetes.io/docs/concepts/overview/working-with-objects/names#uids",
      "type": [
        "string",
        "null"
      ]
    }
  },
  "type": "object",
  "$schema": "http://json-schema.org/schema#"
}