{
  "description": "SecurityContext holds security configuration that will be applied to a container. Some fields are present in both SecurityContext and PodSecurityContext.  When both are set, the values in SecurityContext take precedence.",
  "properties": {
    "allowPrivilegeEscalation": {
      "description": "AllowPrivilegeEscalation controls whether a process can gain more privileges than its parent process. This bool directly controls if the no_new_privs flag will be set on the container process. AllowPrivilegeEscalation is true always when the container is: 1) run as Privileged 2) has CAP_SYS_ADMIN",
      "type": [
        "boolean",
        "null"
      ]
    },
    "capabilities": {
      "$ref": "https://gitlab.cern.ch/jeedy-public/kubernetes-json-schemas/-/raw/master/v1.22.15/_definitions.json#/definitions/io.k8s.api.core.v1.Capabilities",
      "description": "The capabilities to add/drop when running containers. Defaults to the default set of capabilities granted by the container runtime."
    },
    "privileged": {
      "description": "Run container in privileged mode. Processes in privileged containers are essentially equivalent to root on the host. Defaults to false.",
      "type": [
        "boolean",
        "null"
      ]
    },
    "procMount": {
      "description": "procMount denotes the type of proc mount to use for the containers. The default is DefaultProcMount which uses the container runtime defaults for readonly paths and masked paths. This requires the ProcMountType feature flag to be enabled.",
      "type": [
        "string",
        "null"
      ]
    },
    "readOnlyRootFilesystem": {
      "description": "Whether this container has a read-only root filesystem. Default is false.",
      "type": [
        "boolean",
        "null"
      ]
    },
    "runAsGroup": {
      "description": "The GID to run the entrypoint of the container process. Uses runtime default if unset. May also be set in PodSecurityContext.  If set in both SecurityContext and PodSecurityContext, the value specified in SecurityContext takes precedence.",
      "format": "int64",
      "type": [
        "integer",
        "null"
      ]
    },
    "runAsNonRoot": {
      "description": "Indicates that the container must run as a non-root user. If true, the Kubelet will validate the image at runtime to ensure that it does not run as UID 0 (root) and fail to start the container if it does. If unset or false, no such validation will be performed. May also be set in PodSecurityContext.  If set in both SecurityContext and PodSecurityContext, the value specified in SecurityContext takes precedence.",
      "type": [
        "boolean",
        "null"
      ]
    },
    "runAsUser": {
      "description": "The UID to run the entrypoint of the container process. Defaults to user specified in image metadata if unspecified. May also be set in PodSecurityContext.  If set in both SecurityContext and PodSecurityContext, the value specified in SecurityContext takes precedence.",
      "format": "int64",
      "type": [
        "integer",
        "null"
      ]
    },
    "seLinuxOptions": {
      "$ref": "https://gitlab.cern.ch/jeedy-public/kubernetes-json-schemas/-/raw/master/v1.22.15/_definitions.json#/definitions/io.k8s.api.core.v1.SELinuxOptions",
      "description": "The SELinux context to be applied to the container. If unspecified, the container runtime will allocate a random SELinux context for each container.  May also be set in PodSecurityContext.  If set in both SecurityContext and PodSecurityContext, the value specified in SecurityContext takes precedence."
    },
    "seccompProfile": {
      "$ref": "https://gitlab.cern.ch/jeedy-public/kubernetes-json-schemas/-/raw/master/v1.22.15/_definitions.json#/definitions/io.k8s.api.core.v1.SeccompProfile",
      "description": "The seccomp options to use by this container. If seccomp options are provided at both the pod & container level, the container options override the pod options."
    },
    "windowsOptions": {
      "$ref": "https://gitlab.cern.ch/jeedy-public/kubernetes-json-schemas/-/raw/master/v1.22.15/_definitions.json#/definitions/io.k8s.api.core.v1.WindowsSecurityContextOptions",
      "description": "The Windows specific settings applied to all containers. If unspecified, the options from the PodSecurityContext will be used. If set in both SecurityContext and PodSecurityContext, the value specified in SecurityContext takes precedence."
    }
  },
  "type": "object",
  "$schema": "http://json-schema.org/schema#"
}