{
  "description": "MetricValueStatus holds the current value for a metric",
  "properties": {
    "averageUtilization": {
      "description": "currentAverageUtilization is the current value of the average of the resource metric across all relevant pods, represented as a percentage of the requested value of the resource for the pods.",
      "format": "int32",
      "type": [
        "integer",
        "null"
      ]
    },
    "averageValue": {
      "$ref": "https://gitlab.cern.ch/jeedy-public/kubernetes-json-schemas/-/raw/master/v1.17.9/_definitions.json#/definitions/io.k8s.apimachinery.pkg.api.resource.Quantity",
      "description": "averageValue is the current value of the average of the metric across all relevant pods (as a quantity)"
    },
    "value": {
      "$ref": "https://gitlab.cern.ch/jeedy-public/kubernetes-json-schemas/-/raw/master/v1.17.9/_definitions.json#/definitions/io.k8s.apimachinery.pkg.api.resource.Quantity",
      "description": "value is the current value of the metric (as a quantity)."
    }
  },
  "type": "object",
  "$schema": "http://json-schema.org/schema#"
}