{
  "description": "CertificateSigningRequest objects provide a mechanism to obtain x509 certificates by submitting a certificate signing request, and having it asynchronously approved and issued.\n\nKubelets use this API to obtain:\n 1. client certificates to authenticate to kube-apiserver (with the \"kubernetes.io/kube-apiserver-client-kubelet\" signerName).\n 2. serving certificates for TLS endpoints kube-apiserver can connect to securely (with the \"kubernetes.io/kubelet-serving\" signerName).\n\nThis API can be used to request client certificates to authenticate to kube-apiserver (with the \"kubernetes.io/kube-apiserver-client\" signerName), or to obtain certificates from custom non-Kubernetes signers.",
  "properties": {
    "apiVersion": {
      "description": "APIVersion defines the versioned schema of this representation of an object. Servers should convert recognized schemas to the latest internal value, and may reject unrecognized values. More info: https://git.k8s.io/community/contributors/devel/sig-architecture/api-conventions.md#resources",
      "type": [
        "string",
        "null"
      ],
      "enum": [
        "certificates.k8s.io/v1"
      ]
    },
    "kind": {
      "description": "Kind is a string value representing the REST resource this object represents. Servers may infer this from the endpoint the client submits requests to. Cannot be updated. In CamelCase. More info: https://git.k8s.io/community/contributors/devel/sig-architecture/api-conventions.md#types-kinds",
      "type": [
        "string",
        "null"
      ],
      "enum": [
        "CertificateSigningRequest"
      ]
    },
    "metadata": {
      "$ref": "https://gitlab.cern.ch/jeedy-public/kubernetes-json-schemas/-/raw/master/v1.19.11/_definitions.json#/definitions/io.k8s.apimachinery.pkg.apis.meta.v1.ObjectMeta"
    },
    "spec": {
      "$ref": "https://gitlab.cern.ch/jeedy-public/kubernetes-json-schemas/-/raw/master/v1.19.11/_definitions.json#/definitions/io.k8s.api.certificates.v1.CertificateSigningRequestSpec",
      "description": "spec contains the certificate request, and is immutable after creation. Only the request, signerName, and usages fields can be set on creation. Other fields are derived by Kubernetes and cannot be modified by users."
    },
    "status": {
      "$ref": "https://gitlab.cern.ch/jeedy-public/kubernetes-json-schemas/-/raw/master/v1.19.11/_definitions.json#/definitions/io.k8s.api.certificates.v1.CertificateSigningRequestStatus",
      "description": "status contains information about whether the request is approved or denied, and the certificate issued by the signer, or the failure condition indicating signer failure."
    }
  },
  "required": [
    "spec"
  ],
  "type": "object",
  "x-kubernetes-group-version-kind": [
    {
      "group": "certificates.k8s.io",
      "kind": "CertificateSigningRequest",
      "version": "v1"
    }
  ],
  "$schema": "http://json-schema.org/schema#"
}