{
  "description": "Represents storage that is managed by an external CSI volume driver (Beta feature)",
  "properties": {
    "controllerExpandSecretRef": {
      "$ref": "https://gitlab.cern.ch/jeedy-public/kubernetes-json-schemas/-/raw/master/v1.19.11/_definitions.json#/definitions/io.k8s.api.core.v1.SecretReference",
      "description": "ControllerExpandSecretRef is a reference to the secret object containing sensitive information to pass to the CSI driver to complete the CSI ControllerExpandVolume call. This is an alpha field and requires enabling ExpandCSIVolumes feature gate. This field is optional, and may be empty if no secret is required. If the secret object contains more than one secret, all secrets are passed."
    },
    "controllerPublishSecretRef": {
      "$ref": "https://gitlab.cern.ch/jeedy-public/kubernetes-json-schemas/-/raw/master/v1.19.11/_definitions.json#/definitions/io.k8s.api.core.v1.SecretReference",
      "description": "ControllerPublishSecretRef is a reference to the secret object containing sensitive information to pass to the CSI driver to complete the CSI ControllerPublishVolume and ControllerUnpublishVolume calls. This field is optional, and may be empty if no secret is required. If the secret object contains more than one secret, all secrets are passed."
    },
    "driver": {
      "description": "Driver is the name of the driver to use for this volume. Required.",
      "type": [
        "string",
        "null"
      ]
    },
    "fsType": {
      "description": "Filesystem type to mount. Must be a filesystem type supported by the host operating system. Ex. \"ext4\", \"xfs\", \"ntfs\".",
      "type": [
        "string",
        "null"
      ]
    },
    "nodePublishSecretRef": {
      "$ref": "https://gitlab.cern.ch/jeedy-public/kubernetes-json-schemas/-/raw/master/v1.19.11/_definitions.json#/definitions/io.k8s.api.core.v1.SecretReference",
      "description": "NodePublishSecretRef is a reference to the secret object containing sensitive information to pass to the CSI driver to complete the CSI NodePublishVolume and NodeUnpublishVolume calls. This field is optional, and may be empty if no secret is required. If the secret object contains more than one secret, all secrets are passed."
    },
    "nodeStageSecretRef": {
      "$ref": "https://gitlab.cern.ch/jeedy-public/kubernetes-json-schemas/-/raw/master/v1.19.11/_definitions.json#/definitions/io.k8s.api.core.v1.SecretReference",
      "description": "NodeStageSecretRef is a reference to the secret object containing sensitive information to pass to the CSI driver to complete the CSI NodeStageVolume and NodeStageVolume and NodeUnstageVolume calls. This field is optional, and may be empty if no secret is required. If the secret object contains more than one secret, all secrets are passed."
    },
    "readOnly": {
      "description": "Optional: The value to pass to ControllerPublishVolumeRequest. Defaults to false (read/write).",
      "type": [
        "boolean",
        "null"
      ]
    },
    "volumeAttributes": {
      "additionalProperties": {
        "type": [
          "string",
          "null"
        ]
      },
      "description": "Attributes of the volume to publish.",
      "type": [
        "object",
        "null"
      ]
    },
    "volumeHandle": {
      "description": "VolumeHandle is the unique volume name returned by the CSI volume plugin\u2019s CreateVolume to refer to the volume on all subsequent calls. Required.",
      "type": [
        "string",
        "null"
      ]
    }
  },
  "required": [
    "driver",
    "volumeHandle"
  ],
  "type": "object",
  "$schema": "http://json-schema.org/schema#"
}