{
  "description": "NodeDaemonEndpoints lists ports opened by daemons running on the Node.",
  "properties": {
    "kubeletEndpoint": {
      "$ref": "https://gitlab.cern.ch/jeedy-public/kubernetes-json-schemas/master/v1.28.1/_definitions.json#/definitions/io.k8s.api.core.v1.DaemonEndpoint",
      "description": "Endpoint on which Kubelet is listening."
    }
  },
  "type": "object",
  "$schema": "http://json-schema.org/schema#"
}