{
  "description": "CustomResourceValidation is a list of validation methods for CustomResources.",
  "properties": {
    "openAPIV3Schema": {
      "$ref": "https://gitlab.cern.ch/jeedy-public/kubernetes-json-schemas/-/raw/master/v1.25.3/_definitions.json#/definitions/io.k8s.apiextensions-apiserver.pkg.apis.apiextensions.v1.JSONSchemaProps",
      "description": "openAPIV3Schema is the OpenAPI v3 schema to use for validation and pruning."
    }
  },
  "type": "object",
  "$schema": "http://json-schema.org/schema#"
}