{
  "description": "ServiceAccount binds together: * a name, understood by users, and perhaps by peripheral systems, for an identity * a principal that can be authenticated and authorized * a set of secrets",
  "properties": {
    "apiVersion": {
      "description": "APIVersion defines the versioned schema of this representation of an object. Servers should convert recognized schemas to the latest internal value, and may reject unrecognized values. More info: https://git.k8s.io/community/contributors/devel/sig-architecture/api-conventions.md#resources",
      "type": [
        "string",
        "null"
      ],
      "enum": [
        "v1"
      ]
    },
    "automountServiceAccountToken": {
      "description": "AutomountServiceAccountToken indicates whether pods running as this service account should have an API token automatically mounted. Can be overridden at the pod level.",
      "type": [
        "boolean",
        "null"
      ]
    },
    "imagePullSecrets": {
      "description": "ImagePullSecrets is a list of references to secrets in the same namespace to use for pulling any images in pods that reference this ServiceAccount. ImagePullSecrets are distinct from Secrets because Secrets can be mounted in the pod, but ImagePullSecrets are only accessed by the kubelet. More info: https://kubernetes.io/docs/concepts/containers/images/#specifying-imagepullsecrets-on-a-pod",
      "items": {
        "$ref": "https://gitlab.cern.ch/jeedy-public/kubernetes-json-schemas/-/raw/master/v1.25.3/_definitions.json#/definitions/io.k8s.api.core.v1.LocalObjectReference"
      },
      "type": [
        "array",
        "null"
      ]
    },
    "kind": {
      "description": "Kind is a string value representing the REST resource this object represents. Servers may infer this from the endpoint the client submits requests to. Cannot be updated. In CamelCase. More info: https://git.k8s.io/community/contributors/devel/sig-architecture/api-conventions.md#types-kinds",
      "type": [
        "string",
        "null"
      ],
      "enum": [
        "ServiceAccount"
      ]
    },
    "metadata": {
      "$ref": "https://gitlab.cern.ch/jeedy-public/kubernetes-json-schemas/-/raw/master/v1.25.3/_definitions.json#/definitions/io.k8s.apimachinery.pkg.apis.meta.v1.ObjectMeta",
      "description": "Standard object's metadata. More info: https://git.k8s.io/community/contributors/devel/sig-architecture/api-conventions.md#metadata"
    },
    "secrets": {
      "description": "Secrets is a list of the secrets in the same namespace that pods running using this ServiceAccount are allowed to use. Pods are only limited to this list if this service account has a \"kubernetes.io/enforce-mountable-secrets\" annotation set to \"true\". This field should not be used to find auto-generated service account token secrets for use outside of pods. Instead, tokens can be requested directly using the TokenRequest API, or service account token secrets can be manually created. More info: https://kubernetes.io/docs/concepts/configuration/secret",
      "items": {
        "$ref": "https://gitlab.cern.ch/jeedy-public/kubernetes-json-schemas/-/raw/master/v1.25.3/_definitions.json#/definitions/io.k8s.api.core.v1.ObjectReference"
      },
      "type": [
        "array",
        "null"
      ],
      "x-kubernetes-patch-merge-key": "name",
      "x-kubernetes-patch-strategy": "merge"
    }
  },
  "type": "object",
  "x-kubernetes-group-version-kind": [
    {
      "group": "",
      "kind": "ServiceAccount",
      "version": "v1"
    }
  ],
  "$schema": "http://json-schema.org/schema#"
}