{
  "oneOf": [
    {
      "$ref": "https://gitlab.cern.ch/jeedy-public/kubernetes-json-schemas/-/raw/master/v1.26.1/_definitions.json#/definitions/io.k8s.api.admissionregistration.v1.MutatingWebhook"
    },
    {
      "$ref": "https://gitlab.cern.ch/jeedy-public/kubernetes-json-schemas/-/raw/master/v1.26.1/_definitions.json#/definitions/io.k8s.api.admissionregistration.v1.MutatingWebhookConfiguration"
    },
    {
      "$ref": "https://gitlab.cern.ch/jeedy-public/kubernetes-json-schemas/-/raw/master/v1.26.1/_definitions.json#/definitions/io.k8s.api.admissionregistration.v1.MutatingWebhookConfigurationList"
    },
    {
      "$ref": "https://gitlab.cern.ch/jeedy-public/kubernetes-json-schemas/-/raw/master/v1.26.1/_definitions.json#/definitions/io.k8s.api.admissionregistration.v1.RuleWithOperations"
    },
    {
      "$ref": "https://gitlab.cern.ch/jeedy-public/kubernetes-json-schemas/-/raw/master/v1.26.1/_definitions.json#/definitions/io.k8s.api.admissionregistration.v1.ServiceReference"
    },
    {
      "$ref": "https://gitlab.cern.ch/jeedy-public/kubernetes-json-schemas/-/raw/master/v1.26.1/_definitions.json#/definitions/io.k8s.api.admissionregistration.v1.ValidatingWebhook"
    },
    {
      "$ref": "https://gitlab.cern.ch/jeedy-public/kubernetes-json-schemas/-/raw/master/v1.26.1/_definitions.json#/definitions/io.k8s.api.admissionregistration.v1.ValidatingWebhookConfiguration"
    },
    {
      "$ref": "https://gitlab.cern.ch/jeedy-public/kubernetes-json-schemas/-/raw/master/v1.26.1/_definitions.json#/definitions/io.k8s.api.admissionregistration.v1.ValidatingWebhookConfigurationList"
    },
    {
      "$ref": "https://gitlab.cern.ch/jeedy-public/kubernetes-json-schemas/-/raw/master/v1.26.1/_definitions.json#/definitions/io.k8s.api.admissionregistration.v1.WebhookClientConfig"
    },
    {
      "$ref": "https://gitlab.cern.ch/jeedy-public/kubernetes-json-schemas/-/raw/master/v1.26.1/_definitions.json#/definitions/io.k8s.api.admissionregistration.v1alpha1.MatchResources"
    },
    {
      "$ref": "https://gitlab.cern.ch/jeedy-public/kubernetes-json-schemas/-/raw/master/v1.26.1/_definitions.json#/definitions/io.k8s.api.admissionregistration.v1alpha1.NamedRuleWithOperations"
    },
    {
      "$ref": "https://gitlab.cern.ch/jeedy-public/kubernetes-json-schemas/-/raw/master/v1.26.1/_definitions.json#/definitions/io.k8s.api.admissionregistration.v1alpha1.ParamKind"
    },
    {
      "$ref": "https://gitlab.cern.ch/jeedy-public/kubernetes-json-schemas/-/raw/master/v1.26.1/_definitions.json#/definitions/io.k8s.api.admissionregistration.v1alpha1.ParamRef"
    },
    {
      "$ref": "https://gitlab.cern.ch/jeedy-public/kubernetes-json-schemas/-/raw/master/v1.26.1/_definitions.json#/definitions/io.k8s.api.admissionregistration.v1alpha1.ValidatingAdmissionPolicy"
    },
    {
      "$ref": "https://gitlab.cern.ch/jeedy-public/kubernetes-json-schemas/-/raw/master/v1.26.1/_definitions.json#/definitions/io.k8s.api.admissionregistration.v1alpha1.ValidatingAdmissionPolicyBinding"
    },
    {
      "$ref": "https://gitlab.cern.ch/jeedy-public/kubernetes-json-schemas/-/raw/master/v1.26.1/_definitions.json#/definitions/io.k8s.api.admissionregistration.v1alpha1.ValidatingAdmissionPolicyBindingList"
    },
    {
      "$ref": "https://gitlab.cern.ch/jeedy-public/kubernetes-json-schemas/-/raw/master/v1.26.1/_definitions.json#/definitions/io.k8s.api.admissionregistration.v1alpha1.ValidatingAdmissionPolicyBindingSpec"
    },
    {
      "$ref": "https://gitlab.cern.ch/jeedy-public/kubernetes-json-schemas/-/raw/master/v1.26.1/_definitions.json#/definitions/io.k8s.api.admissionregistration.v1alpha1.ValidatingAdmissionPolicyList"
    },
    {
      "$ref": "https://gitlab.cern.ch/jeedy-public/kubernetes-json-schemas/-/raw/master/v1.26.1/_definitions.json#/definitions/io.k8s.api.admissionregistration.v1alpha1.ValidatingAdmissionPolicySpec"
    },
    {
      "$ref": "https://gitlab.cern.ch/jeedy-public/kubernetes-json-schemas/-/raw/master/v1.26.1/_definitions.json#/definitions/io.k8s.api.admissionregistration.v1alpha1.Validation"
    },
    {
      "$ref": "https://gitlab.cern.ch/jeedy-public/kubernetes-json-schemas/-/raw/master/v1.26.1/_definitions.json#/definitions/io.k8s.api.apiserverinternal.v1alpha1.ServerStorageVersion"
    },
    {
      "$ref": "https://gitlab.cern.ch/jeedy-public/kubernetes-json-schemas/-/raw/master/v1.26.1/_definitions.json#/definitions/io.k8s.api.apiserverinternal.v1alpha1.StorageVersion"
    },
    {
      "$ref": "https://gitlab.cern.ch/jeedy-public/kubernetes-json-schemas/-/raw/master/v1.26.1/_definitions.json#/definitions/io.k8s.api.apiserverinternal.v1alpha1.StorageVersionCondition"
    },
    {
      "$ref": "https://gitlab.cern.ch/jeedy-public/kubernetes-json-schemas/-/raw/master/v1.26.1/_definitions.json#/definitions/io.k8s.api.apiserverinternal.v1alpha1.StorageVersionList"
    },
    {
      "$ref": "https://gitlab.cern.ch/jeedy-public/kubernetes-json-schemas/-/raw/master/v1.26.1/_definitions.json#/definitions/io.k8s.api.apiserverinternal.v1alpha1.StorageVersionSpec"
    },
    {
      "$ref": "https://gitlab.cern.ch/jeedy-public/kubernetes-json-schemas/-/raw/master/v1.26.1/_definitions.json#/definitions/io.k8s.api.apiserverinternal.v1alpha1.StorageVersionStatus"
    },
    {
      "$ref": "https://gitlab.cern.ch/jeedy-public/kubernetes-json-schemas/-/raw/master/v1.26.1/_definitions.json#/definitions/io.k8s.api.apps.v1.ControllerRevision"
    },
    {
      "$ref": "https://gitlab.cern.ch/jeedy-public/kubernetes-json-schemas/-/raw/master/v1.26.1/_definitions.json#/definitions/io.k8s.api.apps.v1.ControllerRevisionList"
    },
    {
      "$ref": "https://gitlab.cern.ch/jeedy-public/kubernetes-json-schemas/-/raw/master/v1.26.1/_definitions.json#/definitions/io.k8s.api.apps.v1.DaemonSet"
    },
    {
      "$ref": "https://gitlab.cern.ch/jeedy-public/kubernetes-json-schemas/-/raw/master/v1.26.1/_definitions.json#/definitions/io.k8s.api.apps.v1.DaemonSetCondition"
    },
    {
      "$ref": "https://gitlab.cern.ch/jeedy-public/kubernetes-json-schemas/-/raw/master/v1.26.1/_definitions.json#/definitions/io.k8s.api.apps.v1.DaemonSetList"
    },
    {
      "$ref": "https://gitlab.cern.ch/jeedy-public/kubernetes-json-schemas/-/raw/master/v1.26.1/_definitions.json#/definitions/io.k8s.api.apps.v1.DaemonSetSpec"
    },
    {
      "$ref": "https://gitlab.cern.ch/jeedy-public/kubernetes-json-schemas/-/raw/master/v1.26.1/_definitions.json#/definitions/io.k8s.api.apps.v1.DaemonSetStatus"
    },
    {
      "$ref": "https://gitlab.cern.ch/jeedy-public/kubernetes-json-schemas/-/raw/master/v1.26.1/_definitions.json#/definitions/io.k8s.api.apps.v1.DaemonSetUpdateStrategy"
    },
    {
      "$ref": "https://gitlab.cern.ch/jeedy-public/kubernetes-json-schemas/-/raw/master/v1.26.1/_definitions.json#/definitions/io.k8s.api.apps.v1.Deployment"
    },
    {
      "$ref": "https://gitlab.cern.ch/jeedy-public/kubernetes-json-schemas/-/raw/master/v1.26.1/_definitions.json#/definitions/io.k8s.api.apps.v1.DeploymentCondition"
    },
    {
      "$ref": "https://gitlab.cern.ch/jeedy-public/kubernetes-json-schemas/-/raw/master/v1.26.1/_definitions.json#/definitions/io.k8s.api.apps.v1.DeploymentList"
    },
    {
      "$ref": "https://gitlab.cern.ch/jeedy-public/kubernetes-json-schemas/-/raw/master/v1.26.1/_definitions.json#/definitions/io.k8s.api.apps.v1.DeploymentSpec"
    },
    {
      "$ref": "https://gitlab.cern.ch/jeedy-public/kubernetes-json-schemas/-/raw/master/v1.26.1/_definitions.json#/definitions/io.k8s.api.apps.v1.DeploymentStatus"
    },
    {
      "$ref": "https://gitlab.cern.ch/jeedy-public/kubernetes-json-schemas/-/raw/master/v1.26.1/_definitions.json#/definitions/io.k8s.api.apps.v1.DeploymentStrategy"
    },
    {
      "$ref": "https://gitlab.cern.ch/jeedy-public/kubernetes-json-schemas/-/raw/master/v1.26.1/_definitions.json#/definitions/io.k8s.api.apps.v1.ReplicaSet"
    },
    {
      "$ref": "https://gitlab.cern.ch/jeedy-public/kubernetes-json-schemas/-/raw/master/v1.26.1/_definitions.json#/definitions/io.k8s.api.apps.v1.ReplicaSetCondition"
    },
    {
      "$ref": "https://gitlab.cern.ch/jeedy-public/kubernetes-json-schemas/-/raw/master/v1.26.1/_definitions.json#/definitions/io.k8s.api.apps.v1.ReplicaSetList"
    },
    {
      "$ref": "https://gitlab.cern.ch/jeedy-public/kubernetes-json-schemas/-/raw/master/v1.26.1/_definitions.json#/definitions/io.k8s.api.apps.v1.ReplicaSetSpec"
    },
    {
      "$ref": "https://gitlab.cern.ch/jeedy-public/kubernetes-json-schemas/-/raw/master/v1.26.1/_definitions.json#/definitions/io.k8s.api.apps.v1.ReplicaSetStatus"
    },
    {
      "$ref": "https://gitlab.cern.ch/jeedy-public/kubernetes-json-schemas/-/raw/master/v1.26.1/_definitions.json#/definitions/io.k8s.api.apps.v1.RollingUpdateDaemonSet"
    },
    {
      "$ref": "https://gitlab.cern.ch/jeedy-public/kubernetes-json-schemas/-/raw/master/v1.26.1/_definitions.json#/definitions/io.k8s.api.apps.v1.RollingUpdateDeployment"
    },
    {
      "$ref": "https://gitlab.cern.ch/jeedy-public/kubernetes-json-schemas/-/raw/master/v1.26.1/_definitions.json#/definitions/io.k8s.api.apps.v1.RollingUpdateStatefulSetStrategy"
    },
    {
      "$ref": "https://gitlab.cern.ch/jeedy-public/kubernetes-json-schemas/-/raw/master/v1.26.1/_definitions.json#/definitions/io.k8s.api.apps.v1.StatefulSet"
    },
    {
      "$ref": "https://gitlab.cern.ch/jeedy-public/kubernetes-json-schemas/-/raw/master/v1.26.1/_definitions.json#/definitions/io.k8s.api.apps.v1.StatefulSetCondition"
    },
    {
      "$ref": "https://gitlab.cern.ch/jeedy-public/kubernetes-json-schemas/-/raw/master/v1.26.1/_definitions.json#/definitions/io.k8s.api.apps.v1.StatefulSetList"
    },
    {
      "$ref": "https://gitlab.cern.ch/jeedy-public/kubernetes-json-schemas/-/raw/master/v1.26.1/_definitions.json#/definitions/io.k8s.api.apps.v1.StatefulSetOrdinals"
    },
    {
      "$ref": "https://gitlab.cern.ch/jeedy-public/kubernetes-json-schemas/-/raw/master/v1.26.1/_definitions.json#/definitions/io.k8s.api.apps.v1.StatefulSetPersistentVolumeClaimRetentionPolicy"
    },
    {
      "$ref": "https://gitlab.cern.ch/jeedy-public/kubernetes-json-schemas/-/raw/master/v1.26.1/_definitions.json#/definitions/io.k8s.api.apps.v1.StatefulSetSpec"
    },
    {
      "$ref": "https://gitlab.cern.ch/jeedy-public/kubernetes-json-schemas/-/raw/master/v1.26.1/_definitions.json#/definitions/io.k8s.api.apps.v1.StatefulSetStatus"
    },
    {
      "$ref": "https://gitlab.cern.ch/jeedy-public/kubernetes-json-schemas/-/raw/master/v1.26.1/_definitions.json#/definitions/io.k8s.api.apps.v1.StatefulSetUpdateStrategy"
    },
    {
      "$ref": "https://gitlab.cern.ch/jeedy-public/kubernetes-json-schemas/-/raw/master/v1.26.1/_definitions.json#/definitions/io.k8s.api.authentication.v1.BoundObjectReference"
    },
    {
      "$ref": "https://gitlab.cern.ch/jeedy-public/kubernetes-json-schemas/-/raw/master/v1.26.1/_definitions.json#/definitions/io.k8s.api.authentication.v1.TokenRequest"
    },
    {
      "$ref": "https://gitlab.cern.ch/jeedy-public/kubernetes-json-schemas/-/raw/master/v1.26.1/_definitions.json#/definitions/io.k8s.api.authentication.v1.TokenRequestSpec"
    },
    {
      "$ref": "https://gitlab.cern.ch/jeedy-public/kubernetes-json-schemas/-/raw/master/v1.26.1/_definitions.json#/definitions/io.k8s.api.authentication.v1.TokenRequestStatus"
    },
    {
      "$ref": "https://gitlab.cern.ch/jeedy-public/kubernetes-json-schemas/-/raw/master/v1.26.1/_definitions.json#/definitions/io.k8s.api.authentication.v1.TokenReview"
    },
    {
      "$ref": "https://gitlab.cern.ch/jeedy-public/kubernetes-json-schemas/-/raw/master/v1.26.1/_definitions.json#/definitions/io.k8s.api.authentication.v1.TokenReviewSpec"
    },
    {
      "$ref": "https://gitlab.cern.ch/jeedy-public/kubernetes-json-schemas/-/raw/master/v1.26.1/_definitions.json#/definitions/io.k8s.api.authentication.v1.TokenReviewStatus"
    },
    {
      "$ref": "https://gitlab.cern.ch/jeedy-public/kubernetes-json-schemas/-/raw/master/v1.26.1/_definitions.json#/definitions/io.k8s.api.authentication.v1.UserInfo"
    },
    {
      "$ref": "https://gitlab.cern.ch/jeedy-public/kubernetes-json-schemas/-/raw/master/v1.26.1/_definitions.json#/definitions/io.k8s.api.authentication.v1alpha1.SelfSubjectReview"
    },
    {
      "$ref": "https://gitlab.cern.ch/jeedy-public/kubernetes-json-schemas/-/raw/master/v1.26.1/_definitions.json#/definitions/io.k8s.api.authentication.v1alpha1.SelfSubjectReviewStatus"
    },
    {
      "$ref": "https://gitlab.cern.ch/jeedy-public/kubernetes-json-schemas/-/raw/master/v1.26.1/_definitions.json#/definitions/io.k8s.api.authorization.v1.LocalSubjectAccessReview"
    },
    {
      "$ref": "https://gitlab.cern.ch/jeedy-public/kubernetes-json-schemas/-/raw/master/v1.26.1/_definitions.json#/definitions/io.k8s.api.authorization.v1.NonResourceAttributes"
    },
    {
      "$ref": "https://gitlab.cern.ch/jeedy-public/kubernetes-json-schemas/-/raw/master/v1.26.1/_definitions.json#/definitions/io.k8s.api.authorization.v1.NonResourceRule"
    },
    {
      "$ref": "https://gitlab.cern.ch/jeedy-public/kubernetes-json-schemas/-/raw/master/v1.26.1/_definitions.json#/definitions/io.k8s.api.authorization.v1.ResourceAttributes"
    },
    {
      "$ref": "https://gitlab.cern.ch/jeedy-public/kubernetes-json-schemas/-/raw/master/v1.26.1/_definitions.json#/definitions/io.k8s.api.authorization.v1.ResourceRule"
    },
    {
      "$ref": "https://gitlab.cern.ch/jeedy-public/kubernetes-json-schemas/-/raw/master/v1.26.1/_definitions.json#/definitions/io.k8s.api.authorization.v1.SelfSubjectAccessReview"
    },
    {
      "$ref": "https://gitlab.cern.ch/jeedy-public/kubernetes-json-schemas/-/raw/master/v1.26.1/_definitions.json#/definitions/io.k8s.api.authorization.v1.SelfSubjectAccessReviewSpec"
    },
    {
      "$ref": "https://gitlab.cern.ch/jeedy-public/kubernetes-json-schemas/-/raw/master/v1.26.1/_definitions.json#/definitions/io.k8s.api.authorization.v1.SelfSubjectRulesReview"
    },
    {
      "$ref": "https://gitlab.cern.ch/jeedy-public/kubernetes-json-schemas/-/raw/master/v1.26.1/_definitions.json#/definitions/io.k8s.api.authorization.v1.SelfSubjectRulesReviewSpec"
    },
    {
      "$ref": "https://gitlab.cern.ch/jeedy-public/kubernetes-json-schemas/-/raw/master/v1.26.1/_definitions.json#/definitions/io.k8s.api.authorization.v1.SubjectAccessReview"
    },
    {
      "$ref": "https://gitlab.cern.ch/jeedy-public/kubernetes-json-schemas/-/raw/master/v1.26.1/_definitions.json#/definitions/io.k8s.api.authorization.v1.SubjectAccessReviewSpec"
    },
    {
      "$ref": "https://gitlab.cern.ch/jeedy-public/kubernetes-json-schemas/-/raw/master/v1.26.1/_definitions.json#/definitions/io.k8s.api.authorization.v1.SubjectAccessReviewStatus"
    },
    {
      "$ref": "https://gitlab.cern.ch/jeedy-public/kubernetes-json-schemas/-/raw/master/v1.26.1/_definitions.json#/definitions/io.k8s.api.authorization.v1.SubjectRulesReviewStatus"
    },
    {
      "$ref": "https://gitlab.cern.ch/jeedy-public/kubernetes-json-schemas/-/raw/master/v1.26.1/_definitions.json#/definitions/io.k8s.api.autoscaling.v1.CrossVersionObjectReference"
    },
    {
      "$ref": "https://gitlab.cern.ch/jeedy-public/kubernetes-json-schemas/-/raw/master/v1.26.1/_definitions.json#/definitions/io.k8s.api.autoscaling.v1.HorizontalPodAutoscaler"
    },
    {
      "$ref": "https://gitlab.cern.ch/jeedy-public/kubernetes-json-schemas/-/raw/master/v1.26.1/_definitions.json#/definitions/io.k8s.api.autoscaling.v1.HorizontalPodAutoscalerList"
    },
    {
      "$ref": "https://gitlab.cern.ch/jeedy-public/kubernetes-json-schemas/-/raw/master/v1.26.1/_definitions.json#/definitions/io.k8s.api.autoscaling.v1.HorizontalPodAutoscalerSpec"
    },
    {
      "$ref": "https://gitlab.cern.ch/jeedy-public/kubernetes-json-schemas/-/raw/master/v1.26.1/_definitions.json#/definitions/io.k8s.api.autoscaling.v1.HorizontalPodAutoscalerStatus"
    },
    {
      "$ref": "https://gitlab.cern.ch/jeedy-public/kubernetes-json-schemas/-/raw/master/v1.26.1/_definitions.json#/definitions/io.k8s.api.autoscaling.v1.Scale"
    },
    {
      "$ref": "https://gitlab.cern.ch/jeedy-public/kubernetes-json-schemas/-/raw/master/v1.26.1/_definitions.json#/definitions/io.k8s.api.autoscaling.v1.ScaleSpec"
    },
    {
      "$ref": "https://gitlab.cern.ch/jeedy-public/kubernetes-json-schemas/-/raw/master/v1.26.1/_definitions.json#/definitions/io.k8s.api.autoscaling.v1.ScaleStatus"
    },
    {
      "$ref": "https://gitlab.cern.ch/jeedy-public/kubernetes-json-schemas/-/raw/master/v1.26.1/_definitions.json#/definitions/io.k8s.api.autoscaling.v2.ContainerResourceMetricSource"
    },
    {
      "$ref": "https://gitlab.cern.ch/jeedy-public/kubernetes-json-schemas/-/raw/master/v1.26.1/_definitions.json#/definitions/io.k8s.api.autoscaling.v2.ContainerResourceMetricStatus"
    },
    {
      "$ref": "https://gitlab.cern.ch/jeedy-public/kubernetes-json-schemas/-/raw/master/v1.26.1/_definitions.json#/definitions/io.k8s.api.autoscaling.v2.CrossVersionObjectReference"
    },
    {
      "$ref": "https://gitlab.cern.ch/jeedy-public/kubernetes-json-schemas/-/raw/master/v1.26.1/_definitions.json#/definitions/io.k8s.api.autoscaling.v2.ExternalMetricSource"
    },
    {
      "$ref": "https://gitlab.cern.ch/jeedy-public/kubernetes-json-schemas/-/raw/master/v1.26.1/_definitions.json#/definitions/io.k8s.api.autoscaling.v2.ExternalMetricStatus"
    },
    {
      "$ref": "https://gitlab.cern.ch/jeedy-public/kubernetes-json-schemas/-/raw/master/v1.26.1/_definitions.json#/definitions/io.k8s.api.autoscaling.v2.HPAScalingPolicy"
    },
    {
      "$ref": "https://gitlab.cern.ch/jeedy-public/kubernetes-json-schemas/-/raw/master/v1.26.1/_definitions.json#/definitions/io.k8s.api.autoscaling.v2.HPAScalingRules"
    },
    {
      "$ref": "https://gitlab.cern.ch/jeedy-public/kubernetes-json-schemas/-/raw/master/v1.26.1/_definitions.json#/definitions/io.k8s.api.autoscaling.v2.HorizontalPodAutoscaler"
    },
    {
      "$ref": "https://gitlab.cern.ch/jeedy-public/kubernetes-json-schemas/-/raw/master/v1.26.1/_definitions.json#/definitions/io.k8s.api.autoscaling.v2.HorizontalPodAutoscalerBehavior"
    },
    {
      "$ref": "https://gitlab.cern.ch/jeedy-public/kubernetes-json-schemas/-/raw/master/v1.26.1/_definitions.json#/definitions/io.k8s.api.autoscaling.v2.HorizontalPodAutoscalerCondition"
    },
    {
      "$ref": "https://gitlab.cern.ch/jeedy-public/kubernetes-json-schemas/-/raw/master/v1.26.1/_definitions.json#/definitions/io.k8s.api.autoscaling.v2.HorizontalPodAutoscalerList"
    },
    {
      "$ref": "https://gitlab.cern.ch/jeedy-public/kubernetes-json-schemas/-/raw/master/v1.26.1/_definitions.json#/definitions/io.k8s.api.autoscaling.v2.HorizontalPodAutoscalerSpec"
    },
    {
      "$ref": "https://gitlab.cern.ch/jeedy-public/kubernetes-json-schemas/-/raw/master/v1.26.1/_definitions.json#/definitions/io.k8s.api.autoscaling.v2.HorizontalPodAutoscalerStatus"
    },
    {
      "$ref": "https://gitlab.cern.ch/jeedy-public/kubernetes-json-schemas/-/raw/master/v1.26.1/_definitions.json#/definitions/io.k8s.api.autoscaling.v2.MetricIdentifier"
    },
    {
      "$ref": "https://gitlab.cern.ch/jeedy-public/kubernetes-json-schemas/-/raw/master/v1.26.1/_definitions.json#/definitions/io.k8s.api.autoscaling.v2.MetricSpec"
    },
    {
      "$ref": "https://gitlab.cern.ch/jeedy-public/kubernetes-json-schemas/-/raw/master/v1.26.1/_definitions.json#/definitions/io.k8s.api.autoscaling.v2.MetricStatus"
    },
    {
      "$ref": "https://gitlab.cern.ch/jeedy-public/kubernetes-json-schemas/-/raw/master/v1.26.1/_definitions.json#/definitions/io.k8s.api.autoscaling.v2.MetricTarget"
    },
    {
      "$ref": "https://gitlab.cern.ch/jeedy-public/kubernetes-json-schemas/-/raw/master/v1.26.1/_definitions.json#/definitions/io.k8s.api.autoscaling.v2.MetricValueStatus"
    },
    {
      "$ref": "https://gitlab.cern.ch/jeedy-public/kubernetes-json-schemas/-/raw/master/v1.26.1/_definitions.json#/definitions/io.k8s.api.autoscaling.v2.ObjectMetricSource"
    },
    {
      "$ref": "https://gitlab.cern.ch/jeedy-public/kubernetes-json-schemas/-/raw/master/v1.26.1/_definitions.json#/definitions/io.k8s.api.autoscaling.v2.ObjectMetricStatus"
    },
    {
      "$ref": "https://gitlab.cern.ch/jeedy-public/kubernetes-json-schemas/-/raw/master/v1.26.1/_definitions.json#/definitions/io.k8s.api.autoscaling.v2.PodsMetricSource"
    },
    {
      "$ref": "https://gitlab.cern.ch/jeedy-public/kubernetes-json-schemas/-/raw/master/v1.26.1/_definitions.json#/definitions/io.k8s.api.autoscaling.v2.PodsMetricStatus"
    },
    {
      "$ref": "https://gitlab.cern.ch/jeedy-public/kubernetes-json-schemas/-/raw/master/v1.26.1/_definitions.json#/definitions/io.k8s.api.autoscaling.v2.ResourceMetricSource"
    },
    {
      "$ref": "https://gitlab.cern.ch/jeedy-public/kubernetes-json-schemas/-/raw/master/v1.26.1/_definitions.json#/definitions/io.k8s.api.autoscaling.v2.ResourceMetricStatus"
    },
    {
      "$ref": "https://gitlab.cern.ch/jeedy-public/kubernetes-json-schemas/-/raw/master/v1.26.1/_definitions.json#/definitions/io.k8s.api.batch.v1.CronJob"
    },
    {
      "$ref": "https://gitlab.cern.ch/jeedy-public/kubernetes-json-schemas/-/raw/master/v1.26.1/_definitions.json#/definitions/io.k8s.api.batch.v1.CronJobList"
    },
    {
      "$ref": "https://gitlab.cern.ch/jeedy-public/kubernetes-json-schemas/-/raw/master/v1.26.1/_definitions.json#/definitions/io.k8s.api.batch.v1.CronJobSpec"
    },
    {
      "$ref": "https://gitlab.cern.ch/jeedy-public/kubernetes-json-schemas/-/raw/master/v1.26.1/_definitions.json#/definitions/io.k8s.api.batch.v1.CronJobStatus"
    },
    {
      "$ref": "https://gitlab.cern.ch/jeedy-public/kubernetes-json-schemas/-/raw/master/v1.26.1/_definitions.json#/definitions/io.k8s.api.batch.v1.Job"
    },
    {
      "$ref": "https://gitlab.cern.ch/jeedy-public/kubernetes-json-schemas/-/raw/master/v1.26.1/_definitions.json#/definitions/io.k8s.api.batch.v1.JobCondition"
    },
    {
      "$ref": "https://gitlab.cern.ch/jeedy-public/kubernetes-json-schemas/-/raw/master/v1.26.1/_definitions.json#/definitions/io.k8s.api.batch.v1.JobList"
    },
    {
      "$ref": "https://gitlab.cern.ch/jeedy-public/kubernetes-json-schemas/-/raw/master/v1.26.1/_definitions.json#/definitions/io.k8s.api.batch.v1.JobSpec"
    },
    {
      "$ref": "https://gitlab.cern.ch/jeedy-public/kubernetes-json-schemas/-/raw/master/v1.26.1/_definitions.json#/definitions/io.k8s.api.batch.v1.JobStatus"
    },
    {
      "$ref": "https://gitlab.cern.ch/jeedy-public/kubernetes-json-schemas/-/raw/master/v1.26.1/_definitions.json#/definitions/io.k8s.api.batch.v1.JobTemplateSpec"
    },
    {
      "$ref": "https://gitlab.cern.ch/jeedy-public/kubernetes-json-schemas/-/raw/master/v1.26.1/_definitions.json#/definitions/io.k8s.api.batch.v1.PodFailurePolicy"
    },
    {
      "$ref": "https://gitlab.cern.ch/jeedy-public/kubernetes-json-schemas/-/raw/master/v1.26.1/_definitions.json#/definitions/io.k8s.api.batch.v1.PodFailurePolicyOnExitCodesRequirement"
    },
    {
      "$ref": "https://gitlab.cern.ch/jeedy-public/kubernetes-json-schemas/-/raw/master/v1.26.1/_definitions.json#/definitions/io.k8s.api.batch.v1.PodFailurePolicyOnPodConditionsPattern"
    },
    {
      "$ref": "https://gitlab.cern.ch/jeedy-public/kubernetes-json-schemas/-/raw/master/v1.26.1/_definitions.json#/definitions/io.k8s.api.batch.v1.PodFailurePolicyRule"
    },
    {
      "$ref": "https://gitlab.cern.ch/jeedy-public/kubernetes-json-schemas/-/raw/master/v1.26.1/_definitions.json#/definitions/io.k8s.api.batch.v1.UncountedTerminatedPods"
    },
    {
      "$ref": "https://gitlab.cern.ch/jeedy-public/kubernetes-json-schemas/-/raw/master/v1.26.1/_definitions.json#/definitions/io.k8s.api.certificates.v1.CertificateSigningRequest"
    },
    {
      "$ref": "https://gitlab.cern.ch/jeedy-public/kubernetes-json-schemas/-/raw/master/v1.26.1/_definitions.json#/definitions/io.k8s.api.certificates.v1.CertificateSigningRequestCondition"
    },
    {
      "$ref": "https://gitlab.cern.ch/jeedy-public/kubernetes-json-schemas/-/raw/master/v1.26.1/_definitions.json#/definitions/io.k8s.api.certificates.v1.CertificateSigningRequestList"
    },
    {
      "$ref": "https://gitlab.cern.ch/jeedy-public/kubernetes-json-schemas/-/raw/master/v1.26.1/_definitions.json#/definitions/io.k8s.api.certificates.v1.CertificateSigningRequestSpec"
    },
    {
      "$ref": "https://gitlab.cern.ch/jeedy-public/kubernetes-json-schemas/-/raw/master/v1.26.1/_definitions.json#/definitions/io.k8s.api.certificates.v1.CertificateSigningRequestStatus"
    },
    {
      "$ref": "https://gitlab.cern.ch/jeedy-public/kubernetes-json-schemas/-/raw/master/v1.26.1/_definitions.json#/definitions/io.k8s.api.coordination.v1.Lease"
    },
    {
      "$ref": "https://gitlab.cern.ch/jeedy-public/kubernetes-json-schemas/-/raw/master/v1.26.1/_definitions.json#/definitions/io.k8s.api.coordination.v1.LeaseList"
    },
    {
      "$ref": "https://gitlab.cern.ch/jeedy-public/kubernetes-json-schemas/-/raw/master/v1.26.1/_definitions.json#/definitions/io.k8s.api.coordination.v1.LeaseSpec"
    },
    {
      "$ref": "https://gitlab.cern.ch/jeedy-public/kubernetes-json-schemas/-/raw/master/v1.26.1/_definitions.json#/definitions/io.k8s.api.core.v1.AWSElasticBlockStoreVolumeSource"
    },
    {
      "$ref": "https://gitlab.cern.ch/jeedy-public/kubernetes-json-schemas/-/raw/master/v1.26.1/_definitions.json#/definitions/io.k8s.api.core.v1.Affinity"
    },
    {
      "$ref": "https://gitlab.cern.ch/jeedy-public/kubernetes-json-schemas/-/raw/master/v1.26.1/_definitions.json#/definitions/io.k8s.api.core.v1.AttachedVolume"
    },
    {
      "$ref": "https://gitlab.cern.ch/jeedy-public/kubernetes-json-schemas/-/raw/master/v1.26.1/_definitions.json#/definitions/io.k8s.api.core.v1.AzureDiskVolumeSource"
    },
    {
      "$ref": "https://gitlab.cern.ch/jeedy-public/kubernetes-json-schemas/-/raw/master/v1.26.1/_definitions.json#/definitions/io.k8s.api.core.v1.AzureFilePersistentVolumeSource"
    },
    {
      "$ref": "https://gitlab.cern.ch/jeedy-public/kubernetes-json-schemas/-/raw/master/v1.26.1/_definitions.json#/definitions/io.k8s.api.core.v1.AzureFileVolumeSource"
    },
    {
      "$ref": "https://gitlab.cern.ch/jeedy-public/kubernetes-json-schemas/-/raw/master/v1.26.1/_definitions.json#/definitions/io.k8s.api.core.v1.Binding"
    },
    {
      "$ref": "https://gitlab.cern.ch/jeedy-public/kubernetes-json-schemas/-/raw/master/v1.26.1/_definitions.json#/definitions/io.k8s.api.core.v1.CSIPersistentVolumeSource"
    },
    {
      "$ref": "https://gitlab.cern.ch/jeedy-public/kubernetes-json-schemas/-/raw/master/v1.26.1/_definitions.json#/definitions/io.k8s.api.core.v1.CSIVolumeSource"
    },
    {
      "$ref": "https://gitlab.cern.ch/jeedy-public/kubernetes-json-schemas/-/raw/master/v1.26.1/_definitions.json#/definitions/io.k8s.api.core.v1.Capabilities"
    },
    {
      "$ref": "https://gitlab.cern.ch/jeedy-public/kubernetes-json-schemas/-/raw/master/v1.26.1/_definitions.json#/definitions/io.k8s.api.core.v1.CephFSPersistentVolumeSource"
    },
    {
      "$ref": "https://gitlab.cern.ch/jeedy-public/kubernetes-json-schemas/-/raw/master/v1.26.1/_definitions.json#/definitions/io.k8s.api.core.v1.CephFSVolumeSource"
    },
    {
      "$ref": "https://gitlab.cern.ch/jeedy-public/kubernetes-json-schemas/-/raw/master/v1.26.1/_definitions.json#/definitions/io.k8s.api.core.v1.CinderPersistentVolumeSource"
    },
    {
      "$ref": "https://gitlab.cern.ch/jeedy-public/kubernetes-json-schemas/-/raw/master/v1.26.1/_definitions.json#/definitions/io.k8s.api.core.v1.CinderVolumeSource"
    },
    {
      "$ref": "https://gitlab.cern.ch/jeedy-public/kubernetes-json-schemas/-/raw/master/v1.26.1/_definitions.json#/definitions/io.k8s.api.core.v1.ClaimSource"
    },
    {
      "$ref": "https://gitlab.cern.ch/jeedy-public/kubernetes-json-schemas/-/raw/master/v1.26.1/_definitions.json#/definitions/io.k8s.api.core.v1.ClientIPConfig"
    },
    {
      "$ref": "https://gitlab.cern.ch/jeedy-public/kubernetes-json-schemas/-/raw/master/v1.26.1/_definitions.json#/definitions/io.k8s.api.core.v1.ComponentCondition"
    },
    {
      "$ref": "https://gitlab.cern.ch/jeedy-public/kubernetes-json-schemas/-/raw/master/v1.26.1/_definitions.json#/definitions/io.k8s.api.core.v1.ComponentStatus"
    },
    {
      "$ref": "https://gitlab.cern.ch/jeedy-public/kubernetes-json-schemas/-/raw/master/v1.26.1/_definitions.json#/definitions/io.k8s.api.core.v1.ComponentStatusList"
    },
    {
      "$ref": "https://gitlab.cern.ch/jeedy-public/kubernetes-json-schemas/-/raw/master/v1.26.1/_definitions.json#/definitions/io.k8s.api.core.v1.ConfigMap"
    },
    {
      "$ref": "https://gitlab.cern.ch/jeedy-public/kubernetes-json-schemas/-/raw/master/v1.26.1/_definitions.json#/definitions/io.k8s.api.core.v1.ConfigMapEnvSource"
    },
    {
      "$ref": "https://gitlab.cern.ch/jeedy-public/kubernetes-json-schemas/-/raw/master/v1.26.1/_definitions.json#/definitions/io.k8s.api.core.v1.ConfigMapKeySelector"
    },
    {
      "$ref": "https://gitlab.cern.ch/jeedy-public/kubernetes-json-schemas/-/raw/master/v1.26.1/_definitions.json#/definitions/io.k8s.api.core.v1.ConfigMapList"
    },
    {
      "$ref": "https://gitlab.cern.ch/jeedy-public/kubernetes-json-schemas/-/raw/master/v1.26.1/_definitions.json#/definitions/io.k8s.api.core.v1.ConfigMapNodeConfigSource"
    },
    {
      "$ref": "https://gitlab.cern.ch/jeedy-public/kubernetes-json-schemas/-/raw/master/v1.26.1/_definitions.json#/definitions/io.k8s.api.core.v1.ConfigMapProjection"
    },
    {
      "$ref": "https://gitlab.cern.ch/jeedy-public/kubernetes-json-schemas/-/raw/master/v1.26.1/_definitions.json#/definitions/io.k8s.api.core.v1.ConfigMapVolumeSource"
    },
    {
      "$ref": "https://gitlab.cern.ch/jeedy-public/kubernetes-json-schemas/-/raw/master/v1.26.1/_definitions.json#/definitions/io.k8s.api.core.v1.Container"
    },
    {
      "$ref": "https://gitlab.cern.ch/jeedy-public/kubernetes-json-schemas/-/raw/master/v1.26.1/_definitions.json#/definitions/io.k8s.api.core.v1.ContainerImage"
    },
    {
      "$ref": "https://gitlab.cern.ch/jeedy-public/kubernetes-json-schemas/-/raw/master/v1.26.1/_definitions.json#/definitions/io.k8s.api.core.v1.ContainerPort"
    },
    {
      "$ref": "https://gitlab.cern.ch/jeedy-public/kubernetes-json-schemas/-/raw/master/v1.26.1/_definitions.json#/definitions/io.k8s.api.core.v1.ContainerState"
    },
    {
      "$ref": "https://gitlab.cern.ch/jeedy-public/kubernetes-json-schemas/-/raw/master/v1.26.1/_definitions.json#/definitions/io.k8s.api.core.v1.ContainerStateRunning"
    },
    {
      "$ref": "https://gitlab.cern.ch/jeedy-public/kubernetes-json-schemas/-/raw/master/v1.26.1/_definitions.json#/definitions/io.k8s.api.core.v1.ContainerStateTerminated"
    },
    {
      "$ref": "https://gitlab.cern.ch/jeedy-public/kubernetes-json-schemas/-/raw/master/v1.26.1/_definitions.json#/definitions/io.k8s.api.core.v1.ContainerStateWaiting"
    },
    {
      "$ref": "https://gitlab.cern.ch/jeedy-public/kubernetes-json-schemas/-/raw/master/v1.26.1/_definitions.json#/definitions/io.k8s.api.core.v1.ContainerStatus"
    },
    {
      "$ref": "https://gitlab.cern.ch/jeedy-public/kubernetes-json-schemas/-/raw/master/v1.26.1/_definitions.json#/definitions/io.k8s.api.core.v1.DaemonEndpoint"
    },
    {
      "$ref": "https://gitlab.cern.ch/jeedy-public/kubernetes-json-schemas/-/raw/master/v1.26.1/_definitions.json#/definitions/io.k8s.api.core.v1.DownwardAPIProjection"
    },
    {
      "$ref": "https://gitlab.cern.ch/jeedy-public/kubernetes-json-schemas/-/raw/master/v1.26.1/_definitions.json#/definitions/io.k8s.api.core.v1.DownwardAPIVolumeFile"
    },
    {
      "$ref": "https://gitlab.cern.ch/jeedy-public/kubernetes-json-schemas/-/raw/master/v1.26.1/_definitions.json#/definitions/io.k8s.api.core.v1.DownwardAPIVolumeSource"
    },
    {
      "$ref": "https://gitlab.cern.ch/jeedy-public/kubernetes-json-schemas/-/raw/master/v1.26.1/_definitions.json#/definitions/io.k8s.api.core.v1.EmptyDirVolumeSource"
    },
    {
      "$ref": "https://gitlab.cern.ch/jeedy-public/kubernetes-json-schemas/-/raw/master/v1.26.1/_definitions.json#/definitions/io.k8s.api.core.v1.EndpointAddress"
    },
    {
      "$ref": "https://gitlab.cern.ch/jeedy-public/kubernetes-json-schemas/-/raw/master/v1.26.1/_definitions.json#/definitions/io.k8s.api.core.v1.EndpointPort"
    },
    {
      "$ref": "https://gitlab.cern.ch/jeedy-public/kubernetes-json-schemas/-/raw/master/v1.26.1/_definitions.json#/definitions/io.k8s.api.core.v1.EndpointSubset"
    },
    {
      "$ref": "https://gitlab.cern.ch/jeedy-public/kubernetes-json-schemas/-/raw/master/v1.26.1/_definitions.json#/definitions/io.k8s.api.core.v1.Endpoints"
    },
    {
      "$ref": "https://gitlab.cern.ch/jeedy-public/kubernetes-json-schemas/-/raw/master/v1.26.1/_definitions.json#/definitions/io.k8s.api.core.v1.EndpointsList"
    },
    {
      "$ref": "https://gitlab.cern.ch/jeedy-public/kubernetes-json-schemas/-/raw/master/v1.26.1/_definitions.json#/definitions/io.k8s.api.core.v1.EnvFromSource"
    },
    {
      "$ref": "https://gitlab.cern.ch/jeedy-public/kubernetes-json-schemas/-/raw/master/v1.26.1/_definitions.json#/definitions/io.k8s.api.core.v1.EnvVar"
    },
    {
      "$ref": "https://gitlab.cern.ch/jeedy-public/kubernetes-json-schemas/-/raw/master/v1.26.1/_definitions.json#/definitions/io.k8s.api.core.v1.EnvVarSource"
    },
    {
      "$ref": "https://gitlab.cern.ch/jeedy-public/kubernetes-json-schemas/-/raw/master/v1.26.1/_definitions.json#/definitions/io.k8s.api.core.v1.EphemeralContainer"
    },
    {
      "$ref": "https://gitlab.cern.ch/jeedy-public/kubernetes-json-schemas/-/raw/master/v1.26.1/_definitions.json#/definitions/io.k8s.api.core.v1.EphemeralVolumeSource"
    },
    {
      "$ref": "https://gitlab.cern.ch/jeedy-public/kubernetes-json-schemas/-/raw/master/v1.26.1/_definitions.json#/definitions/io.k8s.api.core.v1.Event"
    },
    {
      "$ref": "https://gitlab.cern.ch/jeedy-public/kubernetes-json-schemas/-/raw/master/v1.26.1/_definitions.json#/definitions/io.k8s.api.core.v1.EventList"
    },
    {
      "$ref": "https://gitlab.cern.ch/jeedy-public/kubernetes-json-schemas/-/raw/master/v1.26.1/_definitions.json#/definitions/io.k8s.api.core.v1.EventSeries"
    },
    {
      "$ref": "https://gitlab.cern.ch/jeedy-public/kubernetes-json-schemas/-/raw/master/v1.26.1/_definitions.json#/definitions/io.k8s.api.core.v1.EventSource"
    },
    {
      "$ref": "https://gitlab.cern.ch/jeedy-public/kubernetes-json-schemas/-/raw/master/v1.26.1/_definitions.json#/definitions/io.k8s.api.core.v1.ExecAction"
    },
    {
      "$ref": "https://gitlab.cern.ch/jeedy-public/kubernetes-json-schemas/-/raw/master/v1.26.1/_definitions.json#/definitions/io.k8s.api.core.v1.FCVolumeSource"
    },
    {
      "$ref": "https://gitlab.cern.ch/jeedy-public/kubernetes-json-schemas/-/raw/master/v1.26.1/_definitions.json#/definitions/io.k8s.api.core.v1.FlexPersistentVolumeSource"
    },
    {
      "$ref": "https://gitlab.cern.ch/jeedy-public/kubernetes-json-schemas/-/raw/master/v1.26.1/_definitions.json#/definitions/io.k8s.api.core.v1.FlexVolumeSource"
    },
    {
      "$ref": "https://gitlab.cern.ch/jeedy-public/kubernetes-json-schemas/-/raw/master/v1.26.1/_definitions.json#/definitions/io.k8s.api.core.v1.FlockerVolumeSource"
    },
    {
      "$ref": "https://gitlab.cern.ch/jeedy-public/kubernetes-json-schemas/-/raw/master/v1.26.1/_definitions.json#/definitions/io.k8s.api.core.v1.GCEPersistentDiskVolumeSource"
    },
    {
      "$ref": "https://gitlab.cern.ch/jeedy-public/kubernetes-json-schemas/-/raw/master/v1.26.1/_definitions.json#/definitions/io.k8s.api.core.v1.GRPCAction"
    },
    {
      "$ref": "https://gitlab.cern.ch/jeedy-public/kubernetes-json-schemas/-/raw/master/v1.26.1/_definitions.json#/definitions/io.k8s.api.core.v1.GitRepoVolumeSource"
    },
    {
      "$ref": "https://gitlab.cern.ch/jeedy-public/kubernetes-json-schemas/-/raw/master/v1.26.1/_definitions.json#/definitions/io.k8s.api.core.v1.GlusterfsPersistentVolumeSource"
    },
    {
      "$ref": "https://gitlab.cern.ch/jeedy-public/kubernetes-json-schemas/-/raw/master/v1.26.1/_definitions.json#/definitions/io.k8s.api.core.v1.GlusterfsVolumeSource"
    },
    {
      "$ref": "https://gitlab.cern.ch/jeedy-public/kubernetes-json-schemas/-/raw/master/v1.26.1/_definitions.json#/definitions/io.k8s.api.core.v1.HTTPGetAction"
    },
    {
      "$ref": "https://gitlab.cern.ch/jeedy-public/kubernetes-json-schemas/-/raw/master/v1.26.1/_definitions.json#/definitions/io.k8s.api.core.v1.HTTPHeader"
    },
    {
      "$ref": "https://gitlab.cern.ch/jeedy-public/kubernetes-json-schemas/-/raw/master/v1.26.1/_definitions.json#/definitions/io.k8s.api.core.v1.HostAlias"
    },
    {
      "$ref": "https://gitlab.cern.ch/jeedy-public/kubernetes-json-schemas/-/raw/master/v1.26.1/_definitions.json#/definitions/io.k8s.api.core.v1.HostPathVolumeSource"
    },
    {
      "$ref": "https://gitlab.cern.ch/jeedy-public/kubernetes-json-schemas/-/raw/master/v1.26.1/_definitions.json#/definitions/io.k8s.api.core.v1.ISCSIPersistentVolumeSource"
    },
    {
      "$ref": "https://gitlab.cern.ch/jeedy-public/kubernetes-json-schemas/-/raw/master/v1.26.1/_definitions.json#/definitions/io.k8s.api.core.v1.ISCSIVolumeSource"
    },
    {
      "$ref": "https://gitlab.cern.ch/jeedy-public/kubernetes-json-schemas/-/raw/master/v1.26.1/_definitions.json#/definitions/io.k8s.api.core.v1.KeyToPath"
    },
    {
      "$ref": "https://gitlab.cern.ch/jeedy-public/kubernetes-json-schemas/-/raw/master/v1.26.1/_definitions.json#/definitions/io.k8s.api.core.v1.Lifecycle"
    },
    {
      "$ref": "https://gitlab.cern.ch/jeedy-public/kubernetes-json-schemas/-/raw/master/v1.26.1/_definitions.json#/definitions/io.k8s.api.core.v1.LifecycleHandler"
    },
    {
      "$ref": "https://gitlab.cern.ch/jeedy-public/kubernetes-json-schemas/-/raw/master/v1.26.1/_definitions.json#/definitions/io.k8s.api.core.v1.LimitRange"
    },
    {
      "$ref": "https://gitlab.cern.ch/jeedy-public/kubernetes-json-schemas/-/raw/master/v1.26.1/_definitions.json#/definitions/io.k8s.api.core.v1.LimitRangeItem"
    },
    {
      "$ref": "https://gitlab.cern.ch/jeedy-public/kubernetes-json-schemas/-/raw/master/v1.26.1/_definitions.json#/definitions/io.k8s.api.core.v1.LimitRangeList"
    },
    {
      "$ref": "https://gitlab.cern.ch/jeedy-public/kubernetes-json-schemas/-/raw/master/v1.26.1/_definitions.json#/definitions/io.k8s.api.core.v1.LimitRangeSpec"
    },
    {
      "$ref": "https://gitlab.cern.ch/jeedy-public/kubernetes-json-schemas/-/raw/master/v1.26.1/_definitions.json#/definitions/io.k8s.api.core.v1.LoadBalancerIngress"
    },
    {
      "$ref": "https://gitlab.cern.ch/jeedy-public/kubernetes-json-schemas/-/raw/master/v1.26.1/_definitions.json#/definitions/io.k8s.api.core.v1.LoadBalancerStatus"
    },
    {
      "$ref": "https://gitlab.cern.ch/jeedy-public/kubernetes-json-schemas/-/raw/master/v1.26.1/_definitions.json#/definitions/io.k8s.api.core.v1.LocalObjectReference"
    },
    {
      "$ref": "https://gitlab.cern.ch/jeedy-public/kubernetes-json-schemas/-/raw/master/v1.26.1/_definitions.json#/definitions/io.k8s.api.core.v1.LocalVolumeSource"
    },
    {
      "$ref": "https://gitlab.cern.ch/jeedy-public/kubernetes-json-schemas/-/raw/master/v1.26.1/_definitions.json#/definitions/io.k8s.api.core.v1.NFSVolumeSource"
    },
    {
      "$ref": "https://gitlab.cern.ch/jeedy-public/kubernetes-json-schemas/-/raw/master/v1.26.1/_definitions.json#/definitions/io.k8s.api.core.v1.Namespace"
    },
    {
      "$ref": "https://gitlab.cern.ch/jeedy-public/kubernetes-json-schemas/-/raw/master/v1.26.1/_definitions.json#/definitions/io.k8s.api.core.v1.NamespaceCondition"
    },
    {
      "$ref": "https://gitlab.cern.ch/jeedy-public/kubernetes-json-schemas/-/raw/master/v1.26.1/_definitions.json#/definitions/io.k8s.api.core.v1.NamespaceList"
    },
    {
      "$ref": "https://gitlab.cern.ch/jeedy-public/kubernetes-json-schemas/-/raw/master/v1.26.1/_definitions.json#/definitions/io.k8s.api.core.v1.NamespaceSpec"
    },
    {
      "$ref": "https://gitlab.cern.ch/jeedy-public/kubernetes-json-schemas/-/raw/master/v1.26.1/_definitions.json#/definitions/io.k8s.api.core.v1.NamespaceStatus"
    },
    {
      "$ref": "https://gitlab.cern.ch/jeedy-public/kubernetes-json-schemas/-/raw/master/v1.26.1/_definitions.json#/definitions/io.k8s.api.core.v1.Node"
    },
    {
      "$ref": "https://gitlab.cern.ch/jeedy-public/kubernetes-json-schemas/-/raw/master/v1.26.1/_definitions.json#/definitions/io.k8s.api.core.v1.NodeAddress"
    },
    {
      "$ref": "https://gitlab.cern.ch/jeedy-public/kubernetes-json-schemas/-/raw/master/v1.26.1/_definitions.json#/definitions/io.k8s.api.core.v1.NodeAffinity"
    },
    {
      "$ref": "https://gitlab.cern.ch/jeedy-public/kubernetes-json-schemas/-/raw/master/v1.26.1/_definitions.json#/definitions/io.k8s.api.core.v1.NodeCondition"
    },
    {
      "$ref": "https://gitlab.cern.ch/jeedy-public/kubernetes-json-schemas/-/raw/master/v1.26.1/_definitions.json#/definitions/io.k8s.api.core.v1.NodeConfigSource"
    },
    {
      "$ref": "https://gitlab.cern.ch/jeedy-public/kubernetes-json-schemas/-/raw/master/v1.26.1/_definitions.json#/definitions/io.k8s.api.core.v1.NodeConfigStatus"
    },
    {
      "$ref": "https://gitlab.cern.ch/jeedy-public/kubernetes-json-schemas/-/raw/master/v1.26.1/_definitions.json#/definitions/io.k8s.api.core.v1.NodeDaemonEndpoints"
    },
    {
      "$ref": "https://gitlab.cern.ch/jeedy-public/kubernetes-json-schemas/-/raw/master/v1.26.1/_definitions.json#/definitions/io.k8s.api.core.v1.NodeList"
    },
    {
      "$ref": "https://gitlab.cern.ch/jeedy-public/kubernetes-json-schemas/-/raw/master/v1.26.1/_definitions.json#/definitions/io.k8s.api.core.v1.NodeSelector"
    },
    {
      "$ref": "https://gitlab.cern.ch/jeedy-public/kubernetes-json-schemas/-/raw/master/v1.26.1/_definitions.json#/definitions/io.k8s.api.core.v1.NodeSelectorRequirement"
    },
    {
      "$ref": "https://gitlab.cern.ch/jeedy-public/kubernetes-json-schemas/-/raw/master/v1.26.1/_definitions.json#/definitions/io.k8s.api.core.v1.NodeSelectorTerm"
    },
    {
      "$ref": "https://gitlab.cern.ch/jeedy-public/kubernetes-json-schemas/-/raw/master/v1.26.1/_definitions.json#/definitions/io.k8s.api.core.v1.NodeSpec"
    },
    {
      "$ref": "https://gitlab.cern.ch/jeedy-public/kubernetes-json-schemas/-/raw/master/v1.26.1/_definitions.json#/definitions/io.k8s.api.core.v1.NodeStatus"
    },
    {
      "$ref": "https://gitlab.cern.ch/jeedy-public/kubernetes-json-schemas/-/raw/master/v1.26.1/_definitions.json#/definitions/io.k8s.api.core.v1.NodeSystemInfo"
    },
    {
      "$ref": "https://gitlab.cern.ch/jeedy-public/kubernetes-json-schemas/-/raw/master/v1.26.1/_definitions.json#/definitions/io.k8s.api.core.v1.ObjectFieldSelector"
    },
    {
      "$ref": "https://gitlab.cern.ch/jeedy-public/kubernetes-json-schemas/-/raw/master/v1.26.1/_definitions.json#/definitions/io.k8s.api.core.v1.ObjectReference"
    },
    {
      "$ref": "https://gitlab.cern.ch/jeedy-public/kubernetes-json-schemas/-/raw/master/v1.26.1/_definitions.json#/definitions/io.k8s.api.core.v1.PersistentVolume"
    },
    {
      "$ref": "https://gitlab.cern.ch/jeedy-public/kubernetes-json-schemas/-/raw/master/v1.26.1/_definitions.json#/definitions/io.k8s.api.core.v1.PersistentVolumeClaim"
    },
    {
      "$ref": "https://gitlab.cern.ch/jeedy-public/kubernetes-json-schemas/-/raw/master/v1.26.1/_definitions.json#/definitions/io.k8s.api.core.v1.PersistentVolumeClaimCondition"
    },
    {
      "$ref": "https://gitlab.cern.ch/jeedy-public/kubernetes-json-schemas/-/raw/master/v1.26.1/_definitions.json#/definitions/io.k8s.api.core.v1.PersistentVolumeClaimList"
    },
    {
      "$ref": "https://gitlab.cern.ch/jeedy-public/kubernetes-json-schemas/-/raw/master/v1.26.1/_definitions.json#/definitions/io.k8s.api.core.v1.PersistentVolumeClaimSpec"
    },
    {
      "$ref": "https://gitlab.cern.ch/jeedy-public/kubernetes-json-schemas/-/raw/master/v1.26.1/_definitions.json#/definitions/io.k8s.api.core.v1.PersistentVolumeClaimStatus"
    },
    {
      "$ref": "https://gitlab.cern.ch/jeedy-public/kubernetes-json-schemas/-/raw/master/v1.26.1/_definitions.json#/definitions/io.k8s.api.core.v1.PersistentVolumeClaimTemplate"
    },
    {
      "$ref": "https://gitlab.cern.ch/jeedy-public/kubernetes-json-schemas/-/raw/master/v1.26.1/_definitions.json#/definitions/io.k8s.api.core.v1.PersistentVolumeClaimVolumeSource"
    },
    {
      "$ref": "https://gitlab.cern.ch/jeedy-public/kubernetes-json-schemas/-/raw/master/v1.26.1/_definitions.json#/definitions/io.k8s.api.core.v1.PersistentVolumeList"
    },
    {
      "$ref": "https://gitlab.cern.ch/jeedy-public/kubernetes-json-schemas/-/raw/master/v1.26.1/_definitions.json#/definitions/io.k8s.api.core.v1.PersistentVolumeSpec"
    },
    {
      "$ref": "https://gitlab.cern.ch/jeedy-public/kubernetes-json-schemas/-/raw/master/v1.26.1/_definitions.json#/definitions/io.k8s.api.core.v1.PersistentVolumeStatus"
    },
    {
      "$ref": "https://gitlab.cern.ch/jeedy-public/kubernetes-json-schemas/-/raw/master/v1.26.1/_definitions.json#/definitions/io.k8s.api.core.v1.PhotonPersistentDiskVolumeSource"
    },
    {
      "$ref": "https://gitlab.cern.ch/jeedy-public/kubernetes-json-schemas/-/raw/master/v1.26.1/_definitions.json#/definitions/io.k8s.api.core.v1.Pod"
    },
    {
      "$ref": "https://gitlab.cern.ch/jeedy-public/kubernetes-json-schemas/-/raw/master/v1.26.1/_definitions.json#/definitions/io.k8s.api.core.v1.PodAffinity"
    },
    {
      "$ref": "https://gitlab.cern.ch/jeedy-public/kubernetes-json-schemas/-/raw/master/v1.26.1/_definitions.json#/definitions/io.k8s.api.core.v1.PodAffinityTerm"
    },
    {
      "$ref": "https://gitlab.cern.ch/jeedy-public/kubernetes-json-schemas/-/raw/master/v1.26.1/_definitions.json#/definitions/io.k8s.api.core.v1.PodAntiAffinity"
    },
    {
      "$ref": "https://gitlab.cern.ch/jeedy-public/kubernetes-json-schemas/-/raw/master/v1.26.1/_definitions.json#/definitions/io.k8s.api.core.v1.PodCondition"
    },
    {
      "$ref": "https://gitlab.cern.ch/jeedy-public/kubernetes-json-schemas/-/raw/master/v1.26.1/_definitions.json#/definitions/io.k8s.api.core.v1.PodDNSConfig"
    },
    {
      "$ref": "https://gitlab.cern.ch/jeedy-public/kubernetes-json-schemas/-/raw/master/v1.26.1/_definitions.json#/definitions/io.k8s.api.core.v1.PodDNSConfigOption"
    },
    {
      "$ref": "https://gitlab.cern.ch/jeedy-public/kubernetes-json-schemas/-/raw/master/v1.26.1/_definitions.json#/definitions/io.k8s.api.core.v1.PodIP"
    },
    {
      "$ref": "https://gitlab.cern.ch/jeedy-public/kubernetes-json-schemas/-/raw/master/v1.26.1/_definitions.json#/definitions/io.k8s.api.core.v1.PodList"
    },
    {
      "$ref": "https://gitlab.cern.ch/jeedy-public/kubernetes-json-schemas/-/raw/master/v1.26.1/_definitions.json#/definitions/io.k8s.api.core.v1.PodOS"
    },
    {
      "$ref": "https://gitlab.cern.ch/jeedy-public/kubernetes-json-schemas/-/raw/master/v1.26.1/_definitions.json#/definitions/io.k8s.api.core.v1.PodReadinessGate"
    },
    {
      "$ref": "https://gitlab.cern.ch/jeedy-public/kubernetes-json-schemas/-/raw/master/v1.26.1/_definitions.json#/definitions/io.k8s.api.core.v1.PodResourceClaim"
    },
    {
      "$ref": "https://gitlab.cern.ch/jeedy-public/kubernetes-json-schemas/-/raw/master/v1.26.1/_definitions.json#/definitions/io.k8s.api.core.v1.PodSchedulingGate"
    },
    {
      "$ref": "https://gitlab.cern.ch/jeedy-public/kubernetes-json-schemas/-/raw/master/v1.26.1/_definitions.json#/definitions/io.k8s.api.core.v1.PodSecurityContext"
    },
    {
      "$ref": "https://gitlab.cern.ch/jeedy-public/kubernetes-json-schemas/-/raw/master/v1.26.1/_definitions.json#/definitions/io.k8s.api.core.v1.PodSpec"
    },
    {
      "$ref": "https://gitlab.cern.ch/jeedy-public/kubernetes-json-schemas/-/raw/master/v1.26.1/_definitions.json#/definitions/io.k8s.api.core.v1.PodStatus"
    },
    {
      "$ref": "https://gitlab.cern.ch/jeedy-public/kubernetes-json-schemas/-/raw/master/v1.26.1/_definitions.json#/definitions/io.k8s.api.core.v1.PodTemplate"
    },
    {
      "$ref": "https://gitlab.cern.ch/jeedy-public/kubernetes-json-schemas/-/raw/master/v1.26.1/_definitions.json#/definitions/io.k8s.api.core.v1.PodTemplateList"
    },
    {
      "$ref": "https://gitlab.cern.ch/jeedy-public/kubernetes-json-schemas/-/raw/master/v1.26.1/_definitions.json#/definitions/io.k8s.api.core.v1.PodTemplateSpec"
    },
    {
      "$ref": "https://gitlab.cern.ch/jeedy-public/kubernetes-json-schemas/-/raw/master/v1.26.1/_definitions.json#/definitions/io.k8s.api.core.v1.PortStatus"
    },
    {
      "$ref": "https://gitlab.cern.ch/jeedy-public/kubernetes-json-schemas/-/raw/master/v1.26.1/_definitions.json#/definitions/io.k8s.api.core.v1.PortworxVolumeSource"
    },
    {
      "$ref": "https://gitlab.cern.ch/jeedy-public/kubernetes-json-schemas/-/raw/master/v1.26.1/_definitions.json#/definitions/io.k8s.api.core.v1.PreferredSchedulingTerm"
    },
    {
      "$ref": "https://gitlab.cern.ch/jeedy-public/kubernetes-json-schemas/-/raw/master/v1.26.1/_definitions.json#/definitions/io.k8s.api.core.v1.Probe"
    },
    {
      "$ref": "https://gitlab.cern.ch/jeedy-public/kubernetes-json-schemas/-/raw/master/v1.26.1/_definitions.json#/definitions/io.k8s.api.core.v1.ProjectedVolumeSource"
    },
    {
      "$ref": "https://gitlab.cern.ch/jeedy-public/kubernetes-json-schemas/-/raw/master/v1.26.1/_definitions.json#/definitions/io.k8s.api.core.v1.QuobyteVolumeSource"
    },
    {
      "$ref": "https://gitlab.cern.ch/jeedy-public/kubernetes-json-schemas/-/raw/master/v1.26.1/_definitions.json#/definitions/io.k8s.api.core.v1.RBDPersistentVolumeSource"
    },
    {
      "$ref": "https://gitlab.cern.ch/jeedy-public/kubernetes-json-schemas/-/raw/master/v1.26.1/_definitions.json#/definitions/io.k8s.api.core.v1.RBDVolumeSource"
    },
    {
      "$ref": "https://gitlab.cern.ch/jeedy-public/kubernetes-json-schemas/-/raw/master/v1.26.1/_definitions.json#/definitions/io.k8s.api.core.v1.ReplicationController"
    },
    {
      "$ref": "https://gitlab.cern.ch/jeedy-public/kubernetes-json-schemas/-/raw/master/v1.26.1/_definitions.json#/definitions/io.k8s.api.core.v1.ReplicationControllerCondition"
    },
    {
      "$ref": "https://gitlab.cern.ch/jeedy-public/kubernetes-json-schemas/-/raw/master/v1.26.1/_definitions.json#/definitions/io.k8s.api.core.v1.ReplicationControllerList"
    },
    {
      "$ref": "https://gitlab.cern.ch/jeedy-public/kubernetes-json-schemas/-/raw/master/v1.26.1/_definitions.json#/definitions/io.k8s.api.core.v1.ReplicationControllerSpec"
    },
    {
      "$ref": "https://gitlab.cern.ch/jeedy-public/kubernetes-json-schemas/-/raw/master/v1.26.1/_definitions.json#/definitions/io.k8s.api.core.v1.ReplicationControllerStatus"
    },
    {
      "$ref": "https://gitlab.cern.ch/jeedy-public/kubernetes-json-schemas/-/raw/master/v1.26.1/_definitions.json#/definitions/io.k8s.api.core.v1.ResourceClaim"
    },
    {
      "$ref": "https://gitlab.cern.ch/jeedy-public/kubernetes-json-schemas/-/raw/master/v1.26.1/_definitions.json#/definitions/io.k8s.api.core.v1.ResourceFieldSelector"
    },
    {
      "$ref": "https://gitlab.cern.ch/jeedy-public/kubernetes-json-schemas/-/raw/master/v1.26.1/_definitions.json#/definitions/io.k8s.api.core.v1.ResourceQuota"
    },
    {
      "$ref": "https://gitlab.cern.ch/jeedy-public/kubernetes-json-schemas/-/raw/master/v1.26.1/_definitions.json#/definitions/io.k8s.api.core.v1.ResourceQuotaList"
    },
    {
      "$ref": "https://gitlab.cern.ch/jeedy-public/kubernetes-json-schemas/-/raw/master/v1.26.1/_definitions.json#/definitions/io.k8s.api.core.v1.ResourceQuotaSpec"
    },
    {
      "$ref": "https://gitlab.cern.ch/jeedy-public/kubernetes-json-schemas/-/raw/master/v1.26.1/_definitions.json#/definitions/io.k8s.api.core.v1.ResourceQuotaStatus"
    },
    {
      "$ref": "https://gitlab.cern.ch/jeedy-public/kubernetes-json-schemas/-/raw/master/v1.26.1/_definitions.json#/definitions/io.k8s.api.core.v1.ResourceRequirements"
    },
    {
      "$ref": "https://gitlab.cern.ch/jeedy-public/kubernetes-json-schemas/-/raw/master/v1.26.1/_definitions.json#/definitions/io.k8s.api.core.v1.SELinuxOptions"
    },
    {
      "$ref": "https://gitlab.cern.ch/jeedy-public/kubernetes-json-schemas/-/raw/master/v1.26.1/_definitions.json#/definitions/io.k8s.api.core.v1.ScaleIOPersistentVolumeSource"
    },
    {
      "$ref": "https://gitlab.cern.ch/jeedy-public/kubernetes-json-schemas/-/raw/master/v1.26.1/_definitions.json#/definitions/io.k8s.api.core.v1.ScaleIOVolumeSource"
    },
    {
      "$ref": "https://gitlab.cern.ch/jeedy-public/kubernetes-json-schemas/-/raw/master/v1.26.1/_definitions.json#/definitions/io.k8s.api.core.v1.ScopeSelector"
    },
    {
      "$ref": "https://gitlab.cern.ch/jeedy-public/kubernetes-json-schemas/-/raw/master/v1.26.1/_definitions.json#/definitions/io.k8s.api.core.v1.ScopedResourceSelectorRequirement"
    },
    {
      "$ref": "https://gitlab.cern.ch/jeedy-public/kubernetes-json-schemas/-/raw/master/v1.26.1/_definitions.json#/definitions/io.k8s.api.core.v1.SeccompProfile"
    },
    {
      "$ref": "https://gitlab.cern.ch/jeedy-public/kubernetes-json-schemas/-/raw/master/v1.26.1/_definitions.json#/definitions/io.k8s.api.core.v1.Secret"
    },
    {
      "$ref": "https://gitlab.cern.ch/jeedy-public/kubernetes-json-schemas/-/raw/master/v1.26.1/_definitions.json#/definitions/io.k8s.api.core.v1.SecretEnvSource"
    },
    {
      "$ref": "https://gitlab.cern.ch/jeedy-public/kubernetes-json-schemas/-/raw/master/v1.26.1/_definitions.json#/definitions/io.k8s.api.core.v1.SecretKeySelector"
    },
    {
      "$ref": "https://gitlab.cern.ch/jeedy-public/kubernetes-json-schemas/-/raw/master/v1.26.1/_definitions.json#/definitions/io.k8s.api.core.v1.SecretList"
    },
    {
      "$ref": "https://gitlab.cern.ch/jeedy-public/kubernetes-json-schemas/-/raw/master/v1.26.1/_definitions.json#/definitions/io.k8s.api.core.v1.SecretProjection"
    },
    {
      "$ref": "https://gitlab.cern.ch/jeedy-public/kubernetes-json-schemas/-/raw/master/v1.26.1/_definitions.json#/definitions/io.k8s.api.core.v1.SecretReference"
    },
    {
      "$ref": "https://gitlab.cern.ch/jeedy-public/kubernetes-json-schemas/-/raw/master/v1.26.1/_definitions.json#/definitions/io.k8s.api.core.v1.SecretVolumeSource"
    },
    {
      "$ref": "https://gitlab.cern.ch/jeedy-public/kubernetes-json-schemas/-/raw/master/v1.26.1/_definitions.json#/definitions/io.k8s.api.core.v1.SecurityContext"
    },
    {
      "$ref": "https://gitlab.cern.ch/jeedy-public/kubernetes-json-schemas/-/raw/master/v1.26.1/_definitions.json#/definitions/io.k8s.api.core.v1.Service"
    },
    {
      "$ref": "https://gitlab.cern.ch/jeedy-public/kubernetes-json-schemas/-/raw/master/v1.26.1/_definitions.json#/definitions/io.k8s.api.core.v1.ServiceAccount"
    },
    {
      "$ref": "https://gitlab.cern.ch/jeedy-public/kubernetes-json-schemas/-/raw/master/v1.26.1/_definitions.json#/definitions/io.k8s.api.core.v1.ServiceAccountList"
    },
    {
      "$ref": "https://gitlab.cern.ch/jeedy-public/kubernetes-json-schemas/-/raw/master/v1.26.1/_definitions.json#/definitions/io.k8s.api.core.v1.ServiceAccountTokenProjection"
    },
    {
      "$ref": "https://gitlab.cern.ch/jeedy-public/kubernetes-json-schemas/-/raw/master/v1.26.1/_definitions.json#/definitions/io.k8s.api.core.v1.ServiceList"
    },
    {
      "$ref": "https://gitlab.cern.ch/jeedy-public/kubernetes-json-schemas/-/raw/master/v1.26.1/_definitions.json#/definitions/io.k8s.api.core.v1.ServicePort"
    },
    {
      "$ref": "https://gitlab.cern.ch/jeedy-public/kubernetes-json-schemas/-/raw/master/v1.26.1/_definitions.json#/definitions/io.k8s.api.core.v1.ServiceSpec"
    },
    {
      "$ref": "https://gitlab.cern.ch/jeedy-public/kubernetes-json-schemas/-/raw/master/v1.26.1/_definitions.json#/definitions/io.k8s.api.core.v1.ServiceStatus"
    },
    {
      "$ref": "https://gitlab.cern.ch/jeedy-public/kubernetes-json-schemas/-/raw/master/v1.26.1/_definitions.json#/definitions/io.k8s.api.core.v1.SessionAffinityConfig"
    },
    {
      "$ref": "https://gitlab.cern.ch/jeedy-public/kubernetes-json-schemas/-/raw/master/v1.26.1/_definitions.json#/definitions/io.k8s.api.core.v1.StorageOSPersistentVolumeSource"
    },
    {
      "$ref": "https://gitlab.cern.ch/jeedy-public/kubernetes-json-schemas/-/raw/master/v1.26.1/_definitions.json#/definitions/io.k8s.api.core.v1.StorageOSVolumeSource"
    },
    {
      "$ref": "https://gitlab.cern.ch/jeedy-public/kubernetes-json-schemas/-/raw/master/v1.26.1/_definitions.json#/definitions/io.k8s.api.core.v1.Sysctl"
    },
    {
      "$ref": "https://gitlab.cern.ch/jeedy-public/kubernetes-json-schemas/-/raw/master/v1.26.1/_definitions.json#/definitions/io.k8s.api.core.v1.TCPSocketAction"
    },
    {
      "$ref": "https://gitlab.cern.ch/jeedy-public/kubernetes-json-schemas/-/raw/master/v1.26.1/_definitions.json#/definitions/io.k8s.api.core.v1.Taint"
    },
    {
      "$ref": "https://gitlab.cern.ch/jeedy-public/kubernetes-json-schemas/-/raw/master/v1.26.1/_definitions.json#/definitions/io.k8s.api.core.v1.Toleration"
    },
    {
      "$ref": "https://gitlab.cern.ch/jeedy-public/kubernetes-json-schemas/-/raw/master/v1.26.1/_definitions.json#/definitions/io.k8s.api.core.v1.TopologySelectorLabelRequirement"
    },
    {
      "$ref": "https://gitlab.cern.ch/jeedy-public/kubernetes-json-schemas/-/raw/master/v1.26.1/_definitions.json#/definitions/io.k8s.api.core.v1.TopologySelectorTerm"
    },
    {
      "$ref": "https://gitlab.cern.ch/jeedy-public/kubernetes-json-schemas/-/raw/master/v1.26.1/_definitions.json#/definitions/io.k8s.api.core.v1.TopologySpreadConstraint"
    },
    {
      "$ref": "https://gitlab.cern.ch/jeedy-public/kubernetes-json-schemas/-/raw/master/v1.26.1/_definitions.json#/definitions/io.k8s.api.core.v1.TypedLocalObjectReference"
    },
    {
      "$ref": "https://gitlab.cern.ch/jeedy-public/kubernetes-json-schemas/-/raw/master/v1.26.1/_definitions.json#/definitions/io.k8s.api.core.v1.TypedObjectReference"
    },
    {
      "$ref": "https://gitlab.cern.ch/jeedy-public/kubernetes-json-schemas/-/raw/master/v1.26.1/_definitions.json#/definitions/io.k8s.api.core.v1.Volume"
    },
    {
      "$ref": "https://gitlab.cern.ch/jeedy-public/kubernetes-json-schemas/-/raw/master/v1.26.1/_definitions.json#/definitions/io.k8s.api.core.v1.VolumeDevice"
    },
    {
      "$ref": "https://gitlab.cern.ch/jeedy-public/kubernetes-json-schemas/-/raw/master/v1.26.1/_definitions.json#/definitions/io.k8s.api.core.v1.VolumeMount"
    },
    {
      "$ref": "https://gitlab.cern.ch/jeedy-public/kubernetes-json-schemas/-/raw/master/v1.26.1/_definitions.json#/definitions/io.k8s.api.core.v1.VolumeNodeAffinity"
    },
    {
      "$ref": "https://gitlab.cern.ch/jeedy-public/kubernetes-json-schemas/-/raw/master/v1.26.1/_definitions.json#/definitions/io.k8s.api.core.v1.VolumeProjection"
    },
    {
      "$ref": "https://gitlab.cern.ch/jeedy-public/kubernetes-json-schemas/-/raw/master/v1.26.1/_definitions.json#/definitions/io.k8s.api.core.v1.VsphereVirtualDiskVolumeSource"
    },
    {
      "$ref": "https://gitlab.cern.ch/jeedy-public/kubernetes-json-schemas/-/raw/master/v1.26.1/_definitions.json#/definitions/io.k8s.api.core.v1.WeightedPodAffinityTerm"
    },
    {
      "$ref": "https://gitlab.cern.ch/jeedy-public/kubernetes-json-schemas/-/raw/master/v1.26.1/_definitions.json#/definitions/io.k8s.api.core.v1.WindowsSecurityContextOptions"
    },
    {
      "$ref": "https://gitlab.cern.ch/jeedy-public/kubernetes-json-schemas/-/raw/master/v1.26.1/_definitions.json#/definitions/io.k8s.api.discovery.v1.Endpoint"
    },
    {
      "$ref": "https://gitlab.cern.ch/jeedy-public/kubernetes-json-schemas/-/raw/master/v1.26.1/_definitions.json#/definitions/io.k8s.api.discovery.v1.EndpointConditions"
    },
    {
      "$ref": "https://gitlab.cern.ch/jeedy-public/kubernetes-json-schemas/-/raw/master/v1.26.1/_definitions.json#/definitions/io.k8s.api.discovery.v1.EndpointHints"
    },
    {
      "$ref": "https://gitlab.cern.ch/jeedy-public/kubernetes-json-schemas/-/raw/master/v1.26.1/_definitions.json#/definitions/io.k8s.api.discovery.v1.EndpointPort"
    },
    {
      "$ref": "https://gitlab.cern.ch/jeedy-public/kubernetes-json-schemas/-/raw/master/v1.26.1/_definitions.json#/definitions/io.k8s.api.discovery.v1.EndpointSlice"
    },
    {
      "$ref": "https://gitlab.cern.ch/jeedy-public/kubernetes-json-schemas/-/raw/master/v1.26.1/_definitions.json#/definitions/io.k8s.api.discovery.v1.EndpointSliceList"
    },
    {
      "$ref": "https://gitlab.cern.ch/jeedy-public/kubernetes-json-schemas/-/raw/master/v1.26.1/_definitions.json#/definitions/io.k8s.api.discovery.v1.ForZone"
    },
    {
      "$ref": "https://gitlab.cern.ch/jeedy-public/kubernetes-json-schemas/-/raw/master/v1.26.1/_definitions.json#/definitions/io.k8s.api.events.v1.Event"
    },
    {
      "$ref": "https://gitlab.cern.ch/jeedy-public/kubernetes-json-schemas/-/raw/master/v1.26.1/_definitions.json#/definitions/io.k8s.api.events.v1.EventList"
    },
    {
      "$ref": "https://gitlab.cern.ch/jeedy-public/kubernetes-json-schemas/-/raw/master/v1.26.1/_definitions.json#/definitions/io.k8s.api.events.v1.EventSeries"
    },
    {
      "$ref": "https://gitlab.cern.ch/jeedy-public/kubernetes-json-schemas/-/raw/master/v1.26.1/_definitions.json#/definitions/io.k8s.api.flowcontrol.v1beta2.FlowDistinguisherMethod"
    },
    {
      "$ref": "https://gitlab.cern.ch/jeedy-public/kubernetes-json-schemas/-/raw/master/v1.26.1/_definitions.json#/definitions/io.k8s.api.flowcontrol.v1beta2.FlowSchema"
    },
    {
      "$ref": "https://gitlab.cern.ch/jeedy-public/kubernetes-json-schemas/-/raw/master/v1.26.1/_definitions.json#/definitions/io.k8s.api.flowcontrol.v1beta2.FlowSchemaCondition"
    },
    {
      "$ref": "https://gitlab.cern.ch/jeedy-public/kubernetes-json-schemas/-/raw/master/v1.26.1/_definitions.json#/definitions/io.k8s.api.flowcontrol.v1beta2.FlowSchemaList"
    },
    {
      "$ref": "https://gitlab.cern.ch/jeedy-public/kubernetes-json-schemas/-/raw/master/v1.26.1/_definitions.json#/definitions/io.k8s.api.flowcontrol.v1beta2.FlowSchemaSpec"
    },
    {
      "$ref": "https://gitlab.cern.ch/jeedy-public/kubernetes-json-schemas/-/raw/master/v1.26.1/_definitions.json#/definitions/io.k8s.api.flowcontrol.v1beta2.FlowSchemaStatus"
    },
    {
      "$ref": "https://gitlab.cern.ch/jeedy-public/kubernetes-json-schemas/-/raw/master/v1.26.1/_definitions.json#/definitions/io.k8s.api.flowcontrol.v1beta2.GroupSubject"
    },
    {
      "$ref": "https://gitlab.cern.ch/jeedy-public/kubernetes-json-schemas/-/raw/master/v1.26.1/_definitions.json#/definitions/io.k8s.api.flowcontrol.v1beta2.LimitResponse"
    },
    {
      "$ref": "https://gitlab.cern.ch/jeedy-public/kubernetes-json-schemas/-/raw/master/v1.26.1/_definitions.json#/definitions/io.k8s.api.flowcontrol.v1beta2.LimitedPriorityLevelConfiguration"
    },
    {
      "$ref": "https://gitlab.cern.ch/jeedy-public/kubernetes-json-schemas/-/raw/master/v1.26.1/_definitions.json#/definitions/io.k8s.api.flowcontrol.v1beta2.NonResourcePolicyRule"
    },
    {
      "$ref": "https://gitlab.cern.ch/jeedy-public/kubernetes-json-schemas/-/raw/master/v1.26.1/_definitions.json#/definitions/io.k8s.api.flowcontrol.v1beta2.PolicyRulesWithSubjects"
    },
    {
      "$ref": "https://gitlab.cern.ch/jeedy-public/kubernetes-json-schemas/-/raw/master/v1.26.1/_definitions.json#/definitions/io.k8s.api.flowcontrol.v1beta2.PriorityLevelConfiguration"
    },
    {
      "$ref": "https://gitlab.cern.ch/jeedy-public/kubernetes-json-schemas/-/raw/master/v1.26.1/_definitions.json#/definitions/io.k8s.api.flowcontrol.v1beta2.PriorityLevelConfigurationCondition"
    },
    {
      "$ref": "https://gitlab.cern.ch/jeedy-public/kubernetes-json-schemas/-/raw/master/v1.26.1/_definitions.json#/definitions/io.k8s.api.flowcontrol.v1beta2.PriorityLevelConfigurationList"
    },
    {
      "$ref": "https://gitlab.cern.ch/jeedy-public/kubernetes-json-schemas/-/raw/master/v1.26.1/_definitions.json#/definitions/io.k8s.api.flowcontrol.v1beta2.PriorityLevelConfigurationReference"
    },
    {
      "$ref": "https://gitlab.cern.ch/jeedy-public/kubernetes-json-schemas/-/raw/master/v1.26.1/_definitions.json#/definitions/io.k8s.api.flowcontrol.v1beta2.PriorityLevelConfigurationSpec"
    },
    {
      "$ref": "https://gitlab.cern.ch/jeedy-public/kubernetes-json-schemas/-/raw/master/v1.26.1/_definitions.json#/definitions/io.k8s.api.flowcontrol.v1beta2.PriorityLevelConfigurationStatus"
    },
    {
      "$ref": "https://gitlab.cern.ch/jeedy-public/kubernetes-json-schemas/-/raw/master/v1.26.1/_definitions.json#/definitions/io.k8s.api.flowcontrol.v1beta2.QueuingConfiguration"
    },
    {
      "$ref": "https://gitlab.cern.ch/jeedy-public/kubernetes-json-schemas/-/raw/master/v1.26.1/_definitions.json#/definitions/io.k8s.api.flowcontrol.v1beta2.ResourcePolicyRule"
    },
    {
      "$ref": "https://gitlab.cern.ch/jeedy-public/kubernetes-json-schemas/-/raw/master/v1.26.1/_definitions.json#/definitions/io.k8s.api.flowcontrol.v1beta2.ServiceAccountSubject"
    },
    {
      "$ref": "https://gitlab.cern.ch/jeedy-public/kubernetes-json-schemas/-/raw/master/v1.26.1/_definitions.json#/definitions/io.k8s.api.flowcontrol.v1beta2.Subject"
    },
    {
      "$ref": "https://gitlab.cern.ch/jeedy-public/kubernetes-json-schemas/-/raw/master/v1.26.1/_definitions.json#/definitions/io.k8s.api.flowcontrol.v1beta2.UserSubject"
    },
    {
      "$ref": "https://gitlab.cern.ch/jeedy-public/kubernetes-json-schemas/-/raw/master/v1.26.1/_definitions.json#/definitions/io.k8s.api.flowcontrol.v1beta3.FlowDistinguisherMethod"
    },
    {
      "$ref": "https://gitlab.cern.ch/jeedy-public/kubernetes-json-schemas/-/raw/master/v1.26.1/_definitions.json#/definitions/io.k8s.api.flowcontrol.v1beta3.FlowSchema"
    },
    {
      "$ref": "https://gitlab.cern.ch/jeedy-public/kubernetes-json-schemas/-/raw/master/v1.26.1/_definitions.json#/definitions/io.k8s.api.flowcontrol.v1beta3.FlowSchemaCondition"
    },
    {
      "$ref": "https://gitlab.cern.ch/jeedy-public/kubernetes-json-schemas/-/raw/master/v1.26.1/_definitions.json#/definitions/io.k8s.api.flowcontrol.v1beta3.FlowSchemaList"
    },
    {
      "$ref": "https://gitlab.cern.ch/jeedy-public/kubernetes-json-schemas/-/raw/master/v1.26.1/_definitions.json#/definitions/io.k8s.api.flowcontrol.v1beta3.FlowSchemaSpec"
    },
    {
      "$ref": "https://gitlab.cern.ch/jeedy-public/kubernetes-json-schemas/-/raw/master/v1.26.1/_definitions.json#/definitions/io.k8s.api.flowcontrol.v1beta3.FlowSchemaStatus"
    },
    {
      "$ref": "https://gitlab.cern.ch/jeedy-public/kubernetes-json-schemas/-/raw/master/v1.26.1/_definitions.json#/definitions/io.k8s.api.flowcontrol.v1beta3.GroupSubject"
    },
    {
      "$ref": "https://gitlab.cern.ch/jeedy-public/kubernetes-json-schemas/-/raw/master/v1.26.1/_definitions.json#/definitions/io.k8s.api.flowcontrol.v1beta3.LimitResponse"
    },
    {
      "$ref": "https://gitlab.cern.ch/jeedy-public/kubernetes-json-schemas/-/raw/master/v1.26.1/_definitions.json#/definitions/io.k8s.api.flowcontrol.v1beta3.LimitedPriorityLevelConfiguration"
    },
    {
      "$ref": "https://gitlab.cern.ch/jeedy-public/kubernetes-json-schemas/-/raw/master/v1.26.1/_definitions.json#/definitions/io.k8s.api.flowcontrol.v1beta3.NonResourcePolicyRule"
    },
    {
      "$ref": "https://gitlab.cern.ch/jeedy-public/kubernetes-json-schemas/-/raw/master/v1.26.1/_definitions.json#/definitions/io.k8s.api.flowcontrol.v1beta3.PolicyRulesWithSubjects"
    },
    {
      "$ref": "https://gitlab.cern.ch/jeedy-public/kubernetes-json-schemas/-/raw/master/v1.26.1/_definitions.json#/definitions/io.k8s.api.flowcontrol.v1beta3.PriorityLevelConfiguration"
    },
    {
      "$ref": "https://gitlab.cern.ch/jeedy-public/kubernetes-json-schemas/-/raw/master/v1.26.1/_definitions.json#/definitions/io.k8s.api.flowcontrol.v1beta3.PriorityLevelConfigurationCondition"
    },
    {
      "$ref": "https://gitlab.cern.ch/jeedy-public/kubernetes-json-schemas/-/raw/master/v1.26.1/_definitions.json#/definitions/io.k8s.api.flowcontrol.v1beta3.PriorityLevelConfigurationList"
    },
    {
      "$ref": "https://gitlab.cern.ch/jeedy-public/kubernetes-json-schemas/-/raw/master/v1.26.1/_definitions.json#/definitions/io.k8s.api.flowcontrol.v1beta3.PriorityLevelConfigurationReference"
    },
    {
      "$ref": "https://gitlab.cern.ch/jeedy-public/kubernetes-json-schemas/-/raw/master/v1.26.1/_definitions.json#/definitions/io.k8s.api.flowcontrol.v1beta3.PriorityLevelConfigurationSpec"
    },
    {
      "$ref": "https://gitlab.cern.ch/jeedy-public/kubernetes-json-schemas/-/raw/master/v1.26.1/_definitions.json#/definitions/io.k8s.api.flowcontrol.v1beta3.PriorityLevelConfigurationStatus"
    },
    {
      "$ref": "https://gitlab.cern.ch/jeedy-public/kubernetes-json-schemas/-/raw/master/v1.26.1/_definitions.json#/definitions/io.k8s.api.flowcontrol.v1beta3.QueuingConfiguration"
    },
    {
      "$ref": "https://gitlab.cern.ch/jeedy-public/kubernetes-json-schemas/-/raw/master/v1.26.1/_definitions.json#/definitions/io.k8s.api.flowcontrol.v1beta3.ResourcePolicyRule"
    },
    {
      "$ref": "https://gitlab.cern.ch/jeedy-public/kubernetes-json-schemas/-/raw/master/v1.26.1/_definitions.json#/definitions/io.k8s.api.flowcontrol.v1beta3.ServiceAccountSubject"
    },
    {
      "$ref": "https://gitlab.cern.ch/jeedy-public/kubernetes-json-schemas/-/raw/master/v1.26.1/_definitions.json#/definitions/io.k8s.api.flowcontrol.v1beta3.Subject"
    },
    {
      "$ref": "https://gitlab.cern.ch/jeedy-public/kubernetes-json-schemas/-/raw/master/v1.26.1/_definitions.json#/definitions/io.k8s.api.flowcontrol.v1beta3.UserSubject"
    },
    {
      "$ref": "https://gitlab.cern.ch/jeedy-public/kubernetes-json-schemas/-/raw/master/v1.26.1/_definitions.json#/definitions/io.k8s.api.networking.v1.HTTPIngressPath"
    },
    {
      "$ref": "https://gitlab.cern.ch/jeedy-public/kubernetes-json-schemas/-/raw/master/v1.26.1/_definitions.json#/definitions/io.k8s.api.networking.v1.HTTPIngressRuleValue"
    },
    {
      "$ref": "https://gitlab.cern.ch/jeedy-public/kubernetes-json-schemas/-/raw/master/v1.26.1/_definitions.json#/definitions/io.k8s.api.networking.v1.IPBlock"
    },
    {
      "$ref": "https://gitlab.cern.ch/jeedy-public/kubernetes-json-schemas/-/raw/master/v1.26.1/_definitions.json#/definitions/io.k8s.api.networking.v1.Ingress"
    },
    {
      "$ref": "https://gitlab.cern.ch/jeedy-public/kubernetes-json-schemas/-/raw/master/v1.26.1/_definitions.json#/definitions/io.k8s.api.networking.v1.IngressBackend"
    },
    {
      "$ref": "https://gitlab.cern.ch/jeedy-public/kubernetes-json-schemas/-/raw/master/v1.26.1/_definitions.json#/definitions/io.k8s.api.networking.v1.IngressClass"
    },
    {
      "$ref": "https://gitlab.cern.ch/jeedy-public/kubernetes-json-schemas/-/raw/master/v1.26.1/_definitions.json#/definitions/io.k8s.api.networking.v1.IngressClassList"
    },
    {
      "$ref": "https://gitlab.cern.ch/jeedy-public/kubernetes-json-schemas/-/raw/master/v1.26.1/_definitions.json#/definitions/io.k8s.api.networking.v1.IngressClassParametersReference"
    },
    {
      "$ref": "https://gitlab.cern.ch/jeedy-public/kubernetes-json-schemas/-/raw/master/v1.26.1/_definitions.json#/definitions/io.k8s.api.networking.v1.IngressClassSpec"
    },
    {
      "$ref": "https://gitlab.cern.ch/jeedy-public/kubernetes-json-schemas/-/raw/master/v1.26.1/_definitions.json#/definitions/io.k8s.api.networking.v1.IngressList"
    },
    {
      "$ref": "https://gitlab.cern.ch/jeedy-public/kubernetes-json-schemas/-/raw/master/v1.26.1/_definitions.json#/definitions/io.k8s.api.networking.v1.IngressLoadBalancerIngress"
    },
    {
      "$ref": "https://gitlab.cern.ch/jeedy-public/kubernetes-json-schemas/-/raw/master/v1.26.1/_definitions.json#/definitions/io.k8s.api.networking.v1.IngressLoadBalancerStatus"
    },
    {
      "$ref": "https://gitlab.cern.ch/jeedy-public/kubernetes-json-schemas/-/raw/master/v1.26.1/_definitions.json#/definitions/io.k8s.api.networking.v1.IngressPortStatus"
    },
    {
      "$ref": "https://gitlab.cern.ch/jeedy-public/kubernetes-json-schemas/-/raw/master/v1.26.1/_definitions.json#/definitions/io.k8s.api.networking.v1.IngressRule"
    },
    {
      "$ref": "https://gitlab.cern.ch/jeedy-public/kubernetes-json-schemas/-/raw/master/v1.26.1/_definitions.json#/definitions/io.k8s.api.networking.v1.IngressServiceBackend"
    },
    {
      "$ref": "https://gitlab.cern.ch/jeedy-public/kubernetes-json-schemas/-/raw/master/v1.26.1/_definitions.json#/definitions/io.k8s.api.networking.v1.IngressSpec"
    },
    {
      "$ref": "https://gitlab.cern.ch/jeedy-public/kubernetes-json-schemas/-/raw/master/v1.26.1/_definitions.json#/definitions/io.k8s.api.networking.v1.IngressStatus"
    },
    {
      "$ref": "https://gitlab.cern.ch/jeedy-public/kubernetes-json-schemas/-/raw/master/v1.26.1/_definitions.json#/definitions/io.k8s.api.networking.v1.IngressTLS"
    },
    {
      "$ref": "https://gitlab.cern.ch/jeedy-public/kubernetes-json-schemas/-/raw/master/v1.26.1/_definitions.json#/definitions/io.k8s.api.networking.v1.NetworkPolicy"
    },
    {
      "$ref": "https://gitlab.cern.ch/jeedy-public/kubernetes-json-schemas/-/raw/master/v1.26.1/_definitions.json#/definitions/io.k8s.api.networking.v1.NetworkPolicyEgressRule"
    },
    {
      "$ref": "https://gitlab.cern.ch/jeedy-public/kubernetes-json-schemas/-/raw/master/v1.26.1/_definitions.json#/definitions/io.k8s.api.networking.v1.NetworkPolicyIngressRule"
    },
    {
      "$ref": "https://gitlab.cern.ch/jeedy-public/kubernetes-json-schemas/-/raw/master/v1.26.1/_definitions.json#/definitions/io.k8s.api.networking.v1.NetworkPolicyList"
    },
    {
      "$ref": "https://gitlab.cern.ch/jeedy-public/kubernetes-json-schemas/-/raw/master/v1.26.1/_definitions.json#/definitions/io.k8s.api.networking.v1.NetworkPolicyPeer"
    },
    {
      "$ref": "https://gitlab.cern.ch/jeedy-public/kubernetes-json-schemas/-/raw/master/v1.26.1/_definitions.json#/definitions/io.k8s.api.networking.v1.NetworkPolicyPort"
    },
    {
      "$ref": "https://gitlab.cern.ch/jeedy-public/kubernetes-json-schemas/-/raw/master/v1.26.1/_definitions.json#/definitions/io.k8s.api.networking.v1.NetworkPolicySpec"
    },
    {
      "$ref": "https://gitlab.cern.ch/jeedy-public/kubernetes-json-schemas/-/raw/master/v1.26.1/_definitions.json#/definitions/io.k8s.api.networking.v1.NetworkPolicyStatus"
    },
    {
      "$ref": "https://gitlab.cern.ch/jeedy-public/kubernetes-json-schemas/-/raw/master/v1.26.1/_definitions.json#/definitions/io.k8s.api.networking.v1.ServiceBackendPort"
    },
    {
      "$ref": "https://gitlab.cern.ch/jeedy-public/kubernetes-json-schemas/-/raw/master/v1.26.1/_definitions.json#/definitions/io.k8s.api.networking.v1alpha1.ClusterCIDR"
    },
    {
      "$ref": "https://gitlab.cern.ch/jeedy-public/kubernetes-json-schemas/-/raw/master/v1.26.1/_definitions.json#/definitions/io.k8s.api.networking.v1alpha1.ClusterCIDRList"
    },
    {
      "$ref": "https://gitlab.cern.ch/jeedy-public/kubernetes-json-schemas/-/raw/master/v1.26.1/_definitions.json#/definitions/io.k8s.api.networking.v1alpha1.ClusterCIDRSpec"
    },
    {
      "$ref": "https://gitlab.cern.ch/jeedy-public/kubernetes-json-schemas/-/raw/master/v1.26.1/_definitions.json#/definitions/io.k8s.api.node.v1.Overhead"
    },
    {
      "$ref": "https://gitlab.cern.ch/jeedy-public/kubernetes-json-schemas/-/raw/master/v1.26.1/_definitions.json#/definitions/io.k8s.api.node.v1.RuntimeClass"
    },
    {
      "$ref": "https://gitlab.cern.ch/jeedy-public/kubernetes-json-schemas/-/raw/master/v1.26.1/_definitions.json#/definitions/io.k8s.api.node.v1.RuntimeClassList"
    },
    {
      "$ref": "https://gitlab.cern.ch/jeedy-public/kubernetes-json-schemas/-/raw/master/v1.26.1/_definitions.json#/definitions/io.k8s.api.node.v1.Scheduling"
    },
    {
      "$ref": "https://gitlab.cern.ch/jeedy-public/kubernetes-json-schemas/-/raw/master/v1.26.1/_definitions.json#/definitions/io.k8s.api.policy.v1.Eviction"
    },
    {
      "$ref": "https://gitlab.cern.ch/jeedy-public/kubernetes-json-schemas/-/raw/master/v1.26.1/_definitions.json#/definitions/io.k8s.api.policy.v1.PodDisruptionBudget"
    },
    {
      "$ref": "https://gitlab.cern.ch/jeedy-public/kubernetes-json-schemas/-/raw/master/v1.26.1/_definitions.json#/definitions/io.k8s.api.policy.v1.PodDisruptionBudgetList"
    },
    {
      "$ref": "https://gitlab.cern.ch/jeedy-public/kubernetes-json-schemas/-/raw/master/v1.26.1/_definitions.json#/definitions/io.k8s.api.policy.v1.PodDisruptionBudgetSpec"
    },
    {
      "$ref": "https://gitlab.cern.ch/jeedy-public/kubernetes-json-schemas/-/raw/master/v1.26.1/_definitions.json#/definitions/io.k8s.api.policy.v1.PodDisruptionBudgetStatus"
    },
    {
      "$ref": "https://gitlab.cern.ch/jeedy-public/kubernetes-json-schemas/-/raw/master/v1.26.1/_definitions.json#/definitions/io.k8s.api.rbac.v1.AggregationRule"
    },
    {
      "$ref": "https://gitlab.cern.ch/jeedy-public/kubernetes-json-schemas/-/raw/master/v1.26.1/_definitions.json#/definitions/io.k8s.api.rbac.v1.ClusterRole"
    },
    {
      "$ref": "https://gitlab.cern.ch/jeedy-public/kubernetes-json-schemas/-/raw/master/v1.26.1/_definitions.json#/definitions/io.k8s.api.rbac.v1.ClusterRoleBinding"
    },
    {
      "$ref": "https://gitlab.cern.ch/jeedy-public/kubernetes-json-schemas/-/raw/master/v1.26.1/_definitions.json#/definitions/io.k8s.api.rbac.v1.ClusterRoleBindingList"
    },
    {
      "$ref": "https://gitlab.cern.ch/jeedy-public/kubernetes-json-schemas/-/raw/master/v1.26.1/_definitions.json#/definitions/io.k8s.api.rbac.v1.ClusterRoleList"
    },
    {
      "$ref": "https://gitlab.cern.ch/jeedy-public/kubernetes-json-schemas/-/raw/master/v1.26.1/_definitions.json#/definitions/io.k8s.api.rbac.v1.PolicyRule"
    },
    {
      "$ref": "https://gitlab.cern.ch/jeedy-public/kubernetes-json-schemas/-/raw/master/v1.26.1/_definitions.json#/definitions/io.k8s.api.rbac.v1.Role"
    },
    {
      "$ref": "https://gitlab.cern.ch/jeedy-public/kubernetes-json-schemas/-/raw/master/v1.26.1/_definitions.json#/definitions/io.k8s.api.rbac.v1.RoleBinding"
    },
    {
      "$ref": "https://gitlab.cern.ch/jeedy-public/kubernetes-json-schemas/-/raw/master/v1.26.1/_definitions.json#/definitions/io.k8s.api.rbac.v1.RoleBindingList"
    },
    {
      "$ref": "https://gitlab.cern.ch/jeedy-public/kubernetes-json-schemas/-/raw/master/v1.26.1/_definitions.json#/definitions/io.k8s.api.rbac.v1.RoleList"
    },
    {
      "$ref": "https://gitlab.cern.ch/jeedy-public/kubernetes-json-schemas/-/raw/master/v1.26.1/_definitions.json#/definitions/io.k8s.api.rbac.v1.RoleRef"
    },
    {
      "$ref": "https://gitlab.cern.ch/jeedy-public/kubernetes-json-schemas/-/raw/master/v1.26.1/_definitions.json#/definitions/io.k8s.api.rbac.v1.Subject"
    },
    {
      "$ref": "https://gitlab.cern.ch/jeedy-public/kubernetes-json-schemas/-/raw/master/v1.26.1/_definitions.json#/definitions/io.k8s.api.resource.v1alpha1.AllocationResult"
    },
    {
      "$ref": "https://gitlab.cern.ch/jeedy-public/kubernetes-json-schemas/-/raw/master/v1.26.1/_definitions.json#/definitions/io.k8s.api.resource.v1alpha1.PodScheduling"
    },
    {
      "$ref": "https://gitlab.cern.ch/jeedy-public/kubernetes-json-schemas/-/raw/master/v1.26.1/_definitions.json#/definitions/io.k8s.api.resource.v1alpha1.PodSchedulingList"
    },
    {
      "$ref": "https://gitlab.cern.ch/jeedy-public/kubernetes-json-schemas/-/raw/master/v1.26.1/_definitions.json#/definitions/io.k8s.api.resource.v1alpha1.PodSchedulingSpec"
    },
    {
      "$ref": "https://gitlab.cern.ch/jeedy-public/kubernetes-json-schemas/-/raw/master/v1.26.1/_definitions.json#/definitions/io.k8s.api.resource.v1alpha1.PodSchedulingStatus"
    },
    {
      "$ref": "https://gitlab.cern.ch/jeedy-public/kubernetes-json-schemas/-/raw/master/v1.26.1/_definitions.json#/definitions/io.k8s.api.resource.v1alpha1.ResourceClaim"
    },
    {
      "$ref": "https://gitlab.cern.ch/jeedy-public/kubernetes-json-schemas/-/raw/master/v1.26.1/_definitions.json#/definitions/io.k8s.api.resource.v1alpha1.ResourceClaimConsumerReference"
    },
    {
      "$ref": "https://gitlab.cern.ch/jeedy-public/kubernetes-json-schemas/-/raw/master/v1.26.1/_definitions.json#/definitions/io.k8s.api.resource.v1alpha1.ResourceClaimList"
    },
    {
      "$ref": "https://gitlab.cern.ch/jeedy-public/kubernetes-json-schemas/-/raw/master/v1.26.1/_definitions.json#/definitions/io.k8s.api.resource.v1alpha1.ResourceClaimParametersReference"
    },
    {
      "$ref": "https://gitlab.cern.ch/jeedy-public/kubernetes-json-schemas/-/raw/master/v1.26.1/_definitions.json#/definitions/io.k8s.api.resource.v1alpha1.ResourceClaimSchedulingStatus"
    },
    {
      "$ref": "https://gitlab.cern.ch/jeedy-public/kubernetes-json-schemas/-/raw/master/v1.26.1/_definitions.json#/definitions/io.k8s.api.resource.v1alpha1.ResourceClaimSpec"
    },
    {
      "$ref": "https://gitlab.cern.ch/jeedy-public/kubernetes-json-schemas/-/raw/master/v1.26.1/_definitions.json#/definitions/io.k8s.api.resource.v1alpha1.ResourceClaimStatus"
    },
    {
      "$ref": "https://gitlab.cern.ch/jeedy-public/kubernetes-json-schemas/-/raw/master/v1.26.1/_definitions.json#/definitions/io.k8s.api.resource.v1alpha1.ResourceClaimTemplate"
    },
    {
      "$ref": "https://gitlab.cern.ch/jeedy-public/kubernetes-json-schemas/-/raw/master/v1.26.1/_definitions.json#/definitions/io.k8s.api.resource.v1alpha1.ResourceClaimTemplateList"
    },
    {
      "$ref": "https://gitlab.cern.ch/jeedy-public/kubernetes-json-schemas/-/raw/master/v1.26.1/_definitions.json#/definitions/io.k8s.api.resource.v1alpha1.ResourceClaimTemplateSpec"
    },
    {
      "$ref": "https://gitlab.cern.ch/jeedy-public/kubernetes-json-schemas/-/raw/master/v1.26.1/_definitions.json#/definitions/io.k8s.api.resource.v1alpha1.ResourceClass"
    },
    {
      "$ref": "https://gitlab.cern.ch/jeedy-public/kubernetes-json-schemas/-/raw/master/v1.26.1/_definitions.json#/definitions/io.k8s.api.resource.v1alpha1.ResourceClassList"
    },
    {
      "$ref": "https://gitlab.cern.ch/jeedy-public/kubernetes-json-schemas/-/raw/master/v1.26.1/_definitions.json#/definitions/io.k8s.api.resource.v1alpha1.ResourceClassParametersReference"
    },
    {
      "$ref": "https://gitlab.cern.ch/jeedy-public/kubernetes-json-schemas/-/raw/master/v1.26.1/_definitions.json#/definitions/io.k8s.api.scheduling.v1.PriorityClass"
    },
    {
      "$ref": "https://gitlab.cern.ch/jeedy-public/kubernetes-json-schemas/-/raw/master/v1.26.1/_definitions.json#/definitions/io.k8s.api.scheduling.v1.PriorityClassList"
    },
    {
      "$ref": "https://gitlab.cern.ch/jeedy-public/kubernetes-json-schemas/-/raw/master/v1.26.1/_definitions.json#/definitions/io.k8s.api.storage.v1.CSIDriver"
    },
    {
      "$ref": "https://gitlab.cern.ch/jeedy-public/kubernetes-json-schemas/-/raw/master/v1.26.1/_definitions.json#/definitions/io.k8s.api.storage.v1.CSIDriverList"
    },
    {
      "$ref": "https://gitlab.cern.ch/jeedy-public/kubernetes-json-schemas/-/raw/master/v1.26.1/_definitions.json#/definitions/io.k8s.api.storage.v1.CSIDriverSpec"
    },
    {
      "$ref": "https://gitlab.cern.ch/jeedy-public/kubernetes-json-schemas/-/raw/master/v1.26.1/_definitions.json#/definitions/io.k8s.api.storage.v1.CSINode"
    },
    {
      "$ref": "https://gitlab.cern.ch/jeedy-public/kubernetes-json-schemas/-/raw/master/v1.26.1/_definitions.json#/definitions/io.k8s.api.storage.v1.CSINodeDriver"
    },
    {
      "$ref": "https://gitlab.cern.ch/jeedy-public/kubernetes-json-schemas/-/raw/master/v1.26.1/_definitions.json#/definitions/io.k8s.api.storage.v1.CSINodeList"
    },
    {
      "$ref": "https://gitlab.cern.ch/jeedy-public/kubernetes-json-schemas/-/raw/master/v1.26.1/_definitions.json#/definitions/io.k8s.api.storage.v1.CSINodeSpec"
    },
    {
      "$ref": "https://gitlab.cern.ch/jeedy-public/kubernetes-json-schemas/-/raw/master/v1.26.1/_definitions.json#/definitions/io.k8s.api.storage.v1.CSIStorageCapacity"
    },
    {
      "$ref": "https://gitlab.cern.ch/jeedy-public/kubernetes-json-schemas/-/raw/master/v1.26.1/_definitions.json#/definitions/io.k8s.api.storage.v1.CSIStorageCapacityList"
    },
    {
      "$ref": "https://gitlab.cern.ch/jeedy-public/kubernetes-json-schemas/-/raw/master/v1.26.1/_definitions.json#/definitions/io.k8s.api.storage.v1.StorageClass"
    },
    {
      "$ref": "https://gitlab.cern.ch/jeedy-public/kubernetes-json-schemas/-/raw/master/v1.26.1/_definitions.json#/definitions/io.k8s.api.storage.v1.StorageClassList"
    },
    {
      "$ref": "https://gitlab.cern.ch/jeedy-public/kubernetes-json-schemas/-/raw/master/v1.26.1/_definitions.json#/definitions/io.k8s.api.storage.v1.TokenRequest"
    },
    {
      "$ref": "https://gitlab.cern.ch/jeedy-public/kubernetes-json-schemas/-/raw/master/v1.26.1/_definitions.json#/definitions/io.k8s.api.storage.v1.VolumeAttachment"
    },
    {
      "$ref": "https://gitlab.cern.ch/jeedy-public/kubernetes-json-schemas/-/raw/master/v1.26.1/_definitions.json#/definitions/io.k8s.api.storage.v1.VolumeAttachmentList"
    },
    {
      "$ref": "https://gitlab.cern.ch/jeedy-public/kubernetes-json-schemas/-/raw/master/v1.26.1/_definitions.json#/definitions/io.k8s.api.storage.v1.VolumeAttachmentSource"
    },
    {
      "$ref": "https://gitlab.cern.ch/jeedy-public/kubernetes-json-schemas/-/raw/master/v1.26.1/_definitions.json#/definitions/io.k8s.api.storage.v1.VolumeAttachmentSpec"
    },
    {
      "$ref": "https://gitlab.cern.ch/jeedy-public/kubernetes-json-schemas/-/raw/master/v1.26.1/_definitions.json#/definitions/io.k8s.api.storage.v1.VolumeAttachmentStatus"
    },
    {
      "$ref": "https://gitlab.cern.ch/jeedy-public/kubernetes-json-schemas/-/raw/master/v1.26.1/_definitions.json#/definitions/io.k8s.api.storage.v1.VolumeError"
    },
    {
      "$ref": "https://gitlab.cern.ch/jeedy-public/kubernetes-json-schemas/-/raw/master/v1.26.1/_definitions.json#/definitions/io.k8s.api.storage.v1.VolumeNodeResources"
    },
    {
      "$ref": "https://gitlab.cern.ch/jeedy-public/kubernetes-json-schemas/-/raw/master/v1.26.1/_definitions.json#/definitions/io.k8s.api.storage.v1beta1.CSIStorageCapacity"
    },
    {
      "$ref": "https://gitlab.cern.ch/jeedy-public/kubernetes-json-schemas/-/raw/master/v1.26.1/_definitions.json#/definitions/io.k8s.api.storage.v1beta1.CSIStorageCapacityList"
    },
    {
      "$ref": "https://gitlab.cern.ch/jeedy-public/kubernetes-json-schemas/-/raw/master/v1.26.1/_definitions.json#/definitions/io.k8s.apiextensions-apiserver.pkg.apis.apiextensions.v1.CustomResourceColumnDefinition"
    },
    {
      "$ref": "https://gitlab.cern.ch/jeedy-public/kubernetes-json-schemas/-/raw/master/v1.26.1/_definitions.json#/definitions/io.k8s.apiextensions-apiserver.pkg.apis.apiextensions.v1.CustomResourceConversion"
    },
    {
      "$ref": "https://gitlab.cern.ch/jeedy-public/kubernetes-json-schemas/-/raw/master/v1.26.1/_definitions.json#/definitions/io.k8s.apiextensions-apiserver.pkg.apis.apiextensions.v1.CustomResourceDefinition"
    },
    {
      "$ref": "https://gitlab.cern.ch/jeedy-public/kubernetes-json-schemas/-/raw/master/v1.26.1/_definitions.json#/definitions/io.k8s.apiextensions-apiserver.pkg.apis.apiextensions.v1.CustomResourceDefinitionCondition"
    },
    {
      "$ref": "https://gitlab.cern.ch/jeedy-public/kubernetes-json-schemas/-/raw/master/v1.26.1/_definitions.json#/definitions/io.k8s.apiextensions-apiserver.pkg.apis.apiextensions.v1.CustomResourceDefinitionList"
    },
    {
      "$ref": "https://gitlab.cern.ch/jeedy-public/kubernetes-json-schemas/-/raw/master/v1.26.1/_definitions.json#/definitions/io.k8s.apiextensions-apiserver.pkg.apis.apiextensions.v1.CustomResourceDefinitionNames"
    },
    {
      "$ref": "https://gitlab.cern.ch/jeedy-public/kubernetes-json-schemas/-/raw/master/v1.26.1/_definitions.json#/definitions/io.k8s.apiextensions-apiserver.pkg.apis.apiextensions.v1.CustomResourceDefinitionSpec"
    },
    {
      "$ref": "https://gitlab.cern.ch/jeedy-public/kubernetes-json-schemas/-/raw/master/v1.26.1/_definitions.json#/definitions/io.k8s.apiextensions-apiserver.pkg.apis.apiextensions.v1.CustomResourceDefinitionStatus"
    },
    {
      "$ref": "https://gitlab.cern.ch/jeedy-public/kubernetes-json-schemas/-/raw/master/v1.26.1/_definitions.json#/definitions/io.k8s.apiextensions-apiserver.pkg.apis.apiextensions.v1.CustomResourceDefinitionVersion"
    },
    {
      "$ref": "https://gitlab.cern.ch/jeedy-public/kubernetes-json-schemas/-/raw/master/v1.26.1/_definitions.json#/definitions/io.k8s.apiextensions-apiserver.pkg.apis.apiextensions.v1.CustomResourceSubresourceScale"
    },
    {
      "$ref": "https://gitlab.cern.ch/jeedy-public/kubernetes-json-schemas/-/raw/master/v1.26.1/_definitions.json#/definitions/io.k8s.apiextensions-apiserver.pkg.apis.apiextensions.v1.CustomResourceSubresourceStatus"
    },
    {
      "$ref": "https://gitlab.cern.ch/jeedy-public/kubernetes-json-schemas/-/raw/master/v1.26.1/_definitions.json#/definitions/io.k8s.apiextensions-apiserver.pkg.apis.apiextensions.v1.CustomResourceSubresources"
    },
    {
      "$ref": "https://gitlab.cern.ch/jeedy-public/kubernetes-json-schemas/-/raw/master/v1.26.1/_definitions.json#/definitions/io.k8s.apiextensions-apiserver.pkg.apis.apiextensions.v1.CustomResourceValidation"
    },
    {
      "$ref": "https://gitlab.cern.ch/jeedy-public/kubernetes-json-schemas/-/raw/master/v1.26.1/_definitions.json#/definitions/io.k8s.apiextensions-apiserver.pkg.apis.apiextensions.v1.ExternalDocumentation"
    },
    {
      "$ref": "https://gitlab.cern.ch/jeedy-public/kubernetes-json-schemas/-/raw/master/v1.26.1/_definitions.json#/definitions/io.k8s.apiextensions-apiserver.pkg.apis.apiextensions.v1.JSON"
    },
    {
      "$ref": "https://gitlab.cern.ch/jeedy-public/kubernetes-json-schemas/-/raw/master/v1.26.1/_definitions.json#/definitions/io.k8s.apiextensions-apiserver.pkg.apis.apiextensions.v1.JSONSchemaProps"
    },
    {
      "$ref": "https://gitlab.cern.ch/jeedy-public/kubernetes-json-schemas/-/raw/master/v1.26.1/_definitions.json#/definitions/io.k8s.apiextensions-apiserver.pkg.apis.apiextensions.v1.JSONSchemaPropsOrArray"
    },
    {
      "$ref": "https://gitlab.cern.ch/jeedy-public/kubernetes-json-schemas/-/raw/master/v1.26.1/_definitions.json#/definitions/io.k8s.apiextensions-apiserver.pkg.apis.apiextensions.v1.JSONSchemaPropsOrBool"
    },
    {
      "$ref": "https://gitlab.cern.ch/jeedy-public/kubernetes-json-schemas/-/raw/master/v1.26.1/_definitions.json#/definitions/io.k8s.apiextensions-apiserver.pkg.apis.apiextensions.v1.JSONSchemaPropsOrStringArray"
    },
    {
      "$ref": "https://gitlab.cern.ch/jeedy-public/kubernetes-json-schemas/-/raw/master/v1.26.1/_definitions.json#/definitions/io.k8s.apiextensions-apiserver.pkg.apis.apiextensions.v1.ServiceReference"
    },
    {
      "$ref": "https://gitlab.cern.ch/jeedy-public/kubernetes-json-schemas/-/raw/master/v1.26.1/_definitions.json#/definitions/io.k8s.apiextensions-apiserver.pkg.apis.apiextensions.v1.ValidationRule"
    },
    {
      "$ref": "https://gitlab.cern.ch/jeedy-public/kubernetes-json-schemas/-/raw/master/v1.26.1/_definitions.json#/definitions/io.k8s.apiextensions-apiserver.pkg.apis.apiextensions.v1.WebhookClientConfig"
    },
    {
      "$ref": "https://gitlab.cern.ch/jeedy-public/kubernetes-json-schemas/-/raw/master/v1.26.1/_definitions.json#/definitions/io.k8s.apiextensions-apiserver.pkg.apis.apiextensions.v1.WebhookConversion"
    },
    {
      "$ref": "https://gitlab.cern.ch/jeedy-public/kubernetes-json-schemas/-/raw/master/v1.26.1/_definitions.json#/definitions/io.k8s.apimachinery.pkg.api.resource.Quantity"
    },
    {
      "$ref": "https://gitlab.cern.ch/jeedy-public/kubernetes-json-schemas/-/raw/master/v1.26.1/_definitions.json#/definitions/io.k8s.apimachinery.pkg.apis.meta.v1.APIGroup"
    },
    {
      "$ref": "https://gitlab.cern.ch/jeedy-public/kubernetes-json-schemas/-/raw/master/v1.26.1/_definitions.json#/definitions/io.k8s.apimachinery.pkg.apis.meta.v1.APIGroupList"
    },
    {
      "$ref": "https://gitlab.cern.ch/jeedy-public/kubernetes-json-schemas/-/raw/master/v1.26.1/_definitions.json#/definitions/io.k8s.apimachinery.pkg.apis.meta.v1.APIResource"
    },
    {
      "$ref": "https://gitlab.cern.ch/jeedy-public/kubernetes-json-schemas/-/raw/master/v1.26.1/_definitions.json#/definitions/io.k8s.apimachinery.pkg.apis.meta.v1.APIResourceList"
    },
    {
      "$ref": "https://gitlab.cern.ch/jeedy-public/kubernetes-json-schemas/-/raw/master/v1.26.1/_definitions.json#/definitions/io.k8s.apimachinery.pkg.apis.meta.v1.APIVersions"
    },
    {
      "$ref": "https://gitlab.cern.ch/jeedy-public/kubernetes-json-schemas/-/raw/master/v1.26.1/_definitions.json#/definitions/io.k8s.apimachinery.pkg.apis.meta.v1.Condition"
    },
    {
      "$ref": "https://gitlab.cern.ch/jeedy-public/kubernetes-json-schemas/-/raw/master/v1.26.1/_definitions.json#/definitions/io.k8s.apimachinery.pkg.apis.meta.v1.DeleteOptions"
    },
    {
      "$ref": "https://gitlab.cern.ch/jeedy-public/kubernetes-json-schemas/-/raw/master/v1.26.1/_definitions.json#/definitions/io.k8s.apimachinery.pkg.apis.meta.v1.FieldsV1"
    },
    {
      "$ref": "https://gitlab.cern.ch/jeedy-public/kubernetes-json-schemas/-/raw/master/v1.26.1/_definitions.json#/definitions/io.k8s.apimachinery.pkg.apis.meta.v1.GroupVersionForDiscovery"
    },
    {
      "$ref": "https://gitlab.cern.ch/jeedy-public/kubernetes-json-schemas/-/raw/master/v1.26.1/_definitions.json#/definitions/io.k8s.apimachinery.pkg.apis.meta.v1.LabelSelector"
    },
    {
      "$ref": "https://gitlab.cern.ch/jeedy-public/kubernetes-json-schemas/-/raw/master/v1.26.1/_definitions.json#/definitions/io.k8s.apimachinery.pkg.apis.meta.v1.LabelSelectorRequirement"
    },
    {
      "$ref": "https://gitlab.cern.ch/jeedy-public/kubernetes-json-schemas/-/raw/master/v1.26.1/_definitions.json#/definitions/io.k8s.apimachinery.pkg.apis.meta.v1.ListMeta"
    },
    {
      "$ref": "https://gitlab.cern.ch/jeedy-public/kubernetes-json-schemas/-/raw/master/v1.26.1/_definitions.json#/definitions/io.k8s.apimachinery.pkg.apis.meta.v1.ManagedFieldsEntry"
    },
    {
      "$ref": "https://gitlab.cern.ch/jeedy-public/kubernetes-json-schemas/-/raw/master/v1.26.1/_definitions.json#/definitions/io.k8s.apimachinery.pkg.apis.meta.v1.MicroTime"
    },
    {
      "$ref": "https://gitlab.cern.ch/jeedy-public/kubernetes-json-schemas/-/raw/master/v1.26.1/_definitions.json#/definitions/io.k8s.apimachinery.pkg.apis.meta.v1.ObjectMeta"
    },
    {
      "$ref": "https://gitlab.cern.ch/jeedy-public/kubernetes-json-schemas/-/raw/master/v1.26.1/_definitions.json#/definitions/io.k8s.apimachinery.pkg.apis.meta.v1.OwnerReference"
    },
    {
      "$ref": "https://gitlab.cern.ch/jeedy-public/kubernetes-json-schemas/-/raw/master/v1.26.1/_definitions.json#/definitions/io.k8s.apimachinery.pkg.apis.meta.v1.Patch"
    },
    {
      "$ref": "https://gitlab.cern.ch/jeedy-public/kubernetes-json-schemas/-/raw/master/v1.26.1/_definitions.json#/definitions/io.k8s.apimachinery.pkg.apis.meta.v1.Preconditions"
    },
    {
      "$ref": "https://gitlab.cern.ch/jeedy-public/kubernetes-json-schemas/-/raw/master/v1.26.1/_definitions.json#/definitions/io.k8s.apimachinery.pkg.apis.meta.v1.ServerAddressByClientCIDR"
    },
    {
      "$ref": "https://gitlab.cern.ch/jeedy-public/kubernetes-json-schemas/-/raw/master/v1.26.1/_definitions.json#/definitions/io.k8s.apimachinery.pkg.apis.meta.v1.Status"
    },
    {
      "$ref": "https://gitlab.cern.ch/jeedy-public/kubernetes-json-schemas/-/raw/master/v1.26.1/_definitions.json#/definitions/io.k8s.apimachinery.pkg.apis.meta.v1.StatusCause"
    },
    {
      "$ref": "https://gitlab.cern.ch/jeedy-public/kubernetes-json-schemas/-/raw/master/v1.26.1/_definitions.json#/definitions/io.k8s.apimachinery.pkg.apis.meta.v1.StatusDetails"
    },
    {
      "$ref": "https://gitlab.cern.ch/jeedy-public/kubernetes-json-schemas/-/raw/master/v1.26.1/_definitions.json#/definitions/io.k8s.apimachinery.pkg.apis.meta.v1.Time"
    },
    {
      "$ref": "https://gitlab.cern.ch/jeedy-public/kubernetes-json-schemas/-/raw/master/v1.26.1/_definitions.json#/definitions/io.k8s.apimachinery.pkg.apis.meta.v1.WatchEvent"
    },
    {
      "$ref": "https://gitlab.cern.ch/jeedy-public/kubernetes-json-schemas/-/raw/master/v1.26.1/_definitions.json#/definitions/io.k8s.apimachinery.pkg.runtime.RawExtension"
    },
    {
      "$ref": "https://gitlab.cern.ch/jeedy-public/kubernetes-json-schemas/-/raw/master/v1.26.1/_definitions.json#/definitions/io.k8s.apimachinery.pkg.util.intstr.IntOrString"
    },
    {
      "$ref": "https://gitlab.cern.ch/jeedy-public/kubernetes-json-schemas/-/raw/master/v1.26.1/_definitions.json#/definitions/io.k8s.apimachinery.pkg.version.Info"
    },
    {
      "$ref": "https://gitlab.cern.ch/jeedy-public/kubernetes-json-schemas/-/raw/master/v1.26.1/_definitions.json#/definitions/io.k8s.kube-aggregator.pkg.apis.apiregistration.v1.APIService"
    },
    {
      "$ref": "https://gitlab.cern.ch/jeedy-public/kubernetes-json-schemas/-/raw/master/v1.26.1/_definitions.json#/definitions/io.k8s.kube-aggregator.pkg.apis.apiregistration.v1.APIServiceCondition"
    },
    {
      "$ref": "https://gitlab.cern.ch/jeedy-public/kubernetes-json-schemas/-/raw/master/v1.26.1/_definitions.json#/definitions/io.k8s.kube-aggregator.pkg.apis.apiregistration.v1.APIServiceList"
    },
    {
      "$ref": "https://gitlab.cern.ch/jeedy-public/kubernetes-json-schemas/-/raw/master/v1.26.1/_definitions.json#/definitions/io.k8s.kube-aggregator.pkg.apis.apiregistration.v1.APIServiceSpec"
    },
    {
      "$ref": "https://gitlab.cern.ch/jeedy-public/kubernetes-json-schemas/-/raw/master/v1.26.1/_definitions.json#/definitions/io.k8s.kube-aggregator.pkg.apis.apiregistration.v1.APIServiceStatus"
    },
    {
      "$ref": "https://gitlab.cern.ch/jeedy-public/kubernetes-json-schemas/-/raw/master/v1.26.1/_definitions.json#/definitions/io.k8s.kube-aggregator.pkg.apis.apiregistration.v1.ServiceReference"
    }
  ]
}