{
  "description": "LimitedPriorityLevelConfiguration specifies how to handle requests that are subject to limits. It addresses two issues:\n  - How are requests for this priority level limited?\n  - What should be done with requests that exceed the limit?",
  "properties": {
    "assuredConcurrencyShares": {
      "description": "`assuredConcurrencyShares` (ACS) configures the execution limit, which is a limit on the number of requests of this priority level that may be exeucting at a given time.  ACS must be a positive number. The server's concurrency limit (SCL) is divided among the concurrency-controlled priority levels in proportion to their assured concurrency shares. This produces the assured concurrency value (ACV) --- the number of requests that may be executing at a time --- for each such priority level:\n\n            ACV(l) = ceil( SCL * ACS(l) / ( sum[priority levels k] ACS(k) ) )\n\nbigger numbers of ACS mean more reserved concurrent requests (at the expense of every other PL). This field has a default value of 30.",
      "format": "int32",
      "type": [
        "integer",
        "null"
      ]
    },
    "borrowingLimitPercent": {
      "description": "`borrowingLimitPercent`, if present, configures a limit on how many seats this priority level can borrow from other priority levels. The limit is known as this level's BorrowingConcurrencyLimit (BorrowingCL) and is a limit on the total number of seats that this level may borrow at any one time. This field holds the ratio of that limit to the level's nominal concurrency limit. When this field is non-nil, it must hold a non-negative integer and the limit is calculated as follows.\n\nBorrowingCL(i) = round( NominalCL(i) * borrowingLimitPercent(i)/100.0 )\n\nThe value of this field can be more than 100, implying that this priority level can borrow a number of seats that is greater than its own nominal concurrency limit (NominalCL). When this field is left `nil`, the limit is effectively infinite.",
      "format": "int32",
      "type": [
        "integer",
        "null"
      ]
    },
    "lendablePercent": {
      "description": "`lendablePercent` prescribes the fraction of the level's NominalCL that can be borrowed by other priority levels. The value of this field must be between 0 and 100, inclusive, and it defaults to 0. The number of seats that other levels can borrow from this level, known as this level's LendableConcurrencyLimit (LendableCL), is defined as follows.\n\nLendableCL(i) = round( NominalCL(i) * lendablePercent(i)/100.0 )",
      "format": "int32",
      "type": [
        "integer",
        "null"
      ]
    },
    "limitResponse": {
      "$ref": "https://gitlab.cern.ch/jeedy-public/kubernetes-json-schemas/-/raw/master/v1.26.1/_definitions.json#/definitions/io.k8s.api.flowcontrol.v1beta2.LimitResponse",
      "description": "`limitResponse` indicates what to do with requests that can not be executed right now"
    }
  },
  "type": "object",
  "$schema": "http://json-schema.org/schema#"
}