{
  "description": "APIServiceList is a list of APIService objects.",
  "properties": {
    "apiVersion": {
      "description": "APIVersion defines the versioned schema of this representation of an object. Servers should convert recognized schemas to the latest internal value, and may reject unrecognized values. More info: https://git.k8s.io/community/contributors/devel/sig-architecture/api-conventions.md#resources",
      "type": [
        "string",
        "null"
      ],
      "enum": [
        "apiregistration.k8s.io/v1"
      ]
    },
    "items": {
      "items": {
        "$ref": "https://gitlab.cern.ch/jeedy-public/kubernetes-json-schemas/-/raw/master/v1.18.1/_definitions.json#/definitions/io.k8s.kube-aggregator.pkg.apis.apiregistration.v1.APIService"
      },
      "type": [
        "array",
        "null"
      ]
    },
    "kind": {
      "description": "Kind is a string value representing the REST resource this object represents. Servers may infer this from the endpoint the client submits requests to. Cannot be updated. In CamelCase. More info: https://git.k8s.io/community/contributors/devel/sig-architecture/api-conventions.md#types-kinds",
      "type": [
        "string",
        "null"
      ],
      "enum": [
        "APIServiceList"
      ]
    },
    "metadata": {
      "$ref": "https://gitlab.cern.ch/jeedy-public/kubernetes-json-schemas/-/raw/master/v1.18.1/_definitions.json#/definitions/io.k8s.apimachinery.pkg.apis.meta.v1.ListMeta"
    }
  },
  "required": [
    "items"
  ],
  "type": "object",
  "x-kubernetes-group-version-kind": [
    {
      "group": "apiregistration.k8s.io",
      "kind": "APIServiceList",
      "version": "v1"
    }
  ],
  "$schema": "http://json-schema.org/schema#"
}