{
  "description": "Affinity is a group of affinity scheduling rules.",
  "properties": {
    "nodeAffinity": {
      "$ref": "https://gitlab.cern.ch/jeedy-public/kubernetes-json-schemas/-/raw/master/v1.25.4/_definitions.json#/definitions/io.k8s.api.core.v1.NodeAffinity",
      "description": "Describes node affinity scheduling rules for the pod."
    },
    "podAffinity": {
      "$ref": "https://gitlab.cern.ch/jeedy-public/kubernetes-json-schemas/-/raw/master/v1.25.4/_definitions.json#/definitions/io.k8s.api.core.v1.PodAffinity",
      "description": "Describes pod affinity scheduling rules (e.g. co-locate this pod in the same node, zone, etc. as some other pod(s))."
    },
    "podAntiAffinity": {
      "$ref": "https://gitlab.cern.ch/jeedy-public/kubernetes-json-schemas/-/raw/master/v1.25.4/_definitions.json#/definitions/io.k8s.api.core.v1.PodAntiAffinity",
      "description": "Describes pod anti-affinity scheduling rules (e.g. avoid putting this pod in the same node, zone, etc. as some other pod(s))."
    }
  },
  "type": "object",
  "$schema": "http://json-schema.org/schema#"
}