{
  "description": "Subject matches the originator of a request, as identified by the request authentication system. There are three ways of matching an originator; by user, group, or service account.",
  "properties": {
    "group": {
      "$ref": "https://gitlab.cern.ch/jeedy-public/kubernetes-json-schemas/-/raw/master/v1.25.1/_definitions.json#/definitions/io.k8s.api.flowcontrol.v1beta2.GroupSubject",
      "description": "`group` matches based on user group name."
    },
    "kind": {
      "description": "`kind` indicates which one of the other fields is non-empty. Required",
      "type": [
        "string",
        "null"
      ]
    },
    "serviceAccount": {
      "$ref": "https://gitlab.cern.ch/jeedy-public/kubernetes-json-schemas/-/raw/master/v1.25.1/_definitions.json#/definitions/io.k8s.api.flowcontrol.v1beta2.ServiceAccountSubject",
      "description": "`serviceAccount` matches ServiceAccounts."
    },
    "user": {
      "$ref": "https://gitlab.cern.ch/jeedy-public/kubernetes-json-schemas/-/raw/master/v1.25.1/_definitions.json#/definitions/io.k8s.api.flowcontrol.v1beta2.UserSubject",
      "description": "`user` matches based on username."
    }
  },
  "required": [
    "kind"
  ],
  "type": "object",
  "x-kubernetes-unions": [
    {
      "discriminator": "kind",
      "fields-to-discriminateBy": {
        "group": "Group",
        "serviceAccount": "ServiceAccount",
        "user": "User"
      }
    }
  ],
  "$schema": "http://json-schema.org/schema#"
}