{
  "description": "ResourceQuotaStatus defines the enforced hard limits and observed use.",
  "properties": {
    "hard": {
      "additionalProperties": {
        "$ref": "https://gitlab.cern.ch/jeedy-public/kubernetes-json-schemas/-/raw/master/v1.17.5/_definitions.json#/definitions/io.k8s.apimachinery.pkg.api.resource.Quantity"
      },
      "description": "Hard is the set of enforced hard limits for each named resource. More info: https://kubernetes.io/docs/concepts/policy/resource-quotas/",
      "type": [
        "object",
        "null"
      ]
    },
    "used": {
      "additionalProperties": {
        "$ref": "https://gitlab.cern.ch/jeedy-public/kubernetes-json-schemas/-/raw/master/v1.17.5/_definitions.json#/definitions/io.k8s.apimachinery.pkg.api.resource.Quantity"
      },
      "description": "Used is the current observed total usage of the resource in the namespace.",
      "type": [
        "object",
        "null"
      ]
    }
  },
  "type": "object",
  "$schema": "http://json-schema.org/schema#"
}