{
  "description": "ServiceStatus represents the current status of a service.",
  "properties": {
    "loadBalancer": {
      "$ref": "https://gitlab.cern.ch/jeedy-public/kubernetes-json-schemas/-/raw/master/v1.17.5/_definitions.json#/definitions/io.k8s.api.core.v1.LoadBalancerStatus",
      "description": "LoadBalancer contains the current status of the load-balancer, if one is present."
    }
  },
  "type": "object",
  "$schema": "http://json-schema.org/schema#"
}