{
  "description": "SELinuxStrategyOptions defines the strategy type and any options used to create the strategy. Deprecated: use SELinuxStrategyOptions from policy API Group instead.",
  "properties": {
    "rule": {
      "description": "rule is the strategy that will dictate the allowable labels that may be set.",
      "type": [
        "string",
        "null"
      ]
    },
    "seLinuxOptions": {
      "$ref": "https://gitlab.cern.ch/jeedy-public/kubernetes-json-schemas/-/raw/master/v1.15.4/_definitions.json#/definitions/io.k8s.api.core.v1.SELinuxOptions",
      "description": "seLinuxOptions required to run as; required for MustRunAs More info: https://kubernetes.io/docs/tasks/configure-pod-container/security-context/"
    }
  },
  "required": [
    "rule"
  ],
  "type": "object",
  "$schema": "http://json-schema.org/schema#"
}