{
  "description": "ServicePort contains information on service's port.",
  "properties": {
    "name": {
      "description": "The name of this port within the service. This must be a DNS_LABEL. All ports within a ServiceSpec must have unique names. This maps to the 'Name' field in EndpointPort objects. Optional if only one ServicePort is defined on this service.",
      "type": [
        "string",
        "null"
      ]
    },
    "nodePort": {
      "description": "The port on each node on which this service is exposed when type=NodePort or LoadBalancer. Usually assigned by the system. If specified, it will be allocated to the service if unused or else creation of the service will fail. Default is to auto-allocate a port if the ServiceType of this Service requires one. More info: https://kubernetes.io/docs/concepts/services-networking/service/#type-nodeport",
      "format": "int32",
      "type": [
        "integer",
        "null"
      ]
    },
    "port": {
      "description": "The port that will be exposed by this service.",
      "format": "int32",
      "type": [
        "integer",
        "null"
      ]
    },
    "protocol": {
      "description": "The IP protocol for this port. Supports \"TCP\", \"UDP\", and \"SCTP\". Default is TCP.",
      "type": [
        "string",
        "null"
      ]
    },
    "targetPort": {
      "$ref": "https://gitlab.cern.ch/jeedy-public/kubernetes-json-schemas/-/raw/master/v1.15.4/_definitions.json#/definitions/io.k8s.apimachinery.pkg.util.intstr.IntOrString",
      "description": "Number or name of the port to access on the pods targeted by the service. Number must be in the range 1 to 65535. Name must be an IANA_SVC_NAME. If this is a string, it will be looked up as a named port in the target Pod's container ports. If this is not specified, the value of the 'port' field is used (an identity map). This field is ignored for services with clusterIP=None, and should be omitted or set equal to the 'port' field. More info: https://kubernetes.io/docs/concepts/services-networking/service/#defining-a-service"
    }
  },
  "required": [
    "port"
  ],
  "type": "object",
  "$schema": "http://json-schema.org/schema#"
}