{
  "description": "CronJobSpec describes how the job execution will look like and when it will actually run.",
  "properties": {
    "concurrencyPolicy": {
      "description": "Specifies how to treat concurrent executions of a Job. Valid values are: - \"Allow\" (default): allows CronJobs to run concurrently; - \"Forbid\": forbids concurrent runs, skipping next run if previous run hasn't finished yet; - \"Replace\": cancels currently running job and replaces it with a new one",
      "type": [
        "string",
        "null"
      ]
    },
    "failedJobsHistoryLimit": {
      "description": "The number of failed finished jobs to retain. This is a pointer to distinguish between explicit zero and not specified.",
      "format": "int32",
      "type": [
        "integer",
        "null"
      ]
    },
    "jobTemplate": {
      "$ref": "https://gitlab.cern.ch/jeedy-public/kubernetes-json-schemas/-/raw/master/v1.15.10/_definitions.json#/definitions/io.k8s.api.batch.v2alpha1.JobTemplateSpec",
      "description": "Specifies the job that will be created when executing a CronJob."
    },
    "schedule": {
      "description": "The schedule in Cron format, see https://en.wikipedia.org/wiki/Cron.",
      "type": [
        "string",
        "null"
      ]
    },
    "startingDeadlineSeconds": {
      "description": "Optional deadline in seconds for starting the job if it misses scheduled time for any reason.  Missed jobs executions will be counted as failed ones.",
      "format": "int64",
      "type": [
        "integer",
        "null"
      ]
    },
    "successfulJobsHistoryLimit": {
      "description": "The number of successful finished jobs to retain. This is a pointer to distinguish between explicit zero and not specified.",
      "format": "int32",
      "type": [
        "integer",
        "null"
      ]
    },
    "suspend": {
      "description": "This flag tells the controller to suspend subsequent executions, it does not apply to already started executions.  Defaults to false.",
      "type": [
        "boolean",
        "null"
      ]
    }
  },
  "required": [
    "schedule",
    "jobTemplate"
  ],
  "type": "object",
  "$schema": "http://json-schema.org/schema#"
}