{
  "description": "Represents a projected volume source",
  "properties": {
    "defaultMode": {
      "description": "Mode bits to use on created files by default. Must be a value between 0 and 0777. Directories within the path are not affected by this setting. This might be in conflict with other options that affect the file mode, like fsGroup, and the result can be other mode bits set.",
      "format": "int32",
      "type": [
        "integer",
        "null"
      ]
    },
    "sources": {
      "description": "list of volume projections",
      "items": {
        "$ref": "https://gitlab.cern.ch/jeedy-public/kubernetes-json-schemas/-/raw/master/v1.15.10/_definitions.json#/definitions/io.k8s.api.core.v1.VolumeProjection"
      },
      "type": [
        "array",
        "null"
      ]
    }
  },
  "required": [
    "sources"
  ],
  "type": "object",
  "$schema": "http://json-schema.org/schema#"
}