{
  "description": "PersistentVolumeClaimStatus is the current status of a persistent volume claim.",
  "properties": {
    "accessModes": {
      "description": "AccessModes contains the actual access modes the volume backing the PVC has. More info: https://kubernetes.io/docs/concepts/storage/persistent-volumes#access-modes-1",
      "items": {
        "type": [
          "string",
          "null"
        ]
      },
      "type": [
        "array",
        "null"
      ]
    },
    "allocatedResources": {
      "additionalProperties": {
        "$ref": "https://gitlab.cern.ch/jeedy-public/kubernetes-json-schemas/-/raw/master/v1.23.4/_definitions.json#/definitions/io.k8s.apimachinery.pkg.api.resource.Quantity"
      },
      "description": "The storage resource within AllocatedResources tracks the capacity allocated to a PVC. It may be larger than the actual capacity when a volume expansion operation is requested. For storage quota, the larger value from allocatedResources and PVC.spec.resources is used. If allocatedResources is not set, PVC.spec.resources alone is used for quota calculation. If a volume expansion capacity request is lowered, allocatedResources is only lowered if there are no expansion operations in progress and if the actual volume capacity is equal or lower than the requested capacity. This is an alpha field and requires enabling RecoverVolumeExpansionFailure feature.",
      "type": [
        "object",
        "null"
      ]
    },
    "capacity": {
      "additionalProperties": {
        "$ref": "https://gitlab.cern.ch/jeedy-public/kubernetes-json-schemas/-/raw/master/v1.23.4/_definitions.json#/definitions/io.k8s.apimachinery.pkg.api.resource.Quantity"
      },
      "description": "Represents the actual resources of the underlying volume.",
      "type": [
        "object",
        "null"
      ]
    },
    "conditions": {
      "description": "Current Condition of persistent volume claim. If underlying persistent volume is being resized then the Condition will be set to 'ResizeStarted'.",
      "items": {
        "$ref": "https://gitlab.cern.ch/jeedy-public/kubernetes-json-schemas/-/raw/master/v1.23.4/_definitions.json#/definitions/io.k8s.api.core.v1.PersistentVolumeClaimCondition"
      },
      "type": [
        "array",
        "null"
      ],
      "x-kubernetes-patch-merge-key": "type",
      "x-kubernetes-patch-strategy": "merge"
    },
    "phase": {
      "description": "Phase represents the current phase of PersistentVolumeClaim.\n\nPossible enum values:\n - `\"Bound\"` used for PersistentVolumeClaims that are bound\n - `\"Lost\"` used for PersistentVolumeClaims that lost their underlying PersistentVolume. The claim was bound to a PersistentVolume and this volume does not exist any longer and all data on it was lost.\n - `\"Pending\"` used for PersistentVolumeClaims that are not yet bound",
      "enum": [
        "Bound",
        "Lost",
        "Pending"
      ],
      "type": [
        "string",
        "null"
      ]
    },
    "resizeStatus": {
      "description": "ResizeStatus stores status of resize operation. ResizeStatus is not set by default but when expansion is complete resizeStatus is set to empty string by resize controller or kubelet. This is an alpha field and requires enabling RecoverVolumeExpansionFailure feature.",
      "type": [
        "string",
        "null"
      ]
    }
  },
  "type": "object",
  "$schema": "http://json-schema.org/schema#"
}