{
  "description": "LimitedPriorityLevelConfiguration specifies how to handle requests that are subject to limits. It addresses two issues:\n * How are requests for this priority level limited?\n * What should be done with requests that exceed the limit?",
  "properties": {
    "assuredConcurrencyShares": {
      "description": "`assuredConcurrencyShares` (ACS) configures the execution limit, which is a limit on the number of requests of this priority level that may be exeucting at a given time.  ACS must be a positive number. The server's concurrency limit (SCL) is divided among the concurrency-controlled priority levels in proportion to their assured concurrency shares. This produces the assured concurrency value (ACV) --- the number of requests that may be executing at a time --- for each such priority level:\n\n            ACV(l) = ceil( SCL * ACS(l) / ( sum[priority levels k] ACS(k) ) )\n\nbigger numbers of ACS mean more reserved concurrent requests (at the expense of every other PL). This field has a default value of 30.",
      "format": "int32",
      "type": [
        "integer",
        "null"
      ]
    },
    "limitResponse": {
      "$ref": "https://gitlab.cern.ch/jeedy-public/kubernetes-json-schemas/-/raw/master/v1.22.12/_definitions.json#/definitions/io.k8s.api.flowcontrol.v1beta1.LimitResponse",
      "description": "`limitResponse` indicates what to do with requests that can not be executed right now"
    }
  },
  "type": "object",
  "$schema": "http://json-schema.org/schema#"
}