{
  "description": "ContainerResourceMetricSource indicates how to scale on a resource metric known to Kubernetes, as specified in requests and limits, describing each pod in the current scale target (e.g. CPU or memory).  The values will be averaged together before being compared to the target.  Such metrics are built in to Kubernetes, and have special scaling options on top of those available to normal per-pod metrics using the \"pods\" source.  Only one \"target\" type should be set.",
  "properties": {
    "container": {
      "description": "container is the name of the container in the pods of the scaling target",
      "type": [
        "string",
        "null"
      ]
    },
    "name": {
      "description": "name is the name of the resource in question.",
      "type": [
        "string",
        "null"
      ]
    },
    "target": {
      "$ref": "https://gitlab.cern.ch/jeedy-public/kubernetes-json-schemas/-/raw/master/v1.26.0/_definitions.json#/definitions/io.k8s.api.autoscaling.v2.MetricTarget",
      "description": "target specifies the target value for the given metric"
    }
  },
  "required": [
    "name",
    "target",
    "container"
  ],
  "type": "object",
  "$schema": "http://json-schema.org/schema#"
}