{
  "description": "ContainerResourceMetricStatus indicates the current value of a resource metric known to Kubernetes, as specified in requests and limits, describing a single container in each pod in the current scale target (e.g. CPU or memory).  Such metrics are built in to Kubernetes, and have special scaling options on top of those available to normal per-pod metrics using the \"pods\" source.",
  "properties": {
    "container": {
      "description": "container is the name of the container in the pods of the scaling target",
      "type": [
        "string",
        "null"
      ]
    },
    "currentAverageUtilization": {
      "description": "currentAverageUtilization is the current value of the average of the resource metric across all relevant pods, represented as a percentage of the requested value of the resource for the pods.  It will only be present if `targetAverageValue` was set in the corresponding metric specification.",
      "format": "int32",
      "type": [
        "integer",
        "null"
      ]
    },
    "currentAverageValue": {
      "$ref": "https://gitlab.cern.ch/jeedy-public/kubernetes-json-schemas/-/raw/master/v1.24.13/_definitions.json#/definitions/io.k8s.apimachinery.pkg.api.resource.Quantity",
      "description": "currentAverageValue is the current value of the average of the resource metric across all relevant pods, as a raw value (instead of as a percentage of the request), similar to the \"pods\" metric source type. It will always be set, regardless of the corresponding metric specification."
    },
    "name": {
      "description": "name is the name of the resource in question.",
      "type": [
        "string",
        "null"
      ]
    }
  },
  "required": [
    "name",
    "currentAverageValue",
    "container"
  ],
  "type": "object",
  "$schema": "http://json-schema.org/schema#"
}