{
  "description": "ResourceClass is used by administrators to influence how resources are allocated.\n\nThis is an alpha type and requires enabling the DynamicResourceAllocation feature gate.",
  "properties": {
    "apiVersion": {
      "description": "APIVersion defines the versioned schema of this representation of an object. Servers should convert recognized schemas to the latest internal value, and may reject unrecognized values. More info: https://git.k8s.io/community/contributors/devel/sig-architecture/api-conventions.md#resources",
      "type": [
        "string",
        "null"
      ]
    },
    "driverName": {
      "description": "DriverName defines the name of the dynamic resource driver that is used for allocation of a ResourceClaim that uses this class.\n\nResource drivers have a unique name in forward domain order (acme.example.com).",
      "type": [
        "string",
        "null"
      ]
    },
    "kind": {
      "description": "Kind is a string value representing the REST resource this object represents. Servers may infer this from the endpoint the client submits requests to. Cannot be updated. In CamelCase. More info: https://git.k8s.io/community/contributors/devel/sig-architecture/api-conventions.md#types-kinds",
      "type": [
        "string",
        "null"
      ],
      "enum": [
        "ResourceClass"
      ]
    },
    "metadata": {
      "$ref": "https://gitlab.cern.ch/jeedy-public/kubernetes-json-schemas/-/raw/master/v1.26.3/_definitions.json#/definitions/io.k8s.apimachinery.pkg.apis.meta.v1.ObjectMeta",
      "description": "Standard object metadata"
    },
    "parametersRef": {
      "$ref": "https://gitlab.cern.ch/jeedy-public/kubernetes-json-schemas/-/raw/master/v1.26.3/_definitions.json#/definitions/io.k8s.api.resource.v1alpha1.ResourceClassParametersReference",
      "description": "ParametersRef references an arbitrary separate object that may hold parameters that will be used by the driver when allocating a resource that uses this class. A dynamic resource driver can distinguish between parameters stored here and and those stored in ResourceClaimSpec."
    },
    "suitableNodes": {
      "$ref": "https://gitlab.cern.ch/jeedy-public/kubernetes-json-schemas/-/raw/master/v1.26.3/_definitions.json#/definitions/io.k8s.api.core.v1.NodeSelector",
      "description": "Only nodes matching the selector will be considered by the scheduler when trying to find a Node that fits a Pod when that Pod uses a ResourceClaim that has not been allocated yet.\n\nSetting this field is optional. If null, all nodes are candidates."
    }
  },
  "required": [
    "driverName"
  ],
  "type": "object",
  "x-kubernetes-group-version-kind": [
    {
      "group": "resource.k8s.io",
      "kind": "ResourceClass",
      "version": "v1alpha1"
    }
  ],
  "$schema": "http://json-schema.org/schema#"
}