{
  "description": "Spec to control the desired behavior of rolling update.",
  "properties": {
    "maxSurge": {
      "$ref": "https://gitlab.cern.ch/jeedy-public/kubernetes-json-schemas/-/raw/master/v1.16.1/_definitions.json#/definitions/io.k8s.apimachinery.pkg.util.intstr.IntOrString",
      "description": "The maximum number of pods that can be scheduled above the desired number of pods. Value can be an absolute number (ex: 5) or a percentage of desired pods (ex: 10%). This can not be 0 if MaxUnavailable is 0. Absolute number is calculated from percentage by rounding up. By default, a value of 1 is used. Example: when this is set to 30%, the new RC can be scaled up immediately when the rolling update starts, such that the total number of old and new pods do not exceed 130% of desired pods. Once old pods have been killed, new RC can be scaled up further, ensuring that total number of pods running at any time during the update is at most 130% of desired pods."
    },
    "maxUnavailable": {
      "$ref": "https://gitlab.cern.ch/jeedy-public/kubernetes-json-schemas/-/raw/master/v1.16.1/_definitions.json#/definitions/io.k8s.apimachinery.pkg.util.intstr.IntOrString",
      "description": "The maximum number of pods that can be unavailable during the update. Value can be an absolute number (ex: 5) or a percentage of desired pods (ex: 10%). Absolute number is calculated from percentage by rounding down. This can not be 0 if MaxSurge is 0. By default, a fixed value of 1 is used. Example: when this is set to 30%, the old RC can be scaled down to 70% of desired pods immediately when the rolling update starts. Once new pods are ready, old RC can be scaled down further, followed by scaling up the new RC, ensuring that the total number of pods available at all times during the update is at least 70% of desired pods."
    }
  },
  "type": "object",
  "$schema": "http://json-schema.org/schema#"
}