{
  "description": "MatchResources decides whether to run the admission control policy on an object based on whether it meets the match criteria. The exclude rules take precedence over include rules (if a resource matches both, it is excluded)",
  "properties": {
    "excludeResourceRules": {
      "description": "ExcludeResourceRules describes what operations on what resources/subresources the ValidatingAdmissionPolicy should not care about. The exclude rules take precedence over include rules (if a resource matches both, it is excluded)",
      "items": {
        "$ref": "https://gitlab.cern.ch/jeedy-public/kubernetes-json-schemas/master/v1.26.9/_definitions.json#/definitions/io.k8s.api.admissionregistration.v1alpha1.NamedRuleWithOperations"
      },
      "type": [
        "array",
        "null"
      ],
      "x-kubernetes-list-type": "atomic"
    },
    "matchPolicy": {
      "description": "matchPolicy defines how the \"MatchResources\" list is used to match incoming requests. Allowed values are \"Exact\" or \"Equivalent\".\n\n- Exact: match a request only if it exactly matches a specified rule. For example, if deployments can be modified via apps/v1, apps/v1beta1, and extensions/v1beta1, but \"rules\" only included `apiGroups:[\"apps\"], apiVersions:[\"v1\"], resources: [\"deployments\"]`, a request to apps/v1beta1 or extensions/v1beta1 would not be sent to the ValidatingAdmissionPolicy.\n\n- Equivalent: match a request if modifies a resource listed in rules, even via another API group or version. For example, if deployments can be modified via apps/v1, apps/v1beta1, and extensions/v1beta1, and \"rules\" only included `apiGroups:[\"apps\"], apiVersions:[\"v1\"], resources: [\"deployments\"]`, a request to apps/v1beta1 or extensions/v1beta1 would be converted to apps/v1 and sent to the ValidatingAdmissionPolicy.\n\nDefaults to \"Equivalent\"",
      "type": [
        "string",
        "null"
      ]
    },
    "namespaceSelector": {
      "$ref": "https://gitlab.cern.ch/jeedy-public/kubernetes-json-schemas/master/v1.26.9/_definitions.json#/definitions/io.k8s.apimachinery.pkg.apis.meta.v1.LabelSelector",
      "description": "NamespaceSelector decides whether to run the admission control policy on an object based on whether the namespace for that object matches the selector. If the object itself is a namespace, the matching is performed on object.metadata.labels. If the object is another cluster scoped resource, it never skips the policy.\n\nFor example, to run the webhook on any objects whose namespace is not associated with \"runlevel\" of \"0\" or \"1\";  you will set the selector as follows: \"namespaceSelector\": {\n  \"matchExpressions\": [\n    {\n      \"key\": \"runlevel\",\n      \"operator\": \"NotIn\",\n      \"values\": [\n        \"0\",\n        \"1\"\n      ]\n    }\n  ]\n}\n\nIf instead you want to only run the policy on any objects whose namespace is associated with the \"environment\" of \"prod\" or \"staging\"; you will set the selector as follows: \"namespaceSelector\": {\n  \"matchExpressions\": [\n    {\n      \"key\": \"environment\",\n      \"operator\": \"In\",\n      \"values\": [\n        \"prod\",\n        \"staging\"\n      ]\n    }\n  ]\n}\n\nSee https://kubernetes.io/docs/concepts/overview/working-with-objects/labels/ for more examples of label selectors.\n\nDefault to the empty LabelSelector, which matches everything."
    },
    "objectSelector": {
      "$ref": "https://gitlab.cern.ch/jeedy-public/kubernetes-json-schemas/master/v1.26.9/_definitions.json#/definitions/io.k8s.apimachinery.pkg.apis.meta.v1.LabelSelector",
      "description": "ObjectSelector decides whether to run the validation based on if the object has matching labels. objectSelector is evaluated against both the oldObject and newObject that would be sent to the cel validation, and is considered to match if either object matches the selector. A null object (oldObject in the case of create, or newObject in the case of delete) or an object that cannot have labels (like a DeploymentRollback or a PodProxyOptions object) is not considered to match. Use the object selector only if the webhook is opt-in, because end users may skip the admission webhook by setting the labels. Default to the empty LabelSelector, which matches everything."
    },
    "resourceRules": {
      "description": "ResourceRules describes what operations on what resources/subresources the ValidatingAdmissionPolicy matches. The policy cares about an operation if it matches _any_ Rule.",
      "items": {
        "$ref": "https://gitlab.cern.ch/jeedy-public/kubernetes-json-schemas/master/v1.26.9/_definitions.json#/definitions/io.k8s.api.admissionregistration.v1alpha1.NamedRuleWithOperations"
      },
      "type": [
        "array",
        "null"
      ],
      "x-kubernetes-list-type": "atomic"
    }
  },
  "type": "object",
  "x-kubernetes-map-type": "atomic",
  "$schema": "http://json-schema.org/schema#"
}