{
  "description": "NodeSpec describes the attributes that a node is created with.",
  "properties": {
    "configSource": {
      "$ref": "https://gitlab.cern.ch/jeedy-public/kubernetes-json-schemas/master/v1.26.9/_definitions.json#/definitions/io.k8s.api.core.v1.NodeConfigSource",
      "description": "Deprecated: Previously used to specify the source of the node's configuration for the DynamicKubeletConfig feature. This feature is removed."
    },
    "externalID": {
      "description": "Deprecated. Not all kubelets will set this field. Remove field after 1.13. see: https://issues.k8s.io/61966",
      "type": [
        "string",
        "null"
      ]
    },
    "podCIDR": {
      "description": "PodCIDR represents the pod IP range assigned to the node.",
      "type": [
        "string",
        "null"
      ]
    },
    "podCIDRs": {
      "description": "podCIDRs represents the IP ranges assigned to the node for usage by Pods on that node. If this field is specified, the 0th entry must match the podCIDR field. It may contain at most 1 value for each of IPv4 and IPv6.",
      "items": {
        "type": [
          "string",
          "null"
        ]
      },
      "type": [
        "array",
        "null"
      ],
      "x-kubernetes-patch-strategy": "merge"
    },
    "providerID": {
      "description": "ID of the node assigned by the cloud provider in the format: <ProviderName>://<ProviderSpecificNodeID>",
      "type": [
        "string",
        "null"
      ]
    },
    "taints": {
      "description": "If specified, the node's taints.",
      "items": {
        "$ref": "https://gitlab.cern.ch/jeedy-public/kubernetes-json-schemas/master/v1.26.9/_definitions.json#/definitions/io.k8s.api.core.v1.Taint"
      },
      "type": [
        "array",
        "null"
      ]
    },
    "unschedulable": {
      "description": "Unschedulable controls node schedulability of new pods. By default, node is schedulable. More info: https://kubernetes.io/docs/concepts/nodes/node/#manual-node-administration",
      "type": [
        "boolean",
        "null"
      ]
    }
  },
  "type": "object",
  "$schema": "http://json-schema.org/schema#"
}