{
  "description": "Event represents a single event to a watched resource.",
  "properties": {
    "object": {
      "$ref": "https://gitlab.cern.ch/jeedy-public/kubernetes-json-schemas/-/raw/master/v1.18.20/_definitions.json#/definitions/io.k8s.apimachinery.pkg.runtime.RawExtension",
      "description": "Object is:\n * If Type is Added or Modified: the new state of the object.\n * If Type is Deleted: the state of the object immediately before deletion.\n * If Type is Error: *Status is recommended; other types may make sense\n   depending on context."
    },
    "type": {
      "type": [
        "string",
        "null"
      ]
    }
  },
  "required": [
    "type",
    "object"
  ],
  "type": "object",
  "x-kubernetes-group-version-kind": [
    {
      "group": "",
      "kind": "WatchEvent",
      "version": "v1"
    },
    {
      "group": "admission.k8s.io",
      "kind": "WatchEvent",
      "version": "v1"
    },
    {
      "group": "admission.k8s.io",
      "kind": "WatchEvent",
      "version": "v1beta1"
    },
    {
      "group": "admissionregistration.k8s.io",
      "kind": "WatchEvent",
      "version": "v1"
    },
    {
      "group": "admissionregistration.k8s.io",
      "kind": "WatchEvent",
      "version": "v1beta1"
    },
    {
      "group": "apiextensions.k8s.io",
      "kind": "WatchEvent",
      "version": "v1"
    },
    {
      "group": "apiextensions.k8s.io",
      "kind": "WatchEvent",
      "version": "v1beta1"
    },
    {
      "group": "apiregistration.k8s.io",
      "kind": "WatchEvent",
      "version": "v1"
    },
    {
      "group": "apiregistration.k8s.io",
      "kind": "WatchEvent",
      "version": "v1beta1"
    },
    {
      "group": "apps",
      "kind": "WatchEvent",
      "version": "v1"
    },
    {
      "group": "apps",
      "kind": "WatchEvent",
      "version": "v1beta1"
    },
    {
      "group": "apps",
      "kind": "WatchEvent",
      "version": "v1beta2"
    },
    {
      "group": "auditregistration.k8s.io",
      "kind": "WatchEvent",
      "version": "v1alpha1"
    },
    {
      "group": "authentication.k8s.io",
      "kind": "WatchEvent",
      "version": "v1"
    },
    {
      "group": "authentication.k8s.io",
      "kind": "WatchEvent",
      "version": "v1beta1"
    },
    {
      "group": "authorization.k8s.io",
      "kind": "WatchEvent",
      "version": "v1"
    },
    {
      "group": "authorization.k8s.io",
      "kind": "WatchEvent",
      "version": "v1beta1"
    },
    {
      "group": "autoscaling",
      "kind": "WatchEvent",
      "version": "v1"
    },
    {
      "group": "autoscaling",
      "kind": "WatchEvent",
      "version": "v2beta1"
    },
    {
      "group": "autoscaling",
      "kind": "WatchEvent",
      "version": "v2beta2"
    },
    {
      "group": "batch",
      "kind": "WatchEvent",
      "version": "v1"
    },
    {
      "group": "batch",
      "kind": "WatchEvent",
      "version": "v1beta1"
    },
    {
      "group": "batch",
      "kind": "WatchEvent",
      "version": "v2alpha1"
    },
    {
      "group": "certificates.k8s.io",
      "kind": "WatchEvent",
      "version": "v1beta1"
    },
    {
      "group": "coordination.k8s.io",
      "kind": "WatchEvent",
      "version": "v1"
    },
    {
      "group": "coordination.k8s.io",
      "kind": "WatchEvent",
      "version": "v1beta1"
    },
    {
      "group": "discovery.k8s.io",
      "kind": "WatchEvent",
      "version": "v1alpha1"
    },
    {
      "group": "discovery.k8s.io",
      "kind": "WatchEvent",
      "version": "v1beta1"
    },
    {
      "group": "events.k8s.io",
      "kind": "WatchEvent",
      "version": "v1beta1"
    },
    {
      "group": "extensions",
      "kind": "WatchEvent",
      "version": "v1beta1"
    },
    {
      "group": "flowcontrol.apiserver.k8s.io",
      "kind": "WatchEvent",
      "version": "v1alpha1"
    },
    {
      "group": "imagepolicy.k8s.io",
      "kind": "WatchEvent",
      "version": "v1alpha1"
    },
    {
      "group": "networking.k8s.io",
      "kind": "WatchEvent",
      "version": "v1"
    },
    {
      "group": "networking.k8s.io",
      "kind": "WatchEvent",
      "version": "v1beta1"
    },
    {
      "group": "node.k8s.io",
      "kind": "WatchEvent",
      "version": "v1alpha1"
    },
    {
      "group": "node.k8s.io",
      "kind": "WatchEvent",
      "version": "v1beta1"
    },
    {
      "group": "policy",
      "kind": "WatchEvent",
      "version": "v1beta1"
    },
    {
      "group": "rbac.authorization.k8s.io",
      "kind": "WatchEvent",
      "version": "v1"
    },
    {
      "group": "rbac.authorization.k8s.io",
      "kind": "WatchEvent",
      "version": "v1alpha1"
    },
    {
      "group": "rbac.authorization.k8s.io",
      "kind": "WatchEvent",
      "version": "v1beta1"
    },
    {
      "group": "scheduling.k8s.io",
      "kind": "WatchEvent",
      "version": "v1"
    },
    {
      "group": "scheduling.k8s.io",
      "kind": "WatchEvent",
      "version": "v1alpha1"
    },
    {
      "group": "scheduling.k8s.io",
      "kind": "WatchEvent",
      "version": "v1beta1"
    },
    {
      "group": "settings.k8s.io",
      "kind": "WatchEvent",
      "version": "v1alpha1"
    },
    {
      "group": "storage.k8s.io",
      "kind": "WatchEvent",
      "version": "v1"
    },
    {
      "group": "storage.k8s.io",
      "kind": "WatchEvent",
      "version": "v1alpha1"
    },
    {
      "group": "storage.k8s.io",
      "kind": "WatchEvent",
      "version": "v1beta1"
    }
  ],
  "$schema": "http://json-schema.org/schema#"
}