{
  "description": "PodsMetricStatus indicates the current value of a metric describing each pod in the current scale target (for example, transactions-processed-per-second).",
  "properties": {
    "currentAverageValue": {
      "$ref": "https://gitlab.cern.ch/jeedy-public/kubernetes-json-schemas/-/raw/master/v1.23.5/_definitions.json#/definitions/io.k8s.apimachinery.pkg.api.resource.Quantity",
      "description": "currentAverageValue is the current value of the average of the metric across all relevant pods (as a quantity)"
    },
    "metricName": {
      "description": "metricName is the name of the metric in question",
      "type": [
        "string",
        "null"
      ]
    },
    "selector": {
      "$ref": "https://gitlab.cern.ch/jeedy-public/kubernetes-json-schemas/-/raw/master/v1.23.5/_definitions.json#/definitions/io.k8s.apimachinery.pkg.apis.meta.v1.LabelSelector",
      "description": "selector is the string-encoded form of a standard kubernetes label selector for the given metric When set in the PodsMetricSource, it is passed as an additional parameter to the metrics server for more specific metrics scoping. When unset, just the metricName will be used to gather metrics."
    }
  },
  "required": [
    "metricName",
    "currentAverageValue"
  ],
  "type": "object",
  "$schema": "http://json-schema.org/schema#"
}