{
  "description": "Storage version of a specific resource.",
  "properties": {
    "apiVersion": {
      "description": "APIVersion defines the versioned schema of this representation of an object. Servers should convert recognized schemas to the latest internal value, and may reject unrecognized values. More info: https://git.k8s.io/community/contributors/devel/sig-architecture/api-conventions.md#resources",
      "type": [
        "string",
        "null"
      ]
    },
    "kind": {
      "description": "Kind is a string value representing the REST resource this object represents. Servers may infer this from the endpoint the client submits requests to. Cannot be updated. In CamelCase. More info: https://git.k8s.io/community/contributors/devel/sig-architecture/api-conventions.md#types-kinds",
      "type": [
        "string",
        "null"
      ],
      "enum": [
        "StorageVersion"
      ]
    },
    "metadata": {
      "$ref": "https://gitlab.cern.ch/jeedy-public/kubernetes-json-schemas/-/raw/master/v1.25.5/_definitions.json#/definitions/io.k8s.apimachinery.pkg.apis.meta.v1.ObjectMeta",
      "description": "The name is <group>.<resource>."
    },
    "spec": {
      "$ref": "https://gitlab.cern.ch/jeedy-public/kubernetes-json-schemas/-/raw/master/v1.25.5/_definitions.json#/definitions/io.k8s.api.apiserverinternal.v1alpha1.StorageVersionSpec",
      "description": "Spec is an empty spec. It is here to comply with Kubernetes API style."
    },
    "status": {
      "$ref": "https://gitlab.cern.ch/jeedy-public/kubernetes-json-schemas/-/raw/master/v1.25.5/_definitions.json#/definitions/io.k8s.api.apiserverinternal.v1alpha1.StorageVersionStatus",
      "description": "API server instances report the version they can decode and the version they encode objects to when persisting objects in the backend."
    }
  },
  "required": [
    "spec",
    "status"
  ],
  "type": "object",
  "x-kubernetes-group-version-kind": [
    {
      "group": "internal.apiserver.k8s.io",
      "kind": "StorageVersion",
      "version": "v1alpha1"
    }
  ],
  "$schema": "http://json-schema.org/schema#"
}