{
  "description": "EventSeries contain information on series of events, i.e. thing that was/is happening continuously for some time.",
  "properties": {
    "count": {
      "description": "Number of occurrences in this series up to the last heartbeat time",
      "format": "int32",
      "type": [
        "integer",
        "null"
      ]
    },
    "lastObservedTime": {
      "$ref": "https://gitlab.cern.ch/jeedy-public/kubernetes-json-schemas/master/v1.24.14/_definitions.json#/definitions/io.k8s.apimachinery.pkg.apis.meta.v1.MicroTime",
      "description": "Time of the last occurrence observed"
    }
  },
  "type": "object",
  "$schema": "http://json-schema.org/schema#"
}