{
  "description": "FlowSchema defines the schema of a group of flows. Note that a flow is made up of a set of inbound API requests with similar attributes and is identified by a pair of strings: the name of the FlowSchema and a \"flow distinguisher\".",
  "properties": {
    "apiVersion": {
      "description": "APIVersion defines the versioned schema of this representation of an object. Servers should convert recognized schemas to the latest internal value, and may reject unrecognized values. More info: https://git.k8s.io/community/contributors/devel/sig-architecture/api-conventions.md#resources",
      "type": [
        "string",
        "null"
      ],
      "enum": [
        "flowcontrol.apiserver.k8s.io/v1alpha1"
      ]
    },
    "kind": {
      "description": "Kind is a string value representing the REST resource this object represents. Servers may infer this from the endpoint the client submits requests to. Cannot be updated. In CamelCase. More info: https://git.k8s.io/community/contributors/devel/sig-architecture/api-conventions.md#types-kinds",
      "type": [
        "string",
        "null"
      ],
      "enum": [
        "FlowSchema"
      ]
    },
    "metadata": {
      "$ref": "https://gitlab.cern.ch/jeedy-public/kubernetes-json-schemas/-/raw/master/v1.18.0/_definitions.json#/definitions/io.k8s.apimachinery.pkg.apis.meta.v1.ObjectMeta",
      "description": "`metadata` is the standard object's metadata. More info: https://git.k8s.io/community/contributors/devel/api-conventions.md#metadata"
    },
    "spec": {
      "$ref": "https://gitlab.cern.ch/jeedy-public/kubernetes-json-schemas/-/raw/master/v1.18.0/_definitions.json#/definitions/io.k8s.api.flowcontrol.v1alpha1.FlowSchemaSpec",
      "description": "`spec` is the specification of the desired behavior of a FlowSchema. More info: https://git.k8s.io/community/contributors/devel/api-conventions.md#spec-and-status"
    },
    "status": {
      "$ref": "https://gitlab.cern.ch/jeedy-public/kubernetes-json-schemas/-/raw/master/v1.18.0/_definitions.json#/definitions/io.k8s.api.flowcontrol.v1alpha1.FlowSchemaStatus",
      "description": "`status` is the current status of a FlowSchema. More info: https://git.k8s.io/community/contributors/devel/api-conventions.md#spec-and-status"
    }
  },
  "type": "object",
  "x-kubernetes-group-version-kind": [
    {
      "group": "flowcontrol.apiserver.k8s.io",
      "kind": "FlowSchema",
      "version": "v1alpha1"
    }
  ],
  "$schema": "http://json-schema.org/schema#"
}