{
  "description": "CSIStorageCapacity stores the result of one CSI GetCapacity call. For a given StorageClass, this describes the available capacity in a particular topology segment.  This can be used when considering where to instantiate new PersistentVolumes.\n\nFor example this can express things like: - StorageClass \"standard\" has \"1234 GiB\" available in \"topology.kubernetes.io/zone=us-east1\" - StorageClass \"localssd\" has \"10 GiB\" available in \"kubernetes.io/hostname=knode-abc123\"\n\nThe following three cases all imply that no capacity is available for a certain combination: - no object exists with suitable topology and storage class name - such an object exists, but the capacity is unset - such an object exists, but the capacity is zero\n\nThe producer of these objects can decide which approach is more suitable.\n\nThey are consumed by the kube-scheduler if the CSIStorageCapacity beta feature gate is enabled there and a CSI driver opts into capacity-aware scheduling with CSIDriver.StorageCapacity.",
  "properties": {
    "apiVersion": {
      "description": "APIVersion defines the versioned schema of this representation of an object. Servers should convert recognized schemas to the latest internal value, and may reject unrecognized values. More info: https://git.k8s.io/community/contributors/devel/sig-architecture/api-conventions.md#resources",
      "type": [
        "string",
        "null"
      ],
      "enum": [
        "storage.k8s.io/v1alpha1"
      ]
    },
    "capacity": {
      "$ref": "https://gitlab.cern.ch/jeedy-public/kubernetes-json-schemas/-/raw/master/v1.22.13/_definitions.json#/definitions/io.k8s.apimachinery.pkg.api.resource.Quantity",
      "description": "Capacity is the value reported by the CSI driver in its GetCapacityResponse for a GetCapacityRequest with topology and parameters that match the previous fields.\n\nThe semantic is currently (CSI spec 1.2) defined as: The available capacity, in bytes, of the storage that can be used to provision volumes. If not set, that information is currently unavailable and treated like zero capacity."
    },
    "kind": {
      "description": "Kind is a string value representing the REST resource this object represents. Servers may infer this from the endpoint the client submits requests to. Cannot be updated. In CamelCase. More info: https://git.k8s.io/community/contributors/devel/sig-architecture/api-conventions.md#types-kinds",
      "type": [
        "string",
        "null"
      ],
      "enum": [
        "CSIStorageCapacity"
      ]
    },
    "maximumVolumeSize": {
      "$ref": "https://gitlab.cern.ch/jeedy-public/kubernetes-json-schemas/-/raw/master/v1.22.13/_definitions.json#/definitions/io.k8s.apimachinery.pkg.api.resource.Quantity",
      "description": "MaximumVolumeSize is the value reported by the CSI driver in its GetCapacityResponse for a GetCapacityRequest with topology and parameters that match the previous fields.\n\nThis is defined since CSI spec 1.4.0 as the largest size that may be used in a CreateVolumeRequest.capacity_range.required_bytes field to create a volume with the same parameters as those in GetCapacityRequest. The corresponding value in the Kubernetes API is ResourceRequirements.Requests in a volume claim."
    },
    "metadata": {
      "$ref": "https://gitlab.cern.ch/jeedy-public/kubernetes-json-schemas/-/raw/master/v1.22.13/_definitions.json#/definitions/io.k8s.apimachinery.pkg.apis.meta.v1.ObjectMeta",
      "description": "Standard object's metadata. The name has no particular meaning. It must be be a DNS subdomain (dots allowed, 253 characters). To ensure that there are no conflicts with other CSI drivers on the cluster, the recommendation is to use csisc-<uuid>, a generated name, or a reverse-domain name which ends with the unique CSI driver name.\n\nObjects are namespaced.\n\nMore info: https://git.k8s.io/community/contributors/devel/sig-architecture/api-conventions.md#metadata"
    },
    "nodeTopology": {
      "$ref": "https://gitlab.cern.ch/jeedy-public/kubernetes-json-schemas/-/raw/master/v1.22.13/_definitions.json#/definitions/io.k8s.apimachinery.pkg.apis.meta.v1.LabelSelector",
      "description": "NodeTopology defines which nodes have access to the storage for which capacity was reported. If not set, the storage is not accessible from any node in the cluster. If empty, the storage is accessible from all nodes. This field is immutable."
    },
    "storageClassName": {
      "description": "The name of the StorageClass that the reported capacity applies to. It must meet the same requirements as the name of a StorageClass object (non-empty, DNS subdomain). If that object no longer exists, the CSIStorageCapacity object is obsolete and should be removed by its creator. This field is immutable.",
      "type": [
        "string",
        "null"
      ]
    }
  },
  "required": [
    "storageClassName"
  ],
  "type": "object",
  "x-kubernetes-group-version-kind": [
    {
      "group": "storage.k8s.io",
      "kind": "CSIStorageCapacity",
      "version": "v1alpha1"
    }
  ],
  "$schema": "http://json-schema.org/schema#"
}