{
  "description": "EndpointSubset is a group of addresses with a common set of ports. The expanded set of endpoints is the Cartesian product of Addresses x Ports. For example, given:\n  {\n    Addresses: [{\"ip\": \"10.10.1.1\"}, {\"ip\": \"10.10.2.2\"}],\n    Ports:     [{\"name\": \"a\", \"port\": 8675}, {\"name\": \"b\", \"port\": 309}]\n  }\nThe resulting set of endpoints can be viewed as:\n    a: [ 10.10.1.1:8675, 10.10.2.2:8675 ],\n    b: [ 10.10.1.1:309, 10.10.2.2:309 ]",
  "properties": {
    "addresses": {
      "description": "IP addresses which offer the related ports that are marked as ready. These endpoints should be considered safe for load balancers and clients to utilize.",
      "items": {
        "$ref": "https://gitlab.cern.ch/jeedy-public/kubernetes-json-schemas/-/raw/master/v1.22.13/_definitions.json#/definitions/io.k8s.api.core.v1.EndpointAddress"
      },
      "type": [
        "array",
        "null"
      ]
    },
    "notReadyAddresses": {
      "description": "IP addresses which offer the related ports but are not currently marked as ready because they have not yet finished starting, have recently failed a readiness check, or have recently failed a liveness check.",
      "items": {
        "$ref": "https://gitlab.cern.ch/jeedy-public/kubernetes-json-schemas/-/raw/master/v1.22.13/_definitions.json#/definitions/io.k8s.api.core.v1.EndpointAddress"
      },
      "type": [
        "array",
        "null"
      ]
    },
    "ports": {
      "description": "Port numbers available on the related IP addresses.",
      "items": {
        "$ref": "https://gitlab.cern.ch/jeedy-public/kubernetes-json-schemas/-/raw/master/v1.22.13/_definitions.json#/definitions/io.k8s.api.core.v1.EndpointPort"
      },
      "type": [
        "array",
        "null"
      ]
    }
  },
  "type": "object",
  "$schema": "http://json-schema.org/schema#"
}