{
  "description": "ObjectMetricSource indicates how to scale on a metric describing a kubernetes object (for example, hits-per-second on an Ingress object).",
  "properties": {
    "describedObject": {
      "$ref": "https://gitlab.cern.ch/jeedy-public/kubernetes-json-schemas/-/raw/master/v1.19.4/_definitions.json#/definitions/io.k8s.api.autoscaling.v2beta2.CrossVersionObjectReference"
    },
    "metric": {
      "$ref": "https://gitlab.cern.ch/jeedy-public/kubernetes-json-schemas/-/raw/master/v1.19.4/_definitions.json#/definitions/io.k8s.api.autoscaling.v2beta2.MetricIdentifier",
      "description": "metric identifies the target metric by name and selector"
    },
    "target": {
      "$ref": "https://gitlab.cern.ch/jeedy-public/kubernetes-json-schemas/-/raw/master/v1.19.4/_definitions.json#/definitions/io.k8s.api.autoscaling.v2beta2.MetricTarget",
      "description": "target specifies the target value for the given metric"
    }
  },
  "required": [
    "describedObject",
    "target",
    "metric"
  ],
  "type": "object",
  "$schema": "http://json-schema.org/schema#"
}