{
  "description": "IPAddress represents a single IP of a single IP Family. The object is designed to be used by APIs that operate on IP addresses. The object is used by the Service core API for allocation of IP addresses. An IP address can be represented in different formats, to guarantee the uniqueness of the IP, the name of the object is the IP address in canonical format, four decimal digits separated by dots suppressing leading zeros for IPv4 and the representation defined by RFC 5952 for IPv6. Valid: 192.168.1.5 or 2001:db8::1 or 2001:db8:aaaa:bbbb:cccc:dddd:eeee:1 Invalid: 10.01.2.3 or 2001:db8:0:0:0::1",
  "properties": {
    "apiVersion": {
      "description": "APIVersion defines the versioned schema of this representation of an object. Servers should convert recognized schemas to the latest internal value, and may reject unrecognized values. More info: https://git.k8s.io/community/contributors/devel/sig-architecture/api-conventions.md#resources",
      "type": [
        "string",
        "null"
      ]
    },
    "kind": {
      "description": "Kind is a string value representing the REST resource this object represents. Servers may infer this from the endpoint the client submits requests to. Cannot be updated. In CamelCase. More info: https://git.k8s.io/community/contributors/devel/sig-architecture/api-conventions.md#types-kinds",
      "type": [
        "string",
        "null"
      ],
      "enum": [
        "IPAddress"
      ]
    },
    "metadata": {
      "$ref": "https://gitlab.cern.ch/jeedy-public/kubernetes-json-schemas/master/v1.27.5/_definitions.json#/definitions/io.k8s.apimachinery.pkg.apis.meta.v1.ObjectMeta",
      "description": "Standard object's metadata. More info: https://git.k8s.io/community/contributors/devel/sig-architecture/api-conventions.md#metadata"
    },
    "spec": {
      "$ref": "https://gitlab.cern.ch/jeedy-public/kubernetes-json-schemas/master/v1.27.5/_definitions.json#/definitions/io.k8s.api.networking.v1alpha1.IPAddressSpec",
      "description": "spec is the desired state of the IPAddress. More info: https://git.k8s.io/community/contributors/devel/sig-architecture/api-conventions.md#spec-and-status"
    }
  },
  "type": "object",
  "x-kubernetes-group-version-kind": [
    {
      "group": "networking.k8s.io",
      "kind": "IPAddress",
      "version": "v1alpha1"
    }
  ],
  "$schema": "http://json-schema.org/schema#"
}