{
  "description": "SelfSubjectReviewStatus is filled by the kube-apiserver and sent back to a user.",
  "properties": {
    "userInfo": {
      "$ref": "https://gitlab.cern.ch/jeedy-public/kubernetes-json-schemas/master/v1.27.5/_definitions.json#/definitions/io.k8s.api.authentication.v1.UserInfo",
      "description": "User attributes of the user making this request."
    }
  },
  "type": "object",
  "$schema": "http://json-schema.org/schema#"
}