{
  "description": "PodDisruptionBudgetSpec is a description of a PodDisruptionBudget.",
  "properties": {
    "maxUnavailable": {
      "$ref": "https://gitlab.cern.ch/jeedy-public/kubernetes-json-schemas/master/v1.26.5/_definitions.json#/definitions/io.k8s.apimachinery.pkg.util.intstr.IntOrString",
      "description": "An eviction is allowed if at most \"maxUnavailable\" pods selected by \"selector\" are unavailable after the eviction, i.e. even in absence of the evicted pod. For example, one can prevent all voluntary evictions by specifying 0. This is a mutually exclusive setting with \"minAvailable\"."
    },
    "minAvailable": {
      "$ref": "https://gitlab.cern.ch/jeedy-public/kubernetes-json-schemas/master/v1.26.5/_definitions.json#/definitions/io.k8s.apimachinery.pkg.util.intstr.IntOrString",
      "description": "An eviction is allowed if at least \"minAvailable\" pods selected by \"selector\" will still be available after the eviction, i.e. even in the absence of the evicted pod.  So for example you can prevent all voluntary evictions by specifying \"100%\"."
    },
    "selector": {
      "$ref": "https://gitlab.cern.ch/jeedy-public/kubernetes-json-schemas/master/v1.26.5/_definitions.json#/definitions/io.k8s.apimachinery.pkg.apis.meta.v1.LabelSelector",
      "description": "Label query over pods whose evictions are managed by the disruption budget. A null selector will match no pods, while an empty ({}) selector will select all pods within the namespace.",
      "x-kubernetes-patch-strategy": "replace"
    },
    "unhealthyPodEvictionPolicy": {
      "description": "UnhealthyPodEvictionPolicy defines the criteria for when unhealthy pods should be considered for eviction. Current implementation considers healthy pods, as pods that have status.conditions item with type=\"Ready\",status=\"True\".\n\nValid policies are IfHealthyBudget and AlwaysAllow. If no policy is specified, the default behavior will be used, which corresponds to the IfHealthyBudget policy.\n\nIfHealthyBudget policy means that running pods (status.phase=\"Running\"), but not yet healthy can be evicted only if the guarded application is not disrupted (status.currentHealthy is at least equal to status.desiredHealthy). Healthy pods will be subject to the PDB for eviction.\n\nAlwaysAllow policy means that all running pods (status.phase=\"Running\"), but not yet healthy are considered disrupted and can be evicted regardless of whether the criteria in a PDB is met. This means perspective running pods of a disrupted application might not get a chance to become healthy. Healthy pods will be subject to the PDB for eviction.\n\nAdditional policies may be added in the future. Clients making eviction decisions should disallow eviction of unhealthy pods if they encounter an unrecognized policy in this field.\n\nThis field is alpha-level. The eviction API uses this field when the feature gate PDBUnhealthyPodEvictionPolicy is enabled (disabled by default).",
      "type": [
        "string",
        "null"
      ]
    }
  },
  "type": "object",
  "$schema": "http://json-schema.org/schema#"
}