{
  "description": "MutatingWebhookConfiguration describes the configuration of and admission webhook that accept or reject and may change the object.",
  "properties": {
    "apiVersion": {
      "description": "APIVersion defines the versioned schema of this representation of an object. Servers should convert recognized schemas to the latest internal value, and may reject unrecognized values. More info: https://git.k8s.io/community/contributors/devel/api-conventions.md#resources",
      "type": [
        "string",
        "null"
      ]
    },
    "kind": {
      "description": "Kind is a string value representing the REST resource this object represents. Servers may infer this from the endpoint the client submits requests to. Cannot be updated. In CamelCase. More info: https://git.k8s.io/community/contributors/devel/api-conventions.md#types-kinds",
      "type": [
        "string",
        "null"
      ],
      "enum": [
        "MutatingWebhookConfiguration"
      ]
    },
    "metadata": {
      "$ref": "https://gitlab.cern.ch/jeedy-public/kubernetes-json-schemas/-/raw/master/v1.15.7/_definitions.json#/definitions/io.k8s.apimachinery.pkg.apis.meta.v1.ObjectMeta",
      "description": "Standard object metadata; More info: https://git.k8s.io/community/contributors/devel/api-conventions.md#metadata."
    },
    "webhooks": {
      "description": "Webhooks is a list of webhooks and the affected resources and operations.",
      "items": {
        "$ref": "https://gitlab.cern.ch/jeedy-public/kubernetes-json-schemas/-/raw/master/v1.15.7/_definitions.json#/definitions/io.k8s.api.admissionregistration.v1beta1.MutatingWebhook"
      },
      "type": [
        "array",
        "null"
      ],
      "x-kubernetes-patch-merge-key": "name",
      "x-kubernetes-patch-strategy": "merge"
    }
  },
  "type": "object",
  "x-kubernetes-group-version-kind": [
    {
      "group": "admissionregistration.k8s.io",
      "kind": "MutatingWebhookConfiguration",
      "version": "v1beta1"
    }
  ],
  "$schema": "http://json-schema.org/schema#"
}