{
  "description": "PersistentVolumeClaimTemplate is used to produce PersistentVolumeClaim objects as part of an EphemeralVolumeSource.",
  "properties": {
    "metadata": {
      "$ref": "https://gitlab.cern.ch/jeedy-public/kubernetes-json-schemas/-/raw/master/v1.19.15/_definitions.json#/definitions/io.k8s.apimachinery.pkg.apis.meta.v1.ObjectMeta",
      "description": "May contain labels and annotations that will be copied into the PVC when creating it. No other fields are allowed and will be rejected during validation."
    },
    "spec": {
      "$ref": "https://gitlab.cern.ch/jeedy-public/kubernetes-json-schemas/-/raw/master/v1.19.15/_definitions.json#/definitions/io.k8s.api.core.v1.PersistentVolumeClaimSpec",
      "description": "The specification for the PersistentVolumeClaim. The entire content is copied unchanged into the PVC that gets created from this template. The same fields as in a PersistentVolumeClaim are also valid here."
    }
  },
  "required": [
    "spec"
  ],
  "type": "object",
  "$schema": "http://json-schema.org/schema#"
}