{
  "description": "An empty preferred scheduling term matches all objects with implicit weight 0 (i.e. it's a no-op). A null preferred scheduling term matches no objects (i.e. is also a no-op).",
  "properties": {
    "preference": {
      "$ref": "https://gitlab.cern.ch/jeedy-public/kubernetes-json-schemas/-/raw/master/v1.19.15/_definitions.json#/definitions/io.k8s.api.core.v1.NodeSelectorTerm",
      "description": "A node selector term, associated with the corresponding weight."
    },
    "weight": {
      "description": "Weight associated with matching the corresponding nodeSelectorTerm, in the range 1-100.",
      "format": "int32",
      "type": [
        "integer",
        "null"
      ]
    }
  },
  "required": [
    "weight",
    "preference"
  ],
  "type": "object",
  "$schema": "http://json-schema.org/schema#"
}