{
  "description": "PriorityLevelConfigurationCondition defines the condition of priority level.",
  "properties": {
    "lastTransitionTime": {
      "$ref": "https://gitlab.cern.ch/jeedy-public/kubernetes-json-schemas/-/raw/master/v1.19.15/_definitions.json#/definitions/io.k8s.apimachinery.pkg.apis.meta.v1.Time",
      "description": "`lastTransitionTime` is the last time the condition transitioned from one status to another."
    },
    "message": {
      "description": "`message` is a human-readable message indicating details about last transition.",
      "type": [
        "string",
        "null"
      ]
    },
    "reason": {
      "description": "`reason` is a unique, one-word, CamelCase reason for the condition's last transition.",
      "type": [
        "string",
        "null"
      ]
    },
    "status": {
      "description": "`status` is the status of the condition. Can be True, False, Unknown. Required.",
      "type": [
        "string",
        "null"
      ]
    },
    "type": {
      "description": "`type` is the type of the condition. Required.",
      "type": [
        "string",
        "null"
      ]
    }
  },
  "type": "object",
  "$schema": "http://json-schema.org/schema#"
}