{
  "description": "CustomResourceDefinitionStatus indicates the state of the CustomResourceDefinition",
  "properties": {
    "acceptedNames": {
      "$ref": "https://gitlab.cern.ch/jeedy-public/kubernetes-json-schemas/-/raw/master/v1.15.3/_definitions.json#/definitions/io.k8s.apiextensions-apiserver.pkg.apis.apiextensions.v1beta1.CustomResourceDefinitionNames",
      "description": "AcceptedNames are the names that are actually being used to serve discovery They may be different than the names in spec."
    },
    "conditions": {
      "description": "Conditions indicate state for particular aspects of a CustomResourceDefinition",
      "items": {
        "$ref": "https://gitlab.cern.ch/jeedy-public/kubernetes-json-schemas/-/raw/master/v1.15.3/_definitions.json#/definitions/io.k8s.apiextensions-apiserver.pkg.apis.apiextensions.v1beta1.CustomResourceDefinitionCondition"
      },
      "type": [
        "array",
        "null"
      ]
    },
    "storedVersions": {
      "description": "StoredVersions are all versions of CustomResources that were ever persisted. Tracking these versions allows a migration path for stored versions in etcd. The field is mutable so the migration controller can first finish a migration to another version (i.e. that no old objects are left in the storage), and then remove the rest of the versions from this list. None of the versions in this list can be removed from the spec.Versions field.",
      "items": {
        "type": [
          "string",
          "null"
        ]
      },
      "type": [
        "array",
        "null"
      ]
    }
  },
  "required": [
    "conditions",
    "acceptedNames",
    "storedVersions"
  ],
  "type": "object",
  "$schema": "http://json-schema.org/schema#"
}