{
  "description": "Initializers tracks the progress of initialization.",
  "properties": {
    "pending": {
      "description": "Pending is a list of initializers that must execute in order before this object is visible. When the last pending initializer is removed, and no failing result is set, the initializers struct will be set to nil and the object is considered as initialized and visible to all clients.",
      "items": {
        "$ref": "https://gitlab.cern.ch/jeedy-public/kubernetes-json-schemas/-/raw/master/v1.15.3/_definitions.json#/definitions/io.k8s.apimachinery.pkg.apis.meta.v1.Initializer"
      },
      "type": [
        "array",
        "null"
      ],
      "x-kubernetes-patch-merge-key": "name",
      "x-kubernetes-patch-strategy": "merge"
    },
    "result": {
      "$ref": "https://gitlab.cern.ch/jeedy-public/kubernetes-json-schemas/-/raw/master/v1.15.3/_definitions.json#/definitions/io.k8s.apimachinery.pkg.apis.meta.v1.Status",
      "description": "If result is set with the Failure field, the object will be persisted to storage and then deleted, ensuring that other clients can observe the deletion."
    }
  },
  "required": [
    "pending"
  ],
  "type": "object",
  "$schema": "http://json-schema.org/schema#"
}