{
  "description": "TokenReviewStatus is the result of the token authentication request.",
  "properties": {
    "audiences": {
      "description": "Audiences are audience identifiers chosen by the authenticator that are compatible with both the TokenReview and token. An identifier is any identifier in the intersection of the TokenReviewSpec audiences and the token's audiences. A client of the TokenReview API that sets the spec.audiences field should validate that a compatible audience identifier is returned in the status.audiences field to ensure that the TokenReview server is audience aware. If a TokenReview returns an empty status.audience field where status.authenticated is \"true\", the token is valid against the audience of the Kubernetes API server.",
      "items": {
        "type": [
          "string",
          "null"
        ]
      },
      "type": [
        "array",
        "null"
      ]
    },
    "authenticated": {
      "description": "Authenticated indicates that the token was associated with a known user.",
      "type": [
        "boolean",
        "null"
      ]
    },
    "error": {
      "description": "Error indicates that the token couldn't be checked",
      "type": [
        "string",
        "null"
      ]
    },
    "user": {
      "$ref": "https://gitlab.cern.ch/jeedy-public/kubernetes-json-schemas/-/raw/master/v1.15.3/_definitions.json#/definitions/io.k8s.api.authentication.v1beta1.UserInfo",
      "description": "User is the UserInfo associated with the provided token."
    }
  },
  "type": "object",
  "$schema": "http://json-schema.org/schema#"
}