{
  "description": "DeleteOptions may be provided when deleting an API object.",
  "properties": {
    "apiVersion": {
      "description": "APIVersion defines the versioned schema of this representation of an object. Servers should convert recognized schemas to the latest internal value, and may reject unrecognized values. More info: https://git.k8s.io/community/contributors/devel/sig-architecture/api-conventions.md#resources",
      "type": [
        "string",
        "null"
      ]
    },
    "dryRun": {
      "description": "When present, indicates that modifications should not be persisted. An invalid or unrecognized dryRun directive will result in an error response and no further processing of the request. Valid values are: - All: all dry run stages will be processed",
      "items": {
        "type": [
          "string",
          "null"
        ]
      },
      "type": [
        "array",
        "null"
      ]
    },
    "gracePeriodSeconds": {
      "description": "The duration in seconds before the object should be deleted. Value must be non-negative integer. The value zero indicates delete immediately. If this value is nil, the default grace period for the specified type will be used. Defaults to a per object value if not specified. zero means delete immediately.",
      "format": "int64",
      "type": [
        "integer",
        "null"
      ]
    },
    "kind": {
      "description": "Kind is a string value representing the REST resource this object represents. Servers may infer this from the endpoint the client submits requests to. Cannot be updated. In CamelCase. More info: https://git.k8s.io/community/contributors/devel/sig-architecture/api-conventions.md#types-kinds",
      "type": [
        "string",
        "null"
      ],
      "enum": [
        "DeleteOptions"
      ]
    },
    "orphanDependents": {
      "description": "Deprecated: please use the PropagationPolicy, this field will be deprecated in 1.7. Should the dependent objects be orphaned. If true/false, the \"orphan\" finalizer will be added to/removed from the object's finalizers list. Either this field or PropagationPolicy may be set, but not both.",
      "type": [
        "boolean",
        "null"
      ]
    },
    "preconditions": {
      "$ref": "https://gitlab.cern.ch/jeedy-public/kubernetes-json-schemas/-/raw/master/v1.23.2/_definitions.json#/definitions/io.k8s.apimachinery.pkg.apis.meta.v1.Preconditions",
      "description": "Must be fulfilled before a deletion is carried out. If not possible, a 409 Conflict status will be returned."
    },
    "propagationPolicy": {
      "description": "Whether and how garbage collection will be performed. Either this field or OrphanDependents may be set, but not both. The default policy is decided by the existing finalizer set in the metadata.finalizers and the resource-specific default policy. Acceptable values are: 'Orphan' - orphan the dependents; 'Background' - allow the garbage collector to delete the dependents in the background; 'Foreground' - a cascading policy that deletes all dependents in the foreground.",
      "type": [
        "string",
        "null"
      ]
    }
  },
  "type": "object",
  "x-kubernetes-group-version-kind": [
    {
      "group": "",
      "kind": "DeleteOptions",
      "version": "v1"
    },
    {
      "group": "admission.k8s.io",
      "kind": "DeleteOptions",
      "version": "v1"
    },
    {
      "group": "admission.k8s.io",
      "kind": "DeleteOptions",
      "version": "v1beta1"
    },
    {
      "group": "admissionregistration.k8s.io",
      "kind": "DeleteOptions",
      "version": "v1"
    },
    {
      "group": "admissionregistration.k8s.io",
      "kind": "DeleteOptions",
      "version": "v1beta1"
    },
    {
      "group": "apiextensions.k8s.io",
      "kind": "DeleteOptions",
      "version": "v1"
    },
    {
      "group": "apiextensions.k8s.io",
      "kind": "DeleteOptions",
      "version": "v1beta1"
    },
    {
      "group": "apiregistration.k8s.io",
      "kind": "DeleteOptions",
      "version": "v1"
    },
    {
      "group": "apiregistration.k8s.io",
      "kind": "DeleteOptions",
      "version": "v1beta1"
    },
    {
      "group": "apps",
      "kind": "DeleteOptions",
      "version": "v1"
    },
    {
      "group": "apps",
      "kind": "DeleteOptions",
      "version": "v1beta1"
    },
    {
      "group": "apps",
      "kind": "DeleteOptions",
      "version": "v1beta2"
    },
    {
      "group": "authentication.k8s.io",
      "kind": "DeleteOptions",
      "version": "v1"
    },
    {
      "group": "authentication.k8s.io",
      "kind": "DeleteOptions",
      "version": "v1beta1"
    },
    {
      "group": "authorization.k8s.io",
      "kind": "DeleteOptions",
      "version": "v1"
    },
    {
      "group": "authorization.k8s.io",
      "kind": "DeleteOptions",
      "version": "v1beta1"
    },
    {
      "group": "autoscaling",
      "kind": "DeleteOptions",
      "version": "v1"
    },
    {
      "group": "autoscaling",
      "kind": "DeleteOptions",
      "version": "v2"
    },
    {
      "group": "autoscaling",
      "kind": "DeleteOptions",
      "version": "v2beta1"
    },
    {
      "group": "autoscaling",
      "kind": "DeleteOptions",
      "version": "v2beta2"
    },
    {
      "group": "batch",
      "kind": "DeleteOptions",
      "version": "v1"
    },
    {
      "group": "batch",
      "kind": "DeleteOptions",
      "version": "v1beta1"
    },
    {
      "group": "certificates.k8s.io",
      "kind": "DeleteOptions",
      "version": "v1"
    },
    {
      "group": "certificates.k8s.io",
      "kind": "DeleteOptions",
      "version": "v1beta1"
    },
    {
      "group": "coordination.k8s.io",
      "kind": "DeleteOptions",
      "version": "v1"
    },
    {
      "group": "coordination.k8s.io",
      "kind": "DeleteOptions",
      "version": "v1beta1"
    },
    {
      "group": "discovery.k8s.io",
      "kind": "DeleteOptions",
      "version": "v1"
    },
    {
      "group": "discovery.k8s.io",
      "kind": "DeleteOptions",
      "version": "v1beta1"
    },
    {
      "group": "events.k8s.io",
      "kind": "DeleteOptions",
      "version": "v1"
    },
    {
      "group": "events.k8s.io",
      "kind": "DeleteOptions",
      "version": "v1beta1"
    },
    {
      "group": "extensions",
      "kind": "DeleteOptions",
      "version": "v1beta1"
    },
    {
      "group": "flowcontrol.apiserver.k8s.io",
      "kind": "DeleteOptions",
      "version": "v1alpha1"
    },
    {
      "group": "flowcontrol.apiserver.k8s.io",
      "kind": "DeleteOptions",
      "version": "v1beta1"
    },
    {
      "group": "flowcontrol.apiserver.k8s.io",
      "kind": "DeleteOptions",
      "version": "v1beta2"
    },
    {
      "group": "imagepolicy.k8s.io",
      "kind": "DeleteOptions",
      "version": "v1alpha1"
    },
    {
      "group": "internal.apiserver.k8s.io",
      "kind": "DeleteOptions",
      "version": "v1alpha1"
    },
    {
      "group": "networking.k8s.io",
      "kind": "DeleteOptions",
      "version": "v1"
    },
    {
      "group": "networking.k8s.io",
      "kind": "DeleteOptions",
      "version": "v1beta1"
    },
    {
      "group": "node.k8s.io",
      "kind": "DeleteOptions",
      "version": "v1"
    },
    {
      "group": "node.k8s.io",
      "kind": "DeleteOptions",
      "version": "v1alpha1"
    },
    {
      "group": "node.k8s.io",
      "kind": "DeleteOptions",
      "version": "v1beta1"
    },
    {
      "group": "policy",
      "kind": "DeleteOptions",
      "version": "v1"
    },
    {
      "group": "policy",
      "kind": "DeleteOptions",
      "version": "v1beta1"
    },
    {
      "group": "rbac.authorization.k8s.io",
      "kind": "DeleteOptions",
      "version": "v1"
    },
    {
      "group": "rbac.authorization.k8s.io",
      "kind": "DeleteOptions",
      "version": "v1alpha1"
    },
    {
      "group": "rbac.authorization.k8s.io",
      "kind": "DeleteOptions",
      "version": "v1beta1"
    },
    {
      "group": "scheduling.k8s.io",
      "kind": "DeleteOptions",
      "version": "v1"
    },
    {
      "group": "scheduling.k8s.io",
      "kind": "DeleteOptions",
      "version": "v1alpha1"
    },
    {
      "group": "scheduling.k8s.io",
      "kind": "DeleteOptions",
      "version": "v1beta1"
    },
    {
      "group": "storage.k8s.io",
      "kind": "DeleteOptions",
      "version": "v1"
    },
    {
      "group": "storage.k8s.io",
      "kind": "DeleteOptions",
      "version": "v1alpha1"
    },
    {
      "group": "storage.k8s.io",
      "kind": "DeleteOptions",
      "version": "v1beta1"
    }
  ],
  "$schema": "http://json-schema.org/schema#"
}