{
  "description": "WebhookConversion describes how to call a conversion webhook",
  "properties": {
    "clientConfig": {
      "$ref": "https://gitlab.cern.ch/jeedy-public/kubernetes-json-schemas/-/raw/master/v1.23.2/_definitions.json#/definitions/io.k8s.apiextensions-apiserver.pkg.apis.apiextensions.v1.WebhookClientConfig",
      "description": "clientConfig is the instructions for how to call the webhook if strategy is `Webhook`."
    },
    "conversionReviewVersions": {
      "description": "conversionReviewVersions is an ordered list of preferred `ConversionReview` versions the Webhook expects. The API server will use the first version in the list which it supports. If none of the versions specified in this list are supported by API server, conversion will fail for the custom resource. If a persisted Webhook configuration specifies allowed versions and does not include any versions known to the API Server, calls to the webhook will fail.",
      "items": {
        "type": [
          "string",
          "null"
        ]
      },
      "type": [
        "array",
        "null"
      ]
    }
  },
  "required": [
    "conversionReviewVersions"
  ],
  "type": "object",
  "$schema": "http://json-schema.org/schema#"
}