{
  "description": "TokenReview attempts to authenticate a token to a known user. Note: TokenReview requests may be cached by the webhook token authenticator plugin in the kube-apiserver.",
  "properties": {
    "apiVersion": {
      "description": "APIVersion defines the versioned schema of this representation of an object. Servers should convert recognized schemas to the latest internal value, and may reject unrecognized values. More info: https://git.k8s.io/community/contributors/devel/sig-architecture/api-conventions.md#resources",
      "type": [
        "string",
        "null"
      ]
    },
    "kind": {
      "description": "Kind is a string value representing the REST resource this object represents. Servers may infer this from the endpoint the client submits requests to. Cannot be updated. In CamelCase. More info: https://git.k8s.io/community/contributors/devel/sig-architecture/api-conventions.md#types-kinds",
      "type": [
        "string",
        "null"
      ],
      "enum": [
        "TokenReview"
      ]
    },
    "metadata": {
      "$ref": "https://gitlab.cern.ch/jeedy-public/kubernetes-json-schemas/-/raw/master/v1.24.3/_definitions.json#/definitions/io.k8s.apimachinery.pkg.apis.meta.v1.ObjectMeta",
      "description": "Standard object's metadata. More info: https://git.k8s.io/community/contributors/devel/sig-architecture/api-conventions.md#metadata"
    },
    "spec": {
      "$ref": "https://gitlab.cern.ch/jeedy-public/kubernetes-json-schemas/-/raw/master/v1.24.3/_definitions.json#/definitions/io.k8s.api.authentication.v1.TokenReviewSpec",
      "description": "Spec holds information about the request being evaluated"
    },
    "status": {
      "$ref": "https://gitlab.cern.ch/jeedy-public/kubernetes-json-schemas/-/raw/master/v1.24.3/_definitions.json#/definitions/io.k8s.api.authentication.v1.TokenReviewStatus",
      "description": "Status is filled in by the server and indicates whether the request can be authenticated."
    }
  },
  "required": [
    "spec"
  ],
  "type": "object",
  "x-kubernetes-group-version-kind": [
    {
      "group": "authentication.k8s.io",
      "kind": "TokenReview",
      "version": "v1"
    }
  ],
  "$schema": "http://json-schema.org/schema#"
}