{
  "description": "ValidatingAdmissionPolicyList is a list of ValidatingAdmissionPolicy.",
  "properties": {
    "apiVersion": {
      "description": "APIVersion defines the versioned schema of this representation of an object. Servers should convert recognized schemas to the latest internal value, and may reject unrecognized values. More info: https://git.k8s.io/community/contributors/devel/sig-architecture/api-conventions.md#resources",
      "type": [
        "string",
        "null"
      ]
    },
    "items": {
      "description": "List of ValidatingAdmissionPolicy.",
      "items": {
        "$ref": "https://gitlab.cern.ch/jeedy-public/kubernetes-json-schemas/master/v1.28.3/_definitions.json#/definitions/io.k8s.api.admissionregistration.v1beta1.ValidatingAdmissionPolicy"
      },
      "type": [
        "array",
        "null"
      ]
    },
    "kind": {
      "description": "Kind is a string value representing the REST resource this object represents. Servers may infer this from the endpoint the client submits requests to. Cannot be updated. In CamelCase. More info: https://git.k8s.io/community/contributors/devel/sig-architecture/api-conventions.md#types-kinds",
      "type": [
        "string",
        "null"
      ],
      "enum": [
        "ValidatingAdmissionPolicyList"
      ]
    },
    "metadata": {
      "$ref": "https://gitlab.cern.ch/jeedy-public/kubernetes-json-schemas/master/v1.28.3/_definitions.json#/definitions/io.k8s.apimachinery.pkg.apis.meta.v1.ListMeta",
      "description": "Standard list metadata. More info: https://git.k8s.io/community/contributors/devel/sig-architecture/api-conventions.md#types-kinds"
    }
  },
  "type": "object",
  "x-kubernetes-group-version-kind": [
    {
      "group": "admissionregistration.k8s.io",
      "kind": "ValidatingAdmissionPolicyList",
      "version": "v1beta1"
    }
  ],
  "$schema": "http://json-schema.org/schema#"
}