{
  "description": "APIServiceStatus contains derived information about an API server",
  "properties": {
    "conditions": {
      "description": "Current service state of apiService.",
      "items": {
        "$ref": "https://gitlab.cern.ch/jeedy-public/kubernetes-json-schemas/-/raw/master/v1.18.2/_definitions.json#/definitions/io.k8s.kube-aggregator.pkg.apis.apiregistration.v1.APIServiceCondition"
      },
      "type": [
        "array",
        "null"
      ],
      "x-kubernetes-patch-merge-key": "type",
      "x-kubernetes-patch-strategy": "merge"
    }
  },
  "type": "object",
  "$schema": "http://json-schema.org/schema#"
}