{
  "description": "ClusterRoleBindingList is a collection of ClusterRoleBindings. Deprecated in v1.17 in favor of rbac.authorization.k8s.io/v1 ClusterRoleBindings, and will no longer be served in v1.22.",
  "properties": {
    "apiVersion": {
      "description": "APIVersion defines the versioned schema of this representation of an object. Servers should convert recognized schemas to the latest internal value, and may reject unrecognized values. More info: https://git.k8s.io/community/contributors/devel/sig-architecture/api-conventions.md#resources",
      "type": [
        "string",
        "null"
      ]
    },
    "items": {
      "description": "Items is a list of ClusterRoleBindings",
      "items": {
        "$ref": "https://gitlab.cern.ch/jeedy-public/kubernetes-json-schemas/-/raw/master/v1.22.6/_definitions.json#/definitions/io.k8s.api.rbac.v1alpha1.ClusterRoleBinding"
      },
      "type": [
        "array",
        "null"
      ]
    },
    "kind": {
      "description": "Kind is a string value representing the REST resource this object represents. Servers may infer this from the endpoint the client submits requests to. Cannot be updated. In CamelCase. More info: https://git.k8s.io/community/contributors/devel/sig-architecture/api-conventions.md#types-kinds",
      "type": [
        "string",
        "null"
      ],
      "enum": [
        "ClusterRoleBindingList"
      ]
    },
    "metadata": {
      "$ref": "https://gitlab.cern.ch/jeedy-public/kubernetes-json-schemas/-/raw/master/v1.22.6/_definitions.json#/definitions/io.k8s.apimachinery.pkg.apis.meta.v1.ListMeta",
      "description": "Standard object's metadata."
    }
  },
  "required": [
    "items"
  ],
  "type": "object",
  "x-kubernetes-group-version-kind": [
    {
      "group": "rbac.authorization.k8s.io",
      "kind": "ClusterRoleBindingList",
      "version": "v1alpha1"
    }
  ],
  "$schema": "http://json-schema.org/schema#"
}