{
  "description": "configuration of a horizontal pod autoscaler.",
  "properties": {
    "apiVersion": {
      "description": "APIVersion defines the versioned schema of this representation of an object. Servers should convert recognized schemas to the latest internal value, and may reject unrecognized values. More info: https://git.k8s.io/community/contributors/devel/sig-architecture/api-conventions.md#resources",
      "type": [
        "string",
        "null"
      ],
      "enum": [
        "autoscaling/v1"
      ]
    },
    "kind": {
      "description": "Kind is a string value representing the REST resource this object represents. Servers may infer this from the endpoint the client submits requests to. Cannot be updated. In CamelCase. More info: https://git.k8s.io/community/contributors/devel/sig-architecture/api-conventions.md#types-kinds",
      "type": [
        "string",
        "null"
      ],
      "enum": [
        "HorizontalPodAutoscaler"
      ]
    },
    "metadata": {
      "$ref": "https://gitlab.cern.ch/jeedy-public/kubernetes-json-schemas/master/v1.28.0/_definitions.json#/definitions/io.k8s.apimachinery.pkg.apis.meta.v1.ObjectMeta",
      "description": "Standard object metadata. More info: https://git.k8s.io/community/contributors/devel/sig-architecture/api-conventions.md#metadata"
    },
    "spec": {
      "$ref": "https://gitlab.cern.ch/jeedy-public/kubernetes-json-schemas/master/v1.28.0/_definitions.json#/definitions/io.k8s.api.autoscaling.v1.HorizontalPodAutoscalerSpec",
      "description": "spec defines the behaviour of autoscaler. More info: https://git.k8s.io/community/contributors/devel/sig-architecture/api-conventions.md#spec-and-status."
    },
    "status": {
      "$ref": "https://gitlab.cern.ch/jeedy-public/kubernetes-json-schemas/master/v1.28.0/_definitions.json#/definitions/io.k8s.api.autoscaling.v1.HorizontalPodAutoscalerStatus",
      "description": "status is the current information about the autoscaler."
    }
  },
  "type": "object",
  "x-kubernetes-group-version-kind": [
    {
      "group": "autoscaling",
      "kind": "HorizontalPodAutoscaler",
      "version": "v1"
    }
  ],
  "$schema": "http://json-schema.org/schema#"
}