{
  "description": "Represents a cinder volume resource in Openstack. A Cinder volume must exist before mounting to a container. The volume must also be in the same region as the kubelet. Cinder volumes support ownership management and SELinux relabeling.",
  "properties": {
    "fsType": {
      "description": "Filesystem type to mount. Must be a filesystem type supported by the host operating system. Examples: \"ext4\", \"xfs\", \"ntfs\". Implicitly inferred to be \"ext4\" if unspecified. More info: https://examples.k8s.io/mysql-cinder-pd/README.md",
      "type": [
        "string",
        "null"
      ]
    },
    "readOnly": {
      "description": "Optional: Defaults to false (read/write). ReadOnly here will force the ReadOnly setting in VolumeMounts. More info: https://examples.k8s.io/mysql-cinder-pd/README.md",
      "type": [
        "boolean",
        "null"
      ]
    },
    "secretRef": {
      "$ref": "https://gitlab.cern.ch/jeedy-public/kubernetes-json-schemas/-/raw/master/v1.18.5/_definitions.json#/definitions/io.k8s.api.core.v1.SecretReference",
      "description": "Optional: points to a secret object containing parameters used to connect to OpenStack."
    },
    "volumeID": {
      "description": "volume id used to identify the volume in cinder. More info: https://examples.k8s.io/mysql-cinder-pd/README.md",
      "type": [
        "string",
        "null"
      ]
    }
  },
  "required": [
    "volumeID"
  ],
  "type": "object",
  "$schema": "http://json-schema.org/schema#"
}