{
  "description": "ExternalMetricSource indicates how to scale on a metric not associated with any Kubernetes object (for example length of queue in cloud messaging service, or QPS from loadbalancer running outside of cluster). Exactly one \"target\" type should be set.",
  "properties": {
    "metricName": {
      "description": "metricName is the name of the metric in question.",
      "type": [
        "string",
        "null"
      ]
    },
    "metricSelector": {
      "$ref": "https://gitlab.cern.ch/jeedy-public/kubernetes-json-schemas/-/raw/master/v1.22.7/_definitions.json#/definitions/io.k8s.apimachinery.pkg.apis.meta.v1.LabelSelector",
      "description": "metricSelector is used to identify a specific time series within a given metric."
    },
    "targetAverageValue": {
      "$ref": "https://gitlab.cern.ch/jeedy-public/kubernetes-json-schemas/-/raw/master/v1.22.7/_definitions.json#/definitions/io.k8s.apimachinery.pkg.api.resource.Quantity",
      "description": "targetAverageValue is the target per-pod value of global metric (as a quantity). Mutually exclusive with TargetValue."
    },
    "targetValue": {
      "$ref": "https://gitlab.cern.ch/jeedy-public/kubernetes-json-schemas/-/raw/master/v1.22.7/_definitions.json#/definitions/io.k8s.apimachinery.pkg.api.resource.Quantity",
      "description": "targetValue is the target value of the metric (as a quantity). Mutually exclusive with TargetAverageValue."
    }
  },
  "required": [
    "metricName"
  ],
  "type": "object",
  "$schema": "http://json-schema.org/schema#"
}