{
  "description": "API server instances report the versions they can decode and the version they encode objects to when persisting objects in the backend.",
  "properties": {
    "commonEncodingVersion": {
      "description": "If all API server instances agree on the same encoding storage version, then this field is set to that version. Otherwise this field is left empty. API servers should finish updating its storageVersionStatus entry before serving write operations, so that this field will be in sync with the reality.",
      "type": [
        "string",
        "null"
      ]
    },
    "conditions": {
      "description": "The latest available observations of the storageVersion's state.",
      "items": {
        "$ref": "https://gitlab.cern.ch/jeedy-public/kubernetes-json-schemas/-/raw/master/v1.20.4/_definitions.json#/definitions/io.k8s.api.apiserverinternal.v1alpha1.StorageVersionCondition"
      },
      "type": [
        "array",
        "null"
      ],
      "x-kubernetes-list-map-keys": [
        "type"
      ],
      "x-kubernetes-list-type": "map"
    },
    "storageVersions": {
      "description": "The reported versions per API server instance.",
      "items": {
        "$ref": "https://gitlab.cern.ch/jeedy-public/kubernetes-json-schemas/-/raw/master/v1.20.4/_definitions.json#/definitions/io.k8s.api.apiserverinternal.v1alpha1.ServerStorageVersion"
      },
      "type": [
        "array",
        "null"
      ],
      "x-kubernetes-list-map-keys": [
        "apiServerID"
      ],
      "x-kubernetes-list-type": "map"
    }
  },
  "type": "object",
  "$schema": "http://json-schema.org/schema#"
}