{
  "description": "PodsMetricSource indicates how to scale on a metric describing each pod in the current scale target (for example, transactions-processed-per-second). The values will be averaged together before being compared to the target value.",
  "properties": {
    "metricName": {
      "description": "metricName is the name of the metric in question",
      "type": [
        "string",
        "null"
      ]
    },
    "selector": {
      "$ref": "https://gitlab.cern.ch/jeedy-public/kubernetes-json-schemas/-/raw/master/v1.16.7/_definitions.json#/definitions/io.k8s.apimachinery.pkg.apis.meta.v1.LabelSelector",
      "description": "selector is the string-encoded form of a standard kubernetes label selector for the given metric When set, it is passed as an additional parameter to the metrics server for more specific metrics scoping When unset, just the metricName will be used to gather metrics."
    },
    "targetAverageValue": {
      "$ref": "https://gitlab.cern.ch/jeedy-public/kubernetes-json-schemas/-/raw/master/v1.16.7/_definitions.json#/definitions/io.k8s.apimachinery.pkg.api.resource.Quantity",
      "description": "targetAverageValue is the target value of the average of the metric across all relevant pods (as a quantity)"
    }
  },
  "required": [
    "metricName",
    "targetAverageValue"
  ],
  "type": "object",
  "$schema": "http://json-schema.org/schema#"
}