{
  "description": "EnvVar represents an environment variable present in a Container.",
  "properties": {
    "name": {
      "description": "Name of the environment variable. Must be a C_IDENTIFIER.",
      "type": [
        "string",
        "null"
      ]
    },
    "value": {
      "description": "Variable references $(VAR_NAME) are expanded using the previously defined environment variables in the container and any service environment variables. If a variable cannot be resolved, the reference in the input string will be unchanged. Double $$ are reduced to a single $, which allows for escaping the $(VAR_NAME) syntax: i.e. \"$$(VAR_NAME)\" will produce the string literal \"$(VAR_NAME)\". Escaped references will never be expanded, regardless of whether the variable exists or not. Defaults to \"\".",
      "type": [
        "string",
        "null"
      ]
    },
    "valueFrom": {
      "$ref": "https://gitlab.cern.ch/jeedy-public/kubernetes-json-schemas/-/raw/master/v1.22.10/_definitions.json#/definitions/io.k8s.api.core.v1.EnvVarSource",
      "description": "Source for the environment variable's value. Cannot be used if value is not empty."
    }
  },
  "required": [
    "name"
  ],
  "type": "object",
  "$schema": "http://json-schema.org/schema#"
}