{
  "description": "ContainerStateRunning is a running state of a container.",
  "properties": {
    "startedAt": {
      "$ref": "https://gitlab.cern.ch/jeedy-public/kubernetes-json-schemas/-/raw/master/v1.20.10/_definitions.json#/definitions/io.k8s.apimachinery.pkg.apis.meta.v1.Time",
      "description": "Time at which the container was last (re-)started"
    }
  },
  "type": "object",
  "$schema": "http://json-schema.org/schema#"
}