{
  "description": "IngressLoadBalancerStatus represents the status of a load-balancer.",
  "properties": {
    "ingress": {
      "description": "Ingress is a list containing ingress points for the load-balancer.",
      "items": {
        "$ref": "https://gitlab.cern.ch/jeedy-public/kubernetes-json-schemas/master/v1.26.11/_definitions.json#/definitions/io.k8s.api.networking.v1.IngressLoadBalancerIngress"
      },
      "type": [
        "array",
        "null"
      ]
    }
  },
  "type": "object",
  "$schema": "http://json-schema.org/schema#"
}