{
  "description": "ValidatingAdmissionPolicyBinding binds the ValidatingAdmissionPolicy with paramerized resources. ValidatingAdmissionPolicyBinding and parameter CRDs together define how cluster administrators configure policies for clusters.",
  "properties": {
    "apiVersion": {
      "description": "APIVersion defines the versioned schema of this representation of an object. Servers should convert recognized schemas to the latest internal value, and may reject unrecognized values. More info: https://git.k8s.io/community/contributors/devel/sig-architecture/api-conventions.md#resources",
      "type": [
        "string",
        "null"
      ],
      "enum": [
        "admissionregistration.k8s.io/v1alpha1"
      ]
    },
    "kind": {
      "description": "Kind is a string value representing the REST resource this object represents. Servers may infer this from the endpoint the client submits requests to. Cannot be updated. In CamelCase. More info: https://git.k8s.io/community/contributors/devel/sig-architecture/api-conventions.md#types-kinds",
      "type": [
        "string",
        "null"
      ],
      "enum": [
        "ValidatingAdmissionPolicyBinding"
      ]
    },
    "metadata": {
      "$ref": "https://gitlab.cern.ch/jeedy-public/kubernetes-json-schemas/master/v1.26.11/_definitions.json#/definitions/io.k8s.apimachinery.pkg.apis.meta.v1.ObjectMeta",
      "description": "Standard object metadata; More info: https://git.k8s.io/community/contributors/devel/sig-architecture/api-conventions.md#metadata."
    },
    "spec": {
      "$ref": "https://gitlab.cern.ch/jeedy-public/kubernetes-json-schemas/master/v1.26.11/_definitions.json#/definitions/io.k8s.api.admissionregistration.v1alpha1.ValidatingAdmissionPolicyBindingSpec",
      "description": "Specification of the desired behavior of the ValidatingAdmissionPolicyBinding."
    }
  },
  "type": "object",
  "x-kubernetes-group-version-kind": [
    {
      "group": "admissionregistration.k8s.io",
      "kind": "ValidatingAdmissionPolicyBinding",
      "version": "v1alpha1"
    }
  ],
  "$schema": "http://json-schema.org/schema#"
}