{
  "description": "current status of a horizontal pod autoscaler",
  "properties": {
    "currentCPUUtilizationPercentage": {
      "description": "current average CPU utilization over all pods, represented as a percentage of requested CPU, e.g. 70 means that an average pod is using now 70% of its requested CPU.",
      "format": "int32",
      "type": [
        "integer",
        "null"
      ]
    },
    "currentReplicas": {
      "description": "current number of replicas of pods managed by this autoscaler.",
      "format": "int32",
      "type": [
        "integer",
        "null"
      ]
    },
    "desiredReplicas": {
      "description": "desired number of replicas of pods managed by this autoscaler.",
      "format": "int32",
      "type": [
        "integer",
        "null"
      ]
    },
    "lastScaleTime": {
      "$ref": "https://gitlab.cern.ch/jeedy-public/kubernetes-json-schemas/-/raw/master/v1.17.6/_definitions.json#/definitions/io.k8s.apimachinery.pkg.apis.meta.v1.Time",
      "description": "last time the HorizontalPodAutoscaler scaled the number of pods; used by the autoscaler to control how often the number of pods is changed."
    },
    "observedGeneration": {
      "description": "most recent generation observed by this autoscaler.",
      "format": "int64",
      "type": [
        "integer",
        "null"
      ]
    }
  },
  "required": [
    "currentReplicas",
    "desiredReplicas"
  ],
  "type": "object",
  "$schema": "http://json-schema.org/schema#"
}