{
  "description": "SupplementalGroupsStrategyOptions defines the strategy type and options used to create the strategy. Deprecated: use SupplementalGroupsStrategyOptions from policy API Group instead.",
  "properties": {
    "ranges": {
      "description": "ranges are the allowed ranges of supplemental groups.  If you would like to force a single supplemental group then supply a single range with the same start and end. Required for MustRunAs.",
      "items": {
        "$ref": "https://gitlab.cern.ch/jeedy-public/kubernetes-json-schemas/-/raw/master/v1.17.6/_definitions.json#/definitions/io.k8s.api.extensions.v1beta1.IDRange"
      },
      "type": [
        "array",
        "null"
      ]
    },
    "rule": {
      "description": "rule is the strategy that will dictate what supplemental groups is used in the SecurityContext.",
      "type": [
        "string",
        "null"
      ]
    }
  },
  "type": "object",
  "$schema": "http://json-schema.org/schema#"
}