{
  "description": "LoadBalancerIngress represents the status of a load-balancer ingress point: traffic intended for the service should be sent to an ingress point.",
  "properties": {
    "hostname": {
      "description": "Hostname is set for load-balancer ingress points that are DNS based (typically AWS load-balancers)",
      "type": [
        "string",
        "null"
      ]
    },
    "ip": {
      "description": "IP is set for load-balancer ingress points that are IP based (typically GCE or OpenStack load-balancers)",
      "type": [
        "string",
        "null"
      ]
    },
    "ports": {
      "description": "Ports is a list of records of service ports If used, every port defined in the service should have an entry in it",
      "items": {
        "$ref": "https://gitlab.cern.ch/jeedy-public/kubernetes-json-schemas/-/raw/master/v1.22.8/_definitions.json#/definitions/io.k8s.api.core.v1.PortStatus"
      },
      "type": [
        "array",
        "null"
      ],
      "x-kubernetes-list-type": "atomic"
    }
  },
  "type": "object",
  "$schema": "http://json-schema.org/schema#"
}