{
  "description": "CustomResourceConversion describes how to convert different versions of a CR.",
  "properties": {
    "conversionReviewVersions": {
      "description": "conversionReviewVersions is an ordered list of preferred `ConversionReview` versions the Webhook expects. The API server will use the first version in the list which it supports. If none of the versions specified in this list are supported by API server, conversion will fail for the custom resource. If a persisted Webhook configuration specifies allowed versions and does not include any versions known to the API Server, calls to the webhook will fail. Defaults to `[\"v1beta1\"]`.",
      "items": {
        "type": [
          "string",
          "null"
        ]
      },
      "type": [
        "array",
        "null"
      ]
    },
    "strategy": {
      "description": "strategy specifies how custom resources are converted between versions. Allowed values are: - `None`: The converter only change the apiVersion and would not touch any other field in the custom resource. - `Webhook`: API Server will call to an external webhook to do the conversion. Additional information\n  is needed for this option. This requires spec.preserveUnknownFields to be false, and spec.conversion.webhookClientConfig to be set.",
      "type": [
        "string",
        "null"
      ]
    },
    "webhookClientConfig": {
      "$ref": "https://gitlab.cern.ch/jeedy-public/kubernetes-json-schemas/-/raw/master/v1.21.1/_definitions.json#/definitions/io.k8s.apiextensions-apiserver.pkg.apis.apiextensions.v1beta1.WebhookClientConfig",
      "description": "webhookClientConfig is the instructions for how to call the webhook if strategy is `Webhook`. Required when `strategy` is set to `Webhook`."
    }
  },
  "required": [
    "strategy"
  ],
  "type": "object",
  "$schema": "http://json-schema.org/schema#"
}