{
  "description": "ResourceClaimTemplate is used to produce ResourceClaim objects.",
  "properties": {
    "apiVersion": {
      "description": "APIVersion defines the versioned schema of this representation of an object. Servers should convert recognized schemas to the latest internal value, and may reject unrecognized values. More info: https://git.k8s.io/community/contributors/devel/sig-architecture/api-conventions.md#resources",
      "type": [
        "string",
        "null"
      ]
    },
    "kind": {
      "description": "Kind is a string value representing the REST resource this object represents. Servers may infer this from the endpoint the client submits requests to. Cannot be updated. In CamelCase. More info: https://git.k8s.io/community/contributors/devel/sig-architecture/api-conventions.md#types-kinds",
      "type": [
        "string",
        "null"
      ],
      "enum": [
        "ResourceClaimTemplate"
      ]
    },
    "metadata": {
      "$ref": "https://gitlab.cern.ch/jeedy-public/kubernetes-json-schemas/master/v1.28.4/_definitions.json#/definitions/io.k8s.apimachinery.pkg.apis.meta.v1.ObjectMeta",
      "description": "Standard object metadata"
    },
    "spec": {
      "$ref": "https://gitlab.cern.ch/jeedy-public/kubernetes-json-schemas/master/v1.28.4/_definitions.json#/definitions/io.k8s.api.resource.v1alpha2.ResourceClaimTemplateSpec",
      "description": "Describes the ResourceClaim that is to be generated.\n\nThis field is immutable. A ResourceClaim will get created by the control plane for a Pod when needed and then not get updated anymore."
    }
  },
  "required": [
    "spec"
  ],
  "type": "object",
  "x-kubernetes-group-version-kind": [
    {
      "group": "resource.k8s.io",
      "kind": "ResourceClaimTemplate",
      "version": "v1alpha2"
    }
  ],
  "$schema": "http://json-schema.org/schema#"
}