{
  "description": "Node affinity is a group of node affinity scheduling rules.",
  "properties": {
    "preferredDuringSchedulingIgnoredDuringExecution": {
      "description": "The scheduler will prefer to schedule pods to nodes that satisfy the affinity expressions specified by this field, but it may choose a node that violates one or more of the expressions. The node that is most preferred is the one with the greatest sum of weights, i.e. for each node that meets all of the scheduling requirements (resource request, requiredDuringScheduling affinity expressions, etc.), compute a sum by iterating through the elements of this field and adding \"weight\" to the sum if the node matches the corresponding matchExpressions; the node(s) with the highest sum are the most preferred.",
      "items": {
        "$ref": "https://gitlab.cern.ch/jeedy-public/kubernetes-json-schemas/-/raw/master/v1.19.12/_definitions.json#/definitions/io.k8s.api.core.v1.PreferredSchedulingTerm"
      },
      "type": [
        "array",
        "null"
      ]
    },
    "requiredDuringSchedulingIgnoredDuringExecution": {
      "$ref": "https://gitlab.cern.ch/jeedy-public/kubernetes-json-schemas/-/raw/master/v1.19.12/_definitions.json#/definitions/io.k8s.api.core.v1.NodeSelector",
      "description": "If the affinity requirements specified by this field are not met at scheduling time, the pod will not be scheduled onto the node. If the affinity requirements specified by this field cease to be met at some point during pod execution (e.g. due to an update), the system may or may not try to eventually evict the pod from its node."
    }
  },
  "type": "object",
  "$schema": "http://json-schema.org/schema#"
}