{
  "description": "NodeList is the whole list of all Nodes which have been registered with master.",
  "properties": {
    "apiVersion": {
      "description": "APIVersion defines the versioned schema of this representation of an object. Servers should convert recognized schemas to the latest internal value, and may reject unrecognized values. More info: https://git.k8s.io/community/contributors/devel/sig-architecture/api-conventions.md#resources",
      "type": [
        "string",
        "null"
      ],
      "enum": [
        "v1"
      ]
    },
    "items": {
      "description": "List of nodes",
      "items": {
        "$ref": "https://gitlab.cern.ch/jeedy-public/kubernetes-json-schemas/-/raw/master/v1.19.12/_definitions.json#/definitions/io.k8s.api.core.v1.Node"
      },
      "type": [
        "array",
        "null"
      ]
    },
    "kind": {
      "description": "Kind is a string value representing the REST resource this object represents. Servers may infer this from the endpoint the client submits requests to. Cannot be updated. In CamelCase. More info: https://git.k8s.io/community/contributors/devel/sig-architecture/api-conventions.md#types-kinds",
      "type": [
        "string",
        "null"
      ],
      "enum": [
        "NodeList"
      ]
    },
    "metadata": {
      "$ref": "https://gitlab.cern.ch/jeedy-public/kubernetes-json-schemas/-/raw/master/v1.19.12/_definitions.json#/definitions/io.k8s.apimachinery.pkg.apis.meta.v1.ListMeta",
      "description": "Standard list metadata. More info: https://git.k8s.io/community/contributors/devel/sig-architecture/api-conventions.md#types-kinds"
    }
  },
  "required": [
    "items"
  ],
  "type": "object",
  "x-kubernetes-group-version-kind": [
    {
      "group": "",
      "kind": "NodeList",
      "version": "v1"
    }
  ],
  "$schema": "http://json-schema.org/schema#"
}