{
  "description": "NetworkPolicyPeer describes a peer to allow traffic to/from. Only certain combinations of fields are allowed",
  "properties": {
    "ipBlock": {
      "$ref": "https://gitlab.cern.ch/jeedy-public/kubernetes-json-schemas/-/raw/master/v1.27.0/_definitions.json#/definitions/io.k8s.api.networking.v1.IPBlock",
      "description": "ipBlock defines policy on a particular IPBlock. If this field is set then neither of the other fields can be."
    },
    "namespaceSelector": {
      "$ref": "https://gitlab.cern.ch/jeedy-public/kubernetes-json-schemas/-/raw/master/v1.27.0/_definitions.json#/definitions/io.k8s.apimachinery.pkg.apis.meta.v1.LabelSelector",
      "description": "namespaceSelector selects namespaces using cluster-scoped labels. This field follows standard label selector semantics; if present but empty, it selects all namespaces.\n\nIf podSelector is also set, then the NetworkPolicyPeer as a whole selects the pods matching podSelector in the namespaces selected by namespaceSelector. Otherwise it selects all pods in the namespaces selected by namespaceSelector."
    },
    "podSelector": {
      "$ref": "https://gitlab.cern.ch/jeedy-public/kubernetes-json-schemas/-/raw/master/v1.27.0/_definitions.json#/definitions/io.k8s.apimachinery.pkg.apis.meta.v1.LabelSelector",
      "description": "podSelector is a label selector which selects pods. This field follows standard label selector semantics; if present but empty, it selects all pods.\n\nIf namespaceSelector is also set, then the NetworkPolicyPeer as a whole selects the pods matching podSelector in the Namespaces selected by NamespaceSelector. Otherwise it selects the pods matching podSelector in the policy's own namespace."
    }
  },
  "type": "object",
  "$schema": "http://json-schema.org/schema#"
}