{
  "description": "AuditSink represents a cluster level audit sink",
  "properties": {
    "apiVersion": {
      "description": "APIVersion defines the versioned schema of this representation of an object. Servers should convert recognized schemas to the latest internal value, and may reject unrecognized values. More info: https://git.k8s.io/community/contributors/devel/sig-architecture/api-conventions.md#resources",
      "type": [
        "string",
        "null"
      ],
      "enum": [
        "auditregistration.k8s.io/v1alpha1"
      ]
    },
    "kind": {
      "description": "Kind is a string value representing the REST resource this object represents. Servers may infer this from the endpoint the client submits requests to. Cannot be updated. In CamelCase. More info: https://git.k8s.io/community/contributors/devel/sig-architecture/api-conventions.md#types-kinds",
      "type": [
        "string",
        "null"
      ],
      "enum": [
        "AuditSink"
      ]
    },
    "metadata": {
      "$ref": "https://gitlab.cern.ch/jeedy-public/kubernetes-json-schemas/-/raw/master/v1.18.3/_definitions.json#/definitions/io.k8s.apimachinery.pkg.apis.meta.v1.ObjectMeta"
    },
    "spec": {
      "$ref": "https://gitlab.cern.ch/jeedy-public/kubernetes-json-schemas/-/raw/master/v1.18.3/_definitions.json#/definitions/io.k8s.api.auditregistration.v1alpha1.AuditSinkSpec",
      "description": "Spec defines the audit configuration spec"
    }
  },
  "type": "object",
  "x-kubernetes-group-version-kind": [
    {
      "group": "auditregistration.k8s.io",
      "kind": "AuditSink",
      "version": "v1alpha1"
    }
  ],
  "$schema": "http://json-schema.org/schema#"
}