{
  "description": "LimitRangeSpec defines a min/max usage limit for resources that match on kind.",
  "properties": {
    "limits": {
      "description": "Limits is the list of LimitRangeItem objects that are enforced.",
      "items": {
        "$ref": "https://gitlab.cern.ch/jeedy-public/kubernetes-json-schemas/-/raw/master/v1.16.14/_definitions.json#/definitions/io.k8s.api.core.v1.LimitRangeItem"
      },
      "type": [
        "array",
        "null"
      ]
    }
  },
  "required": [
    "limits"
  ],
  "type": "object",
  "$schema": "http://json-schema.org/schema#"
}