{
  "description": "FlexPersistentVolumeSource represents a generic persistent volume resource that is provisioned/attached using an exec based plugin.",
  "properties": {
    "driver": {
      "description": "driver is the name of the driver to use for this volume.",
      "type": [
        "string",
        "null"
      ]
    },
    "fsType": {
      "description": "fsType is the Filesystem type to mount. Must be a filesystem type supported by the host operating system. Ex. \"ext4\", \"xfs\", \"ntfs\". The default filesystem depends on FlexVolume script.",
      "type": [
        "string",
        "null"
      ]
    },
    "options": {
      "additionalProperties": {
        "type": [
          "string",
          "null"
        ]
      },
      "description": "options is Optional: this field holds extra command options if any.",
      "type": [
        "object",
        "null"
      ]
    },
    "readOnly": {
      "description": "readOnly is Optional: defaults to false (read/write). ReadOnly here will force the ReadOnly setting in VolumeMounts.",
      "type": [
        "boolean",
        "null"
      ]
    },
    "secretRef": {
      "$ref": "https://gitlab.cern.ch/jeedy-public/kubernetes-json-schemas/master/v1.27.2/_definitions.json#/definitions/io.k8s.api.core.v1.SecretReference",
      "description": "secretRef is Optional: SecretRef is reference to the secret object containing sensitive information to pass to the plugin scripts. This may be empty if no secret object is specified. If the secret object contains more than one secret, all secrets are passed to the plugin scripts."
    }
  },
  "required": [
    "driver"
  ],
  "type": "object",
  "$schema": "http://json-schema.org/schema#"
}