{
  "description": "ClusterTrustBundle is a cluster-scoped container for X.509 trust anchors (root certificates).\n\nClusterTrustBundle objects are considered to be readable by any authenticated user in the cluster, because they can be mounted by pods using the `clusterTrustBundle` projection.  All service accounts have read access to ClusterTrustBundles by default.  Users who only have namespace-level access to a cluster can read ClusterTrustBundles by impersonating a serviceaccount that they have access to.\n\nIt can be optionally associated with a particular assigner, in which case it contains one valid set of trust anchors for that signer. Signers may have multiple associated ClusterTrustBundles; each is an independent set of trust anchors for that signer. Admission control is used to enforce that only users with permissions on the signer can create or modify the corresponding bundle.",
  "properties": {
    "apiVersion": {
      "description": "APIVersion defines the versioned schema of this representation of an object. Servers should convert recognized schemas to the latest internal value, and may reject unrecognized values. More info: https://git.k8s.io/community/contributors/devel/sig-architecture/api-conventions.md#resources",
      "type": [
        "string",
        "null"
      ],
      "enum": [
        "certificates.k8s.io/v1alpha1"
      ]
    },
    "kind": {
      "description": "Kind is a string value representing the REST resource this object represents. Servers may infer this from the endpoint the client submits requests to. Cannot be updated. In CamelCase. More info: https://git.k8s.io/community/contributors/devel/sig-architecture/api-conventions.md#types-kinds",
      "type": [
        "string",
        "null"
      ],
      "enum": [
        "ClusterTrustBundle"
      ]
    },
    "metadata": {
      "$ref": "https://gitlab.cern.ch/jeedy-public/kubernetes-json-schemas/master/v1.29.1/_definitions.json#/definitions/io.k8s.apimachinery.pkg.apis.meta.v1.ObjectMeta",
      "description": "metadata contains the object metadata."
    },
    "spec": {
      "$ref": "https://gitlab.cern.ch/jeedy-public/kubernetes-json-schemas/master/v1.29.1/_definitions.json#/definitions/io.k8s.api.certificates.v1alpha1.ClusterTrustBundleSpec",
      "description": "spec contains the signer (if any) and trust anchors."
    }
  },
  "required": [
    "spec"
  ],
  "type": "object",
  "x-kubernetes-group-version-kind": [
    {
      "group": "certificates.k8s.io",
      "kind": "ClusterTrustBundle",
      "version": "v1alpha1"
    }
  ],
  "$schema": "http://json-schema.org/schema#"
}