{
  "description": "EventSeries contain information on series of events, i.e. thing that was/is happening continuously for some time. How often to update the EventSeries is up to the event reporters. The default event reporter in \"k8s.io/client-go/tools/events/event_broadcaster.go\" shows how this struct is updated on heartbeats and can guide customized reporter implementations.",
  "properties": {
    "count": {
      "description": "count is the number of occurrences in this series up to the last heartbeat time.",
      "format": "int32",
      "type": [
        "integer",
        "null"
      ]
    },
    "lastObservedTime": {
      "$ref": "https://gitlab.cern.ch/jeedy-public/kubernetes-json-schemas/master/v1.29.1/_definitions.json#/definitions/io.k8s.apimachinery.pkg.apis.meta.v1.MicroTime",
      "description": "lastObservedTime is the time when last Event from the series was seen before last heartbeat."
    }
  },
  "required": [
    "count",
    "lastObservedTime"
  ],
  "type": "object",
  "$schema": "http://json-schema.org/schema#"
}