{
  "description": "LoadBalancerIngress represents the status of a load-balancer ingress point: traffic intended for the service should be sent to an ingress point.",
  "properties": {
    "hostname": {
      "description": "Hostname is set for load-balancer ingress points that are DNS based (typically AWS load-balancers)",
      "type": [
        "string",
        "null"
      ]
    },
    "ip": {
      "description": "IP is set for load-balancer ingress points that are IP based (typically GCE or OpenStack load-balancers)",
      "type": [
        "string",
        "null"
      ]
    },
    "ipMode": {
      "description": "IPMode specifies how the load-balancer IP behaves, and may only be specified when the ip field is specified. Setting this to \"VIP\" indicates that traffic is delivered to the node with the destination set to the load-balancer's IP and port. Setting this to \"Proxy\" indicates that traffic is delivered to the node or pod with the destination set to the node's IP and node port or the pod's IP and port. Service implementations may use this information to adjust traffic routing.",
      "type": [
        "string",
        "null"
      ]
    },
    "ports": {
      "description": "Ports is a list of records of service ports If used, every port defined in the service should have an entry in it",
      "items": {
        "$ref": "https://gitlab.cern.ch/jeedy-public/kubernetes-json-schemas/master/v1.29.1/_definitions.json#/definitions/io.k8s.api.core.v1.PortStatus"
      },
      "type": [
        "array",
        "null"
      ],
      "x-kubernetes-list-type": "atomic"
    }
  },
  "type": "object",
  "$schema": "http://json-schema.org/schema#"
}