{
  "description": "MetricTarget defines the target value, average value, or average utilization of a specific metric",
  "properties": {
    "averageUtilization": {
      "description": "averageUtilization is the target value of the average of the resource metric across all relevant pods, represented as a percentage of the requested value of the resource for the pods. Currently only valid for Resource metric source type",
      "format": "int32",
      "type": [
        "integer",
        "null"
      ]
    },
    "averageValue": {
      "$ref": "https://gitlab.cern.ch/jeedy-public/kubernetes-json-schemas/master/v1.29.1/_definitions.json#/definitions/io.k8s.apimachinery.pkg.api.resource.Quantity",
      "description": "averageValue is the target value of the average of the metric across all relevant pods (as a quantity)"
    },
    "type": {
      "description": "type represents whether the metric type is Utilization, Value, or AverageValue",
      "type": [
        "string",
        "null"
      ]
    },
    "value": {
      "$ref": "https://gitlab.cern.ch/jeedy-public/kubernetes-json-schemas/master/v1.29.1/_definitions.json#/definitions/io.k8s.apimachinery.pkg.api.resource.Quantity",
      "description": "value is the target value of the metric (as a quantity)."
    }
  },
  "required": [
    "type"
  ],
  "type": "object",
  "$schema": "http://json-schema.org/schema#"
}