{
  "description": "DeploymentStrategy describes how to replace existing pods with new ones.",
  "properties": {
    "rollingUpdate": {
      "$ref": "https://gitlab.cern.ch/jeedy-public/kubernetes-json-schemas/-/raw/master/v1.23.1/_definitions.json#/definitions/io.k8s.api.apps.v1.RollingUpdateDeployment",
      "description": "Rolling update config params. Present only if DeploymentStrategyType = RollingUpdate."
    },
    "type": {
      "description": "Type of deployment. Can be \"Recreate\" or \"RollingUpdate\". Default is RollingUpdate.\n\nPossible enum values:\n - `\"Recreate\"` Kill all existing pods before creating new ones.\n - `\"RollingUpdate\"` Replace the old ReplicaSets by new one using rolling update i.e gradually scale down the old ReplicaSets and scale up the new one.",
      "enum": [
        "Recreate",
        "RollingUpdate"
      ],
      "type": [
        "string",
        "null"
      ]
    }
  },
  "type": "object",
  "$schema": "http://json-schema.org/schema#"
}