{
  "description": "Eviction evicts a pod from its node subject to certain policies and safety constraints. This is a subresource of Pod.  A request to cause such an eviction is created by POSTing to .../pods/<pod name>/evictions.",
  "properties": {
    "apiVersion": {
      "description": "APIVersion defines the versioned schema of this representation of an object. Servers should convert recognized schemas to the latest internal value, and may reject unrecognized values. More info: https://git.k8s.io/community/contributors/devel/sig-architecture/api-conventions.md#resources",
      "type": [
        "string",
        "null"
      ],
      "enum": [
        "policy/v1"
      ]
    },
    "deleteOptions": {
      "$ref": "https://gitlab.cern.ch/jeedy-public/kubernetes-json-schemas/-/raw/master/v1.23.1/_definitions.json#/definitions/io.k8s.apimachinery.pkg.apis.meta.v1.DeleteOptions",
      "description": "DeleteOptions may be provided"
    },
    "kind": {
      "description": "Kind is a string value representing the REST resource this object represents. Servers may infer this from the endpoint the client submits requests to. Cannot be updated. In CamelCase. More info: https://git.k8s.io/community/contributors/devel/sig-architecture/api-conventions.md#types-kinds",
      "type": [
        "string",
        "null"
      ],
      "enum": [
        "Eviction"
      ]
    },
    "metadata": {
      "$ref": "https://gitlab.cern.ch/jeedy-public/kubernetes-json-schemas/-/raw/master/v1.23.1/_definitions.json#/definitions/io.k8s.apimachinery.pkg.apis.meta.v1.ObjectMeta",
      "description": "ObjectMeta describes the pod that is being evicted."
    }
  },
  "type": "object",
  "x-kubernetes-group-version-kind": [
    {
      "group": "policy",
      "kind": "Eviction",
      "version": "v1"
    }
  ],
  "$schema": "http://json-schema.org/schema#"
}