{
  "description": "ReplicaSet ensures that a specified number of pod replicas are running at any given time.",
  "properties": {
    "apiVersion": {
      "description": "APIVersion defines the versioned schema of this representation of an object. Servers should convert recognized schemas to the latest internal value, and may reject unrecognized values. More info: https://git.k8s.io/community/contributors/devel/sig-architecture/api-conventions.md#resources",
      "type": [
        "string",
        "null"
      ],
      "enum": [
        "apps/v1"
      ]
    },
    "kind": {
      "description": "Kind is a string value representing the REST resource this object represents. Servers may infer this from the endpoint the client submits requests to. Cannot be updated. In CamelCase. More info: https://git.k8s.io/community/contributors/devel/sig-architecture/api-conventions.md#types-kinds",
      "type": [
        "string",
        "null"
      ],
      "enum": [
        "ReplicaSet"
      ]
    },
    "metadata": {
      "$ref": "https://gitlab.cern.ch/jeedy-public/kubernetes-json-schemas/-/raw/master/v1.23.1/_definitions.json#/definitions/io.k8s.apimachinery.pkg.apis.meta.v1.ObjectMeta",
      "description": "If the Labels of a ReplicaSet are empty, they are defaulted to be the same as the Pod(s) that the ReplicaSet manages. Standard object's metadata. More info: https://git.k8s.io/community/contributors/devel/sig-architecture/api-conventions.md#metadata"
    },
    "spec": {
      "$ref": "https://gitlab.cern.ch/jeedy-public/kubernetes-json-schemas/-/raw/master/v1.23.1/_definitions.json#/definitions/io.k8s.api.apps.v1.ReplicaSetSpec",
      "description": "Spec defines the specification of the desired behavior of the ReplicaSet. More info: https://git.k8s.io/community/contributors/devel/sig-architecture/api-conventions.md#spec-and-status"
    },
    "status": {
      "$ref": "https://gitlab.cern.ch/jeedy-public/kubernetes-json-schemas/-/raw/master/v1.23.1/_definitions.json#/definitions/io.k8s.api.apps.v1.ReplicaSetStatus",
      "description": "Status is the most recently observed status of the ReplicaSet. This data may be out of date by some window of time. Populated by the system. Read-only. More info: https://git.k8s.io/community/contributors/devel/sig-architecture/api-conventions.md#spec-and-status"
    }
  },
  "type": "object",
  "x-kubernetes-group-version-kind": [
    {
      "group": "apps",
      "kind": "ReplicaSet",
      "version": "v1"
    }
  ],
  "$schema": "http://json-schema.org/schema#"
}