{
  "description": "StatefulSetUpdateStrategy indicates the strategy that the StatefulSet controller will use to perform updates. It includes any additional parameters necessary to perform the update for the indicated strategy.",
  "properties": {
    "rollingUpdate": {
      "$ref": "https://gitlab.cern.ch/jeedy-public/kubernetes-json-schemas/-/raw/master/v1.23.1/_definitions.json#/definitions/io.k8s.api.apps.v1.RollingUpdateStatefulSetStrategy",
      "description": "RollingUpdate is used to communicate parameters when Type is RollingUpdateStatefulSetStrategyType."
    },
    "type": {
      "description": "Type indicates the type of the StatefulSetUpdateStrategy. Default is RollingUpdate.\n\nPossible enum values:\n - `\"OnDelete\"` triggers the legacy behavior. Version tracking and ordered rolling restarts are disabled. Pods are recreated from the StatefulSetSpec when they are manually deleted. When a scale operation is performed with this strategy,specification version indicated by the StatefulSet's currentRevision.\n - `\"RollingUpdate\"` indicates that update will be applied to all Pods in the StatefulSet with respect to the StatefulSet ordering constraints. When a scale operation is performed with this strategy, new Pods will be created from the specification version indicated by the StatefulSet's updateRevision.",
      "enum": [
        "OnDelete",
        "RollingUpdate"
      ],
      "type": [
        "string",
        "null"
      ]
    }
  },
  "type": "object",
  "$schema": "http://json-schema.org/schema#"
}