{
  "description": "JobTemplateSpec describes the data a Job should have when created from a template",
  "properties": {
    "metadata": {
      "$ref": "https://gitlab.cern.ch/jeedy-public/kubernetes-json-schemas/-/raw/master/v1.19.6/_definitions.json#/definitions/io.k8s.apimachinery.pkg.apis.meta.v1.ObjectMeta",
      "description": "Standard object's metadata of the jobs created from this template. More info: https://git.k8s.io/community/contributors/devel/sig-architecture/api-conventions.md#metadata"
    },
    "spec": {
      "$ref": "https://gitlab.cern.ch/jeedy-public/kubernetes-json-schemas/-/raw/master/v1.19.6/_definitions.json#/definitions/io.k8s.api.batch.v1.JobSpec",
      "description": "Specification of the desired behavior of the job. More info: https://git.k8s.io/community/contributors/devel/sig-architecture/api-conventions.md#spec-and-status"
    }
  },
  "type": "object",
  "$schema": "http://json-schema.org/schema#"
}