{
  "description": "LimitRangeItem defines a min/max usage limit for any resource that matches on kind.",
  "properties": {
    "default": {
      "additionalProperties": {
        "$ref": "https://gitlab.cern.ch/jeedy-public/kubernetes-json-schemas/-/raw/master/v1.19.6/_definitions.json#/definitions/io.k8s.apimachinery.pkg.api.resource.Quantity"
      },
      "description": "Default resource requirement limit value by resource name if resource limit is omitted.",
      "type": [
        "object",
        "null"
      ]
    },
    "defaultRequest": {
      "additionalProperties": {
        "$ref": "https://gitlab.cern.ch/jeedy-public/kubernetes-json-schemas/-/raw/master/v1.19.6/_definitions.json#/definitions/io.k8s.apimachinery.pkg.api.resource.Quantity"
      },
      "description": "DefaultRequest is the default resource requirement request value by resource name if resource request is omitted.",
      "type": [
        "object",
        "null"
      ]
    },
    "max": {
      "additionalProperties": {
        "$ref": "https://gitlab.cern.ch/jeedy-public/kubernetes-json-schemas/-/raw/master/v1.19.6/_definitions.json#/definitions/io.k8s.apimachinery.pkg.api.resource.Quantity"
      },
      "description": "Max usage constraints on this kind by resource name.",
      "type": [
        "object",
        "null"
      ]
    },
    "maxLimitRequestRatio": {
      "additionalProperties": {
        "$ref": "https://gitlab.cern.ch/jeedy-public/kubernetes-json-schemas/-/raw/master/v1.19.6/_definitions.json#/definitions/io.k8s.apimachinery.pkg.api.resource.Quantity"
      },
      "description": "MaxLimitRequestRatio if specified, the named resource must have a request and limit that are both non-zero where limit divided by request is less than or equal to the enumerated value; this represents the max burst for the named resource.",
      "type": [
        "object",
        "null"
      ]
    },
    "min": {
      "additionalProperties": {
        "$ref": "https://gitlab.cern.ch/jeedy-public/kubernetes-json-schemas/-/raw/master/v1.19.6/_definitions.json#/definitions/io.k8s.apimachinery.pkg.api.resource.Quantity"
      },
      "description": "Min usage constraints on this kind by resource name.",
      "type": [
        "object",
        "null"
      ]
    },
    "type": {
      "description": "Type of resource that this limit applies to.",
      "type": [
        "string",
        "null"
      ]
    }
  },
  "required": [
    "type"
  ],
  "type": "object",
  "$schema": "http://json-schema.org/schema#"
}