{
  "description": "ContainerResourceMetricSource indicates how to scale on a resource metric known to Kubernetes, as specified in requests and limits, describing each pod in the current scale target (e.g. CPU or memory).  The values will be averaged together before being compared to the target.  Such metrics are built in to Kubernetes, and have special scaling options on top of those available to normal per-pod metrics using the \"pods\" source.  Only one \"target\" type should be set.",
  "properties": {
    "container": {
      "description": "container is the name of the container in the pods of the scaling target",
      "type": [
        "string",
        "null"
      ]
    },
    "name": {
      "description": "name is the name of the resource in question.",
      "type": [
        "string",
        "null"
      ]
    },
    "targetAverageUtilization": {
      "description": "targetAverageUtilization is the target value of the average of the resource metric across all relevant pods, represented as a percentage of the requested value of the resource for the pods.",
      "format": "int32",
      "type": [
        "integer",
        "null"
      ]
    },
    "targetAverageValue": {
      "$ref": "https://gitlab.cern.ch/jeedy-public/kubernetes-json-schemas/-/raw/master/v1.22.9/_definitions.json#/definitions/io.k8s.apimachinery.pkg.api.resource.Quantity",
      "description": "targetAverageValue is the target value of the average of the resource metric across all relevant pods, as a raw value (instead of as a percentage of the request), similar to the \"pods\" metric source type."
    }
  },
  "required": [
    "name",
    "container"
  ],
  "type": "object",
  "$schema": "http://json-schema.org/schema#"
}