{
  "description": "IngressStatus describe the current state of the Ingress.",
  "properties": {
    "loadBalancer": {
      "$ref": "https://gitlab.cern.ch/jeedy-public/kubernetes-json-schemas/-/raw/master/v1.16.13/_definitions.json#/definitions/io.k8s.api.core.v1.LoadBalancerStatus",
      "description": "LoadBalancer contains the current status of the load-balancer."
    }
  },
  "type": "object",
  "$schema": "http://json-schema.org/schema#"
}