{
  "description": "CronJobStatus represents the current state of a cron job.",
  "properties": {
    "active": {
      "description": "A list of pointers to currently running jobs.",
      "items": {
        "$ref": "https://gitlab.cern.ch/jeedy-public/kubernetes-json-schemas/master/v1.28.5/_definitions.json#/definitions/io.k8s.api.core.v1.ObjectReference"
      },
      "type": [
        "array",
        "null"
      ],
      "x-kubernetes-list-type": "atomic"
    },
    "lastScheduleTime": {
      "$ref": "https://gitlab.cern.ch/jeedy-public/kubernetes-json-schemas/master/v1.28.5/_definitions.json#/definitions/io.k8s.apimachinery.pkg.apis.meta.v1.Time",
      "description": "Information when was the last time the job was successfully scheduled."
    },
    "lastSuccessfulTime": {
      "$ref": "https://gitlab.cern.ch/jeedy-public/kubernetes-json-schemas/master/v1.28.5/_definitions.json#/definitions/io.k8s.apimachinery.pkg.apis.meta.v1.Time",
      "description": "Information when was the last time the job successfully completed."
    }
  },
  "type": "object",
  "$schema": "http://json-schema.org/schema#"
}