{
  "description": "PersistentVolumeStatus is the current status of a persistent volume.",
  "properties": {
    "lastPhaseTransitionTime": {
      "$ref": "https://gitlab.cern.ch/jeedy-public/kubernetes-json-schemas/master/v1.28.5/_definitions.json#/definitions/io.k8s.apimachinery.pkg.apis.meta.v1.Time",
      "description": "lastPhaseTransitionTime is the time the phase transitioned from one to another and automatically resets to current time everytime a volume phase transitions. This is an alpha field and requires enabling PersistentVolumeLastPhaseTransitionTime feature."
    },
    "message": {
      "description": "message is a human-readable message indicating details about why the volume is in this state.",
      "type": [
        "string",
        "null"
      ]
    },
    "phase": {
      "description": "phase indicates if a volume is available, bound to a claim, or released by a claim. More info: https://kubernetes.io/docs/concepts/storage/persistent-volumes#phase",
      "type": [
        "string",
        "null"
      ]
    },
    "reason": {
      "description": "reason is a brief CamelCase string that describes any failure and is meant for machine parsing and tidy display in the CLI.",
      "type": [
        "string",
        "null"
      ]
    }
  },
  "type": "object",
  "$schema": "http://json-schema.org/schema#"
}