{
  "description": "Represents an empty directory for a pod. Empty directory volumes support ownership management and SELinux relabeling.",
  "properties": {
    "medium": {
      "description": "What type of storage medium should back this directory. The default is \"\" which means to use the node's default medium. Must be an empty string (default) or Memory. More info: https://kubernetes.io/docs/concepts/storage/volumes#emptydir",
      "type": [
        "string",
        "null"
      ]
    },
    "sizeLimit": {
      "$ref": "https://gitlab.cern.ch/jeedy-public/kubernetes-json-schemas/-/raw/master/v1.18.10/_definitions.json#/definitions/io.k8s.apimachinery.pkg.api.resource.Quantity",
      "description": "Total amount of local storage required for this EmptyDir volume. The size limit is also applicable for memory medium. The maximum usage on memory medium EmptyDir would be the minimum value between the SizeLimit specified here and the sum of memory limits of all containers in a pod. The default is nil which means that the limit is undefined. More info: http://kubernetes.io/docs/user-guide/volumes#emptydir"
    }
  },
  "type": "object",
  "$schema": "http://json-schema.org/schema#"
}