{
  "description": "CustomResourceDefinitionVersion describes a version for CRD.",
  "properties": {
    "additionalPrinterColumns": {
      "description": "additionalPrinterColumns specifies additional columns returned in Table output. See https://kubernetes.io/docs/reference/using-api/api-concepts/#receiving-resources-as-tables for details. If no columns are specified, a single column displaying the age of the custom resource is used.",
      "items": {
        "$ref": "https://gitlab.cern.ch/jeedy-public/kubernetes-json-schemas/-/raw/master/v1.21.11/_definitions.json#/definitions/io.k8s.apiextensions-apiserver.pkg.apis.apiextensions.v1.CustomResourceColumnDefinition"
      },
      "type": [
        "array",
        "null"
      ]
    },
    "deprecated": {
      "description": "deprecated indicates this version of the custom resource API is deprecated. When set to true, API requests to this version receive a warning header in the server response. Defaults to false.",
      "type": [
        "boolean",
        "null"
      ]
    },
    "deprecationWarning": {
      "description": "deprecationWarning overrides the default warning returned to API clients. May only be set when `deprecated` is true. The default warning indicates this version is deprecated and recommends use of the newest served version of equal or greater stability, if one exists.",
      "type": [
        "string",
        "null"
      ]
    },
    "name": {
      "description": "name is the version name, e.g. \u201cv1\u201d, \u201cv2beta1\u201d, etc. The custom resources are served under this version at `/apis/<group>/<version>/...` if `served` is true.",
      "type": [
        "string",
        "null"
      ]
    },
    "schema": {
      "$ref": "https://gitlab.cern.ch/jeedy-public/kubernetes-json-schemas/-/raw/master/v1.21.11/_definitions.json#/definitions/io.k8s.apiextensions-apiserver.pkg.apis.apiextensions.v1.CustomResourceValidation",
      "description": "schema describes the schema used for validation, pruning, and defaulting of this version of the custom resource."
    },
    "served": {
      "description": "served is a flag enabling/disabling this version from being served via REST APIs",
      "type": [
        "boolean",
        "null"
      ]
    },
    "storage": {
      "description": "storage indicates this version should be used when persisting custom resources to storage. There must be exactly one version with storage=true.",
      "type": [
        "boolean",
        "null"
      ]
    },
    "subresources": {
      "$ref": "https://gitlab.cern.ch/jeedy-public/kubernetes-json-schemas/-/raw/master/v1.21.11/_definitions.json#/definitions/io.k8s.apiextensions-apiserver.pkg.apis.apiextensions.v1.CustomResourceSubresources",
      "description": "subresources specify what subresources this version of the defined custom resource have."
    }
  },
  "required": [
    "name",
    "served",
    "storage"
  ],
  "type": "object",
  "$schema": "http://json-schema.org/schema#"
}