{
  "description": "Secret holds secret data of a certain type. The total bytes of the values in the Data field must be less than MaxSecretSize bytes.",
  "properties": {
    "apiVersion": {
      "description": "APIVersion defines the versioned schema of this representation of an object. Servers should convert recognized schemas to the latest internal value, and may reject unrecognized values. More info: https://git.k8s.io/community/contributors/devel/sig-architecture/api-conventions.md#resources",
      "type": [
        "string",
        "null"
      ],
      "enum": [
        "v1"
      ]
    },
    "data": {
      "additionalProperties": {
        "format": "byte",
        "type": [
          "string",
          "null"
        ]
      },
      "description": "Data contains the secret data. Each key must consist of alphanumeric characters, '-', '_' or '.'. The serialized form of the secret data is a base64 encoded string, representing the arbitrary (possibly non-string) data value here. Described in https://tools.ietf.org/html/rfc4648#section-4",
      "type": [
        "object",
        "null"
      ]
    },
    "immutable": {
      "description": "Immutable, if set to true, ensures that data stored in the Secret cannot be updated (only object metadata can be modified). If not set to true, the field can be modified at any time. Defaulted to nil. This is an alpha field enabled by ImmutableEphemeralVolumes feature gate.",
      "type": [
        "boolean",
        "null"
      ]
    },
    "kind": {
      "description": "Kind is a string value representing the REST resource this object represents. Servers may infer this from the endpoint the client submits requests to. Cannot be updated. In CamelCase. More info: https://git.k8s.io/community/contributors/devel/sig-architecture/api-conventions.md#types-kinds",
      "type": [
        "string",
        "null"
      ],
      "enum": [
        "Secret"
      ]
    },
    "metadata": {
      "$ref": "https://gitlab.cern.ch/jeedy-public/kubernetes-json-schemas/-/raw/master/v1.18.15/_definitions.json#/definitions/io.k8s.apimachinery.pkg.apis.meta.v1.ObjectMeta",
      "description": "Standard object's metadata. More info: https://git.k8s.io/community/contributors/devel/sig-architecture/api-conventions.md#metadata"
    },
    "stringData": {
      "additionalProperties": {
        "type": [
          "string",
          "null"
        ]
      },
      "description": "stringData allows specifying non-binary secret data in string form. It is provided as a write-only convenience method. All keys and values are merged into the data field on write, overwriting any existing values. It is never output when reading from the API.",
      "type": [
        "object",
        "null"
      ]
    },
    "type": {
      "description": "Used to facilitate programmatic handling of secret data.",
      "type": [
        "string",
        "null"
      ]
    }
  },
  "type": "object",
  "x-kubernetes-group-version-kind": [
    {
      "group": "",
      "kind": "Secret",
      "version": "v1"
    }
  ],
  "$schema": "http://json-schema.org/schema#"
}