{
  "description": "ValidatingAdmissionPolicySpec is the specification of the desired behavior of the AdmissionPolicy.",
  "properties": {
    "failurePolicy": {
      "description": "FailurePolicy defines how to handle failures for the admission policy. Failures can occur from invalid or mis-configured policy definitions or bindings. A policy is invalid if spec.paramKind refers to a non-existent Kind. A binding is invalid if spec.paramRef.name refers to a non-existent resource. Allowed values are Ignore or Fail. Defaults to Fail.",
      "type": [
        "string",
        "null"
      ]
    },
    "matchConstraints": {
      "$ref": "https://gitlab.cern.ch/jeedy-public/kubernetes-json-schemas/master/v1.26.10/_definitions.json#/definitions/io.k8s.api.admissionregistration.v1alpha1.MatchResources",
      "description": "MatchConstraints specifies what resources this policy is designed to validate. The AdmissionPolicy cares about a request if it matches _all_ Constraints. However, in order to prevent clusters from being put into an unstable state that cannot be recovered from via the API ValidatingAdmissionPolicy cannot match ValidatingAdmissionPolicy and ValidatingAdmissionPolicyBinding. Required."
    },
    "paramKind": {
      "$ref": "https://gitlab.cern.ch/jeedy-public/kubernetes-json-schemas/master/v1.26.10/_definitions.json#/definitions/io.k8s.api.admissionregistration.v1alpha1.ParamKind",
      "description": "ParamKind specifies the kind of resources used to parameterize this policy. If absent, there are no parameters for this policy and the param CEL variable will not be provided to validation expressions. If ParamKind refers to a non-existent kind, this policy definition is mis-configured and the FailurePolicy is applied. If paramKind is specified but paramRef is unset in ValidatingAdmissionPolicyBinding, the params variable will be null."
    },
    "validations": {
      "description": "Validations contain CEL expressions which is used to apply the validation. A minimum of one validation is required for a policy definition. Required.",
      "items": {
        "$ref": "https://gitlab.cern.ch/jeedy-public/kubernetes-json-schemas/master/v1.26.10/_definitions.json#/definitions/io.k8s.api.admissionregistration.v1alpha1.Validation"
      },
      "type": [
        "array",
        "null"
      ],
      "x-kubernetes-list-type": "atomic"
    }
  },
  "required": [
    "validations"
  ],
  "type": "object",
  "$schema": "http://json-schema.org/schema#"
}