{
  "description": "NamespaceStatus is information about the current status of a Namespace.",
  "properties": {
    "conditions": {
      "description": "Represents the latest available observations of a namespace's current state.",
      "items": {
        "$ref": "https://gitlab.cern.ch/jeedy-public/kubernetes-json-schemas/master/v1.26.13/_definitions.json#/definitions/io.k8s.api.core.v1.NamespaceCondition"
      },
      "type": [
        "array",
        "null"
      ],
      "x-kubernetes-patch-merge-key": "type",
      "x-kubernetes-patch-strategy": "merge"
    },
    "phase": {
      "description": "Phase is the current lifecycle phase of the namespace. More info: https://kubernetes.io/docs/tasks/administer-cluster/namespaces/\n\n",
      "type": [
        "string",
        "null"
      ]
    }
  },
  "type": "object",
  "$schema": "http://json-schema.org/schema#"
}