{
  "description": "Deployment enables declarative updates for Pods and ReplicaSets.",
  "properties": {
    "apiVersion": {
      "description": "APIVersion defines the versioned schema of this representation of an object. Servers should convert recognized schemas to the latest internal value, and may reject unrecognized values. More info: https://git.k8s.io/community/contributors/devel/sig-architecture/api-conventions.md#resources",
      "type": [
        "string",
        "null"
      ],
      "enum": [
        "apps/v1"
      ]
    },
    "kind": {
      "description": "Kind is a string value representing the REST resource this object represents. Servers may infer this from the endpoint the client submits requests to. Cannot be updated. In CamelCase. More info: https://git.k8s.io/community/contributors/devel/sig-architecture/api-conventions.md#types-kinds",
      "type": [
        "string",
        "null"
      ],
      "enum": [
        "Deployment"
      ]
    },
    "metadata": {
      "$ref": "https://gitlab.cern.ch/jeedy-public/kubernetes-json-schemas/-/raw/master/v1.20.2/_definitions.json#/definitions/io.k8s.apimachinery.pkg.apis.meta.v1.ObjectMeta",
      "description": "Standard object metadata."
    },
    "spec": {
      "$ref": "https://gitlab.cern.ch/jeedy-public/kubernetes-json-schemas/-/raw/master/v1.20.2/_definitions.json#/definitions/io.k8s.api.apps.v1.DeploymentSpec",
      "description": "Specification of the desired behavior of the Deployment."
    },
    "status": {
      "$ref": "https://gitlab.cern.ch/jeedy-public/kubernetes-json-schemas/-/raw/master/v1.20.2/_definitions.json#/definitions/io.k8s.api.apps.v1.DeploymentStatus",
      "description": "Most recently observed status of the Deployment."
    }
  },
  "type": "object",
  "x-kubernetes-group-version-kind": [
    {
      "group": "apps",
      "kind": "Deployment",
      "version": "v1"
    }
  ],
  "$schema": "http://json-schema.org/schema#"
}