{
  "description": "Represents a Rados Block Device mount that lasts the lifetime of a pod. RBD volumes support ownership management and SELinux relabeling.",
  "properties": {
    "fsType": {
      "description": "fsType is the filesystem type of the volume that you want to mount. Tip: Ensure that the filesystem type is supported by the host operating system. Examples: \"ext4\", \"xfs\", \"ntfs\". Implicitly inferred to be \"ext4\" if unspecified. More info: https://kubernetes.io/docs/concepts/storage/volumes#rbd",
      "type": [
        "string",
        "null"
      ]
    },
    "image": {
      "description": "image is the rados image name. More info: https://examples.k8s.io/volumes/rbd/README.md#how-to-use-it",
      "type": [
        "string",
        "null"
      ]
    },
    "keyring": {
      "description": "keyring is the path to key ring for RBDUser. Default is /etc/ceph/keyring. More info: https://examples.k8s.io/volumes/rbd/README.md#how-to-use-it",
      "type": [
        "string",
        "null"
      ]
    },
    "monitors": {
      "description": "monitors is a collection of Ceph monitors. More info: https://examples.k8s.io/volumes/rbd/README.md#how-to-use-it",
      "items": {
        "type": [
          "string",
          "null"
        ]
      },
      "type": [
        "array",
        "null"
      ]
    },
    "pool": {
      "description": "pool is the rados pool name. Default is rbd. More info: https://examples.k8s.io/volumes/rbd/README.md#how-to-use-it",
      "type": [
        "string",
        "null"
      ]
    },
    "readOnly": {
      "description": "readOnly here will force the ReadOnly setting in VolumeMounts. Defaults to false. More info: https://examples.k8s.io/volumes/rbd/README.md#how-to-use-it",
      "type": [
        "boolean",
        "null"
      ]
    },
    "secretRef": {
      "$ref": "https://gitlab.cern.ch/jeedy-public/kubernetes-json-schemas/master/v1.26.7/_definitions.json#/definitions/io.k8s.api.core.v1.SecretReference",
      "description": "secretRef is name of the authentication secret for RBDUser. If provided overrides keyring. Default is nil. More info: https://examples.k8s.io/volumes/rbd/README.md#how-to-use-it"
    },
    "user": {
      "description": "user is the rados user name. Default is admin. More info: https://examples.k8s.io/volumes/rbd/README.md#how-to-use-it",
      "type": [
        "string",
        "null"
      ]
    }
  },
  "required": [
    "monitors",
    "image"
  ],
  "type": "object",
  "$schema": "http://json-schema.org/schema#"
}