{
  "description": "ValidatingAdmissionPolicyBindingSpec is the specification of the ValidatingAdmissionPolicyBinding.",
  "properties": {
    "matchResources": {
      "$ref": "https://gitlab.cern.ch/jeedy-public/kubernetes-json-schemas/master/v1.26.7/_definitions.json#/definitions/io.k8s.api.admissionregistration.v1alpha1.MatchResources",
      "description": "MatchResources declares what resources match this binding and will be validated by it. Note that this is intersected with the policy's matchConstraints, so only requests that are matched by the policy can be selected by this. If this is unset, all resources matched by the policy are validated by this binding When resourceRules is unset, it does not constrain resource matching. If a resource is matched by the other fields of this object, it will be validated. Note that this is differs from ValidatingAdmissionPolicy matchConstraints, where resourceRules are required."
    },
    "paramRef": {
      "$ref": "https://gitlab.cern.ch/jeedy-public/kubernetes-json-schemas/master/v1.26.7/_definitions.json#/definitions/io.k8s.api.admissionregistration.v1alpha1.ParamRef",
      "description": "ParamRef specifies the parameter resource used to configure the admission control policy. It should point to a resource of the type specified in ParamKind of the bound ValidatingAdmissionPolicy. If the policy specifies a ParamKind and the resource referred to by ParamRef does not exist, this binding is considered mis-configured and the FailurePolicy of the ValidatingAdmissionPolicy applied."
    },
    "policyName": {
      "description": "PolicyName references a ValidatingAdmissionPolicy name which the ValidatingAdmissionPolicyBinding binds to. If the referenced resource does not exist, this binding is considered invalid and will be ignored Required.",
      "type": [
        "string",
        "null"
      ]
    }
  },
  "type": "object",
  "$schema": "http://json-schema.org/schema#"
}