{
  "description": "ObjectMetricStatus indicates the current value of a metric describing a kubernetes object (for example, hits-per-second on an Ingress object).",
  "properties": {
    "averageValue": {
      "$ref": "https://gitlab.cern.ch/jeedy-public/kubernetes-json-schemas/-/raw/master/v1.15.1/_definitions.json#/definitions/io.k8s.apimachinery.pkg.api.resource.Quantity",
      "description": "averageValue is the current value of the average of the metric across all relevant pods (as a quantity)"
    },
    "currentValue": {
      "$ref": "https://gitlab.cern.ch/jeedy-public/kubernetes-json-schemas/-/raw/master/v1.15.1/_definitions.json#/definitions/io.k8s.apimachinery.pkg.api.resource.Quantity",
      "description": "currentValue is the current value of the metric (as a quantity)."
    },
    "metricName": {
      "description": "metricName is the name of the metric in question.",
      "type": [
        "string",
        "null"
      ]
    },
    "selector": {
      "$ref": "https://gitlab.cern.ch/jeedy-public/kubernetes-json-schemas/-/raw/master/v1.15.1/_definitions.json#/definitions/io.k8s.apimachinery.pkg.apis.meta.v1.LabelSelector",
      "description": "selector is the string-encoded form of a standard kubernetes label selector for the given metric When set in the ObjectMetricSource, it is passed as an additional parameter to the metrics server for more specific metrics scoping. When unset, just the metricName will be used to gather metrics."
    },
    "target": {
      "$ref": "https://gitlab.cern.ch/jeedy-public/kubernetes-json-schemas/-/raw/master/v1.15.1/_definitions.json#/definitions/io.k8s.api.autoscaling.v2beta1.CrossVersionObjectReference",
      "description": "target is the described Kubernetes object."
    }
  },
  "required": [
    "target",
    "metricName",
    "currentValue"
  ],
  "type": "object",
  "$schema": "http://json-schema.org/schema#"
}