{
  "description": "ConfigMap holds configuration data for pods to consume.",
  "properties": {
    "apiVersion": {
      "description": "APIVersion defines the versioned schema of this representation of an object. Servers should convert recognized schemas to the latest internal value, and may reject unrecognized values. More info: https://git.k8s.io/community/contributors/devel/api-conventions.md#resources",
      "type": [
        "string",
        "null"
      ]
    },
    "binaryData": {
      "additionalProperties": {
        "format": "byte",
        "type": [
          "string",
          "null"
        ]
      },
      "description": "BinaryData contains the binary data. Each key must consist of alphanumeric characters, '-', '_' or '.'. BinaryData can contain byte sequences that are not in the UTF-8 range. The keys stored in BinaryData must not overlap with the ones in the Data field, this is enforced during validation process. Using this field will require 1.10+ apiserver and kubelet.",
      "type": [
        "object",
        "null"
      ]
    },
    "data": {
      "additionalProperties": {
        "type": [
          "string",
          "null"
        ]
      },
      "description": "Data contains the configuration data. Each key must consist of alphanumeric characters, '-', '_' or '.'. Values with non-UTF-8 byte sequences must use the BinaryData field. The keys stored in Data must not overlap with the keys in the BinaryData field, this is enforced during validation process.",
      "type": [
        "object",
        "null"
      ]
    },
    "kind": {
      "description": "Kind is a string value representing the REST resource this object represents. Servers may infer this from the endpoint the client submits requests to. Cannot be updated. In CamelCase. More info: https://git.k8s.io/community/contributors/devel/api-conventions.md#types-kinds",
      "type": [
        "string",
        "null"
      ],
      "enum": [
        "ConfigMap"
      ]
    },
    "metadata": {
      "$ref": "https://gitlab.cern.ch/jeedy-public/kubernetes-json-schemas/-/raw/master/v1.15.12/_definitions.json#/definitions/io.k8s.apimachinery.pkg.apis.meta.v1.ObjectMeta",
      "description": "Standard object's metadata. More info: https://git.k8s.io/community/contributors/devel/api-conventions.md#metadata"
    }
  },
  "type": "object",
  "x-kubernetes-group-version-kind": [
    {
      "group": "",
      "kind": "ConfigMap",
      "version": "v1"
    }
  ],
  "$schema": "http://json-schema.org/schema#"
}