{
  "description": "DeploymentSpec is the specification of the desired behavior of the Deployment.",
  "properties": {
    "minReadySeconds": {
      "description": "Minimum number of seconds for which a newly created pod should be ready without any of its container crashing, for it to be considered available. Defaults to 0 (pod will be considered available as soon as it is ready)",
      "format": "int32",
      "type": [
        "integer",
        "null"
      ]
    },
    "paused": {
      "description": "Indicates that the deployment is paused and will not be processed by the deployment controller.",
      "type": [
        "boolean",
        "null"
      ]
    },
    "progressDeadlineSeconds": {
      "description": "The maximum time in seconds for a deployment to make progress before it is considered to be failed. The deployment controller will continue to process failed deployments and a condition with a ProgressDeadlineExceeded reason will be surfaced in the deployment status. Note that progress will not be estimated during the time a deployment is paused. This is set to the max value of int32 (i.e. 2147483647) by default, which means \"no deadline\".",
      "format": "int32",
      "type": [
        "integer",
        "null"
      ]
    },
    "replicas": {
      "description": "Number of desired pods. This is a pointer to distinguish between explicit zero and not specified. Defaults to 1.",
      "format": "int32",
      "type": [
        "integer",
        "null"
      ]
    },
    "revisionHistoryLimit": {
      "description": "The number of old ReplicaSets to retain to allow rollback. This is a pointer to distinguish between explicit zero and not specified. This is set to the max value of int32 (i.e. 2147483647) by default, which means \"retaining all old RelicaSets\".",
      "format": "int32",
      "type": [
        "integer",
        "null"
      ]
    },
    "rollbackTo": {
      "$ref": "https://gitlab.cern.ch/jeedy-public/kubernetes-json-schemas/-/raw/master/v1.15.12/_definitions.json#/definitions/io.k8s.api.extensions.v1beta1.RollbackConfig",
      "description": "DEPRECATED. The config this deployment is rolling back to. Will be cleared after rollback is done."
    },
    "selector": {
      "$ref": "https://gitlab.cern.ch/jeedy-public/kubernetes-json-schemas/-/raw/master/v1.15.12/_definitions.json#/definitions/io.k8s.apimachinery.pkg.apis.meta.v1.LabelSelector",
      "description": "Label selector for pods. Existing ReplicaSets whose pods are selected by this will be the ones affected by this deployment."
    },
    "strategy": {
      "$ref": "https://gitlab.cern.ch/jeedy-public/kubernetes-json-schemas/-/raw/master/v1.15.12/_definitions.json#/definitions/io.k8s.api.extensions.v1beta1.DeploymentStrategy",
      "description": "The deployment strategy to use to replace existing pods with new ones.",
      "x-kubernetes-patch-strategy": "retainKeys"
    },
    "template": {
      "$ref": "https://gitlab.cern.ch/jeedy-public/kubernetes-json-schemas/-/raw/master/v1.15.12/_definitions.json#/definitions/io.k8s.api.core.v1.PodTemplateSpec",
      "description": "Template describes the pods that will be created."
    }
  },
  "required": [
    "template"
  ],
  "type": "object",
  "$schema": "http://json-schema.org/schema#"
}