{
  "description": "ResourceFieldSelector represents container resources (cpu, memory) and their output format",
  "properties": {
    "containerName": {
      "description": "Container name: required for volumes, optional for env vars",
      "type": [
        "string",
        "null"
      ]
    },
    "divisor": {
      "$ref": "https://gitlab.cern.ch/jeedy-public/kubernetes-json-schemas/-/raw/master/v1.21.3/_definitions.json#/definitions/io.k8s.apimachinery.pkg.api.resource.Quantity",
      "description": "Specifies the output format of the exposed resources, defaults to \"1\""
    },
    "resource": {
      "description": "Required: resource to select",
      "type": [
        "string",
        "null"
      ]
    }
  },
  "required": [
    "resource"
  ],
  "type": "object",
  "$schema": "http://json-schema.org/schema#"
}