{
  "description": "Subject matches the originator of a request, as identified by the request authentication system. There are three ways of matching an originator; by user, group, or service account.",
  "properties": {
    "group": {
      "$ref": "https://gitlab.cern.ch/jeedy-public/kubernetes-json-schemas/-/raw/master/v1.21.3/_definitions.json#/definitions/io.k8s.api.flowcontrol.v1beta1.GroupSubject"
    },
    "kind": {
      "description": "Required",
      "type": [
        "string",
        "null"
      ]
    },
    "serviceAccount": {
      "$ref": "https://gitlab.cern.ch/jeedy-public/kubernetes-json-schemas/-/raw/master/v1.21.3/_definitions.json#/definitions/io.k8s.api.flowcontrol.v1beta1.ServiceAccountSubject"
    },
    "user": {
      "$ref": "https://gitlab.cern.ch/jeedy-public/kubernetes-json-schemas/-/raw/master/v1.21.3/_definitions.json#/definitions/io.k8s.api.flowcontrol.v1beta1.UserSubject"
    }
  },
  "required": [
    "kind"
  ],
  "type": "object",
  "x-kubernetes-unions": [
    {
      "discriminator": "kind",
      "fields-to-discriminateBy": {
        "group": "Group",
        "serviceAccount": "ServiceAccount",
        "user": "User"
      }
    }
  ],
  "$schema": "http://json-schema.org/schema#"
}